<?xml version="1.0" encoding="utf-8"?>
<!-- Generator: Adobe Illustrator 25.2.1, SVG Export Plug-In . SVG Version: 6.00 Build 0)  -->
<svg version="1.1" id="Capa_1" xmlns="http://www.w3.org/2000/svg" xmlns:xlink="http://www.w3.org/1999/xlink" x="0px" y="0px"
	 viewBox="0 0 180.1 79.6" style="enable-background:new 0 0 180.1 79.6;" xml:space="preserve">
<style type="text/css">
	.st0{fill:#003870;}
</style>
<g>
	<g>
		<path class="st0" d="M7.4,64.5h1.3v9.8H7.4V64.5z"/>
		<path class="st0" d="M10.6,67.2h1.1v1.1h0C12.2,67.4,13,67,14,67c1.9,0,2.4,1.1,2.4,2.6v4.7h-1.2v-4.8c0-0.9-0.5-1.4-1.4-1.4
			c-1.4,0-2.1,0.9-2.1,2.2v4h-1.2L10.6,67.2L10.6,67.2z"/>
		<path class="st0" d="M21.4,74.2h-1.2l-2.6-7.1h1.3l2,5.9h0l1.9-5.9H24L21.4,74.2z"/>
		<path class="st0" d="M31,72c-0.3,1.6-1.4,2.4-3,2.4c-2.3,0-3.3-1.6-3.4-3.7c0-2.1,1.4-3.7,3.3-3.7c2.5,0,3.3,2.3,3.2,4.1h-5.3
			c0,1.2,0.7,2.3,2.2,2.3c1,0,1.6-0.5,1.8-1.4L31,72L31,72z M29.9,70c-0.1-1.1-0.9-2-2-2c-1.2,0-1.9,0.9-2,2H29.9z"/>
		<path class="st0" d="M32.2,67.2h1.1v1.5h0c0.6-1.1,1.3-1.7,2.6-1.7v1.2c-1.9,0-2.6,1.1-2.6,2.9v3.1h-1.2V67.2z"/>
		<path class="st0" d="M38.4,67.2h1.4v1h-1.4v4.4c0,0.5,0.2,0.6,0.9,0.6h0.5v1h-0.9c-1.2,0-1.7-0.2-1.7-1.5v-4.5H36v-1h1.2V65h1.2
			L38.4,67.2L38.4,67.2z"/>
		<path class="st0" d="M42.3,65.9h-1.2v-1.4h1.2V65.9z M41.1,67.2h1.2v7.1h-1.2V67.2z"/>
		<path class="st0" d="M44,67.2h1.1v1.5h0c0.6-1.1,1.3-1.7,2.6-1.7v1.2c-1.9,0-2.6,1.1-2.6,2.9v3.1H44C44,74.2,44,67.2,44,67.2z"/>
		<path class="st0" d="M58.3,72c-0.3,1.6-1.4,2.4-3,2.4c-2.3,0-3.3-1.6-3.4-3.7c0-2.1,1.4-3.7,3.3-3.7c2.5,0,3.3,2.3,3.2,4.1h-5.3
			c0,1.2,0.7,2.3,2.2,2.3c1,0,1.6-0.5,1.8-1.4L58.3,72L58.3,72z M57.2,70c-0.1-1.1-0.9-2-2-2c-1.2,0-1.9,0.9-2,2H57.2z"/>
		<path class="st0" d="M59.6,67.2h1.1v1.1h0C61.2,67.4,62,67,63,67c1.9,0,2.4,1.1,2.4,2.6v4.7h-1.2v-4.8c0-0.9-0.5-1.4-1.4-1.4
			c-1.4,0-2.1,0.9-2.1,2.2v4h-1.2C59.6,74.2,59.6,67.2,59.6,67.2z"/>
		<path class="st0" d="M71,64.5h1.2v9.8H71V64.5z"/>
		<path class="st0" d="M80.1,74.2c-0.2,0.1-0.5,0.2-0.8,0.2c-0.6,0-1-0.3-1-1.1c-0.6,0.8-1.5,1.1-2.5,1.1c-1.3,0-2.3-0.6-2.3-2
			c0-1.6,1.2-1.9,2.4-2.2c1.3-0.2,2.4-0.2,2.4-1c0-1-0.8-1.2-1.6-1.2c-1,0-1.7,0.3-1.8,1.3h-1.2c0.1-1.8,1.4-2.4,3-2.4
			c1.3,0,2.7,0.3,2.7,1.9v3.6c0,0.5,0,0.8,0.4,0.8c0.1,0,0.2,0,0.4-0.1L80.1,74.2L80.1,74.2z M78.2,70.6c-0.5,0.3-1.3,0.3-2.1,0.5
			c-0.8,0.1-1.4,0.4-1.4,1.3c0,0.8,0.7,1,1.4,1c1.5,0,2.2-1,2.2-1.6L78.2,70.6L78.2,70.6z"/>
		<path class="st0" d="M85,67.2h1.2v1h0c0.4-0.8,1.3-1.1,2.3-1.1c2.2,0,3.3,1.7,3.3,3.7c0,2-1.1,3.7-3.2,3.7c-0.7,0-1.8-0.3-2.3-1.1
			h0v3.7H85L85,67.2L85,67.2z M88.2,68c-1.6,0-2.2,1.3-2.2,2.7c0,1.4,0.6,2.7,2.2,2.7c1.6,0,2.1-1.4,2.1-2.7
			C90.4,69.3,89.7,68,88.2,68z"/>
		<path class="st0" d="M96,67c2.2,0,3.4,1.6,3.4,3.7c0,2.1-1.2,3.7-3.4,3.7s-3.4-1.6-3.4-3.7C92.6,68.6,93.8,67,96,67z M96,73.4
			c1.2,0,2.2-1,2.2-2.7c0-1.7-1-2.7-2.2-2.7c-1.2,0-2.2,1-2.2,2.7C93.8,72.4,94.8,73.4,96,73.4z"/>
		<path class="st0" d="M100.8,64.5h1.2v3.7h0c0.4-0.8,1.3-1.1,2.3-1.1c2.2,0,3.3,1.7,3.3,3.7c0,2-1.1,3.7-3.2,3.7
			c-0.7,0-1.8-0.3-2.3-1.1h0v0.9h-1.2C100.8,74.2,100.8,64.5,100.8,64.5z M104.1,68c-1.6,0-2.2,1.3-2.2,2.7c0,1.4,0.6,2.7,2.2,2.7
			c1.6,0,2.1-1.4,2.1-2.7C106.3,69.3,105.6,68,104.1,68z"/>
		<path class="st0" d="M108.9,64.5h1.2v9.8h-1.2V64.5z"/>
		<path class="st0" d="M118.1,74.2c-0.2,0.1-0.5,0.2-0.8,0.2c-0.6,0-1-0.3-1-1.1c-0.6,0.8-1.5,1.1-2.5,1.1c-1.3,0-2.3-0.6-2.3-2
			c0-1.6,1.2-1.9,2.4-2.2c1.3-0.2,2.4-0.2,2.4-1c0-1-0.8-1.2-1.6-1.2c-1,0-1.7,0.3-1.8,1.3h-1.2c0.1-1.8,1.4-2.4,3-2.4
			c1.3,0,2.7,0.3,2.7,1.9v3.6c0,0.5,0,0.8,0.4,0.8c0.1,0,0.2,0,0.4-0.1V74.2z M116.2,70.6c-0.5,0.3-1.3,0.3-2.1,0.5
			c-0.8,0.1-1.4,0.4-1.4,1.3c0,0.8,0.7,1,1.4,1c1.5,0,2.2-1,2.2-1.6V70.6z"/>
		<path class="st0" d="M123.9,69.4c-0.2-0.9-0.8-1.4-1.8-1.4c-1.7,0-2.2,1.3-2.2,2.8c0,1.3,0.6,2.6,2.1,2.6c1.1,0,1.8-0.7,1.9-1.7
			h1.2c-0.3,1.7-1.3,2.8-3.1,2.8c-2.2,0-3.3-1.5-3.3-3.6c0-2.1,1.1-3.8,3.3-3.8c1.6,0,2.9,0.8,3.1,2.4
			C125.1,69.4,123.9,69.4,123.9,69.4z"/>
		<path class="st0" d="M127.7,65.9h-1.2v-1.4h1.2V65.9z M126.5,67.2h1.2v7.1h-1.2V67.2z"/>
		<path class="st0" d="M132.5,67c2.2,0,3.4,1.6,3.4,3.7c0,2.1-1.2,3.7-3.4,3.7s-3.4-1.6-3.4-3.7C129,68.6,130.2,67,132.5,67z
			 M132.5,73.4c1.2,0,2.2-1,2.2-2.7c0-1.7-1-2.7-2.2-2.7c-1.2,0-2.2,1-2.2,2.7C130.3,72.4,131.2,73.4,132.5,73.4z M132.8,64.2h1.5
			l-1.8,2h-0.9L132.8,64.2z"/>
		<path class="st0" d="M137.2,67.2h1.1v1.1h0c0.5-0.9,1.3-1.3,2.3-1.3c1.9,0,2.4,1.1,2.4,2.6v4.7h-1.2v-4.8c0-0.9-0.5-1.4-1.4-1.4
			c-1.4,0-2.1,0.9-2.1,2.2v4h-1.2L137.2,67.2L137.2,67.2z"/>
		<path class="st0" d="M148.5,67.2h1.1v1.5h0c0.6-1.1,1.3-1.7,2.6-1.7v1.2c-1.9,0-2.6,1.1-2.6,2.9v3.1h-1.2V67.2z"/>
		<path class="st0" d="M158.9,74.2h-1.1v-1.1h0c-0.5,0.9-1.3,1.3-2.3,1.3c-1.9,0-2.4-1.1-2.4-2.6v-4.7h1.2v4.8
			c0,0.9,0.5,1.4,1.4,1.4c1.4,0,2.1-0.9,2.1-2.2v-4h1.2L158.9,74.2L158.9,74.2z"/>
		<path class="st0" d="M160.6,67.2h1.1v1.5h0c0.6-1.1,1.3-1.7,2.6-1.7v1.2c-1.9,0-2.6,1.1-2.6,2.9v3.1h-1.2L160.6,67.2L160.6,67.2z"
			/>
		<path class="st0" d="M171.4,74.2c-0.2,0.1-0.5,0.2-0.8,0.2c-0.6,0-1-0.3-1-1.1c-0.6,0.8-1.5,1.1-2.5,1.1c-1.3,0-2.3-0.6-2.3-2
			c0-1.6,1.2-1.9,2.4-2.2c1.3-0.2,2.4-0.2,2.4-1c0-1-0.8-1.2-1.6-1.2c-1,0-1.7,0.3-1.8,1.3H165c0.1-1.8,1.4-2.4,3-2.4
			c1.3,0,2.7,0.3,2.7,1.9v3.6c0,0.5,0,0.8,0.4,0.8c0.1,0,0.2,0,0.4-0.1L171.4,74.2L171.4,74.2z M169.5,70.6
			c-0.5,0.3-1.3,0.3-2.1,0.5c-0.8,0.1-1.4,0.4-1.4,1.3c0,0.8,0.7,1,1.4,1c1.5,0,2.2-1,2.2-1.6L169.5,70.6L169.5,70.6z"/>
		<path class="st0" d="M172.5,64.5h1.2v9.8h-1.2V64.5z"/>
	</g>
	<g>
		<path class="st0" d="M43.4,53.4h5.2v-8.1h6.2v-4.8h-6.2V37H55v-4.8H43.4V53.4z M57.9,53.4h5.4V32.3h-5.4V53.4z M66.8,53.4h7.4
			c8.1,0,10.9-4.9,10.9-10.7c0-2.3-0.5-4.6-1.9-6.6c-2.7-4-7-4-9.4-4h-7C66.8,32.3,66.8,53.4,66.8,53.4z M72.3,37h2.3
			c2.4,0,3.5,1,4.1,1.9c0.8,1.2,1,2.7,1,3.9c0,3-1.1,5.8-5.2,5.8h-2.3V37z M99.5,50.4l1,3.1h5.9L98,32.3h-4.3l-8.5,21.2H91l1.1-3.1
			H99.5z M95.8,38.8L95.8,38.8L95.8,38.8l2.3,7.2h-4.4L95.8,38.8z"/>
	</g>
	<g>
		<path class="st0" d="M29.7,20L29.7,20L29.7,20z"/>
		<path class="st0" d="M16.2,20L16.2,20L16.2,20z"/>
		<path class="st0" d="M22.9,20.1c-0.3-0.4-0.4-0.6-0.7-1c-0.3-0.3-0.5-0.5-0.9-0.7c-0.3-0.2-0.4-0.2-0.7-0.4
			c-0.3-0.2-0.5-0.3-0.8-0.5c-0.3-0.2-0.4-0.4-0.6-0.7c-0.3-0.4-0.4-0.6-0.6-1.1c-0.2-0.4-0.2-0.6-0.3-1.1c-0.1-0.4,0-0.7,0-1.1
			c0-0.3,0.1-0.5,0.2-0.8c0.1-0.2,0.1-0.3,0.2-0.5c0.1-0.2,0.2-0.2,0.3-0.4V5.2h0.4v6.7l0,0c0,0.4,0,0.6,0.1,0.9
			c0.1,0.3,0.1,0.5,0.3,0.8c0.2,0.3,0.4,0.5,0.7,0.7c0.2,0.1,0.3,0.2,0.5,0.2c0.1,0,0.2,0,0.2,0c-0.1-0.3-0.2-0.7-0.2-1.1
			c0-0.5,0.1-0.9,0.2-1.2V5.2h0h0.4v6.5l0,0l0,0l0,0c0.1-0.1,0.2-0.2,0.3-0.3c0.1-0.1,0.2-0.1,0.3-0.2c0.1-0.1,0.2-0.1,0.3-0.1
			c0.1,0,0.4,0,0.4,0s0.2,0,0.4,0c0.1,0,0.2,0.1,0.3,0.1c0.1,0.1,0.2,0.1,0.3,0.2c0.1,0.1,0.2,0.2,0.3,0.3l0,0l0,0l0,0V5.2h0.4h0
			v7.1c0.1,0.3,0.2,0.7,0.2,1.2c0,0.4-0.1,0.8-0.2,1.1c0,0,0.2,0,0.3,0c0.2,0,0.3-0.1,0.5-0.2c0.3-0.2,0.5-0.4,0.7-0.7
			c0.2-0.3,0.3-0.5,0.3-0.8c0.1-0.4,0-0.6,0.1-0.9l0,0V5.2h0.4v6.6c0.1,0.1,0.2,0.2,0.3,0.4c0.1,0.2,0.1,0.3,0.2,0.5
			c0.1,0.3,0.2,0.5,0.2,0.8c0.1,0.4,0.1,0.7,0,1.1c-0.1,0.4-0.1,0.7-0.3,1.1c-0.2,0.5-0.3,0.7-0.6,1.1c-0.2,0.3-0.3,0.5-0.6,0.7
			c-0.3,0.2-0.5,0.4-0.8,0.5c-0.3,0.2-0.4,0.2-0.7,0.4c-0.4,0.2-0.6,0.4-0.9,0.7C23.3,19.5,23.2,19.7,22.9,20.1z"/>
		<path class="st0" d="M22.9,25.8c-0.5-0.9-1.3-1.7-2.2-2.3c0,0-0.3-0.2-1.2-0.7c-0.7-0.4-1.2-0.9-1.6-1.4c-2.3-3.4-1.1-6.6-0.8-6.5
			l0,0l0,0V5.2l0,0h0.4v10.4l0,0c0,0-0.2,1.2,1.6,2c1.2,0.5,2.7,1.9,3.8,3.7c1-1.8,2.6-3.2,3.8-3.7c1.8-0.8,1.6-2,1.6-2l0,0V5.2h0.4
			l0,0v9.7l0,0l0,0c0.2-0.1,1.5,3-0.8,6.5c-0.4,0.5-0.9,1-1.6,1.4c-0.9,0.5-1.2,0.7-1.2,0.7C24.2,24,23.5,24.8,22.9,25.8z"/>
		<path class="st0" d="M22.9,31.5c0,0-0.6-1.9-2.7-2.7c-7.3-2.7-4.7-8.5-4.4-8.8V5.2h0.4V20l0,0c0,0.2,0.1,0.6,0.2,1.1
			c0.2,0.6,0.6,1.2,1,1.4c0.9,0.6,1.5,0.7,2.4,1.1c0.8,0.4,1.7,1,3.2,2.7c1.5-1.7,2.4-2.3,3.2-2.7c0.9-0.4,1.5-0.6,2.4-1.1
			c0.4-0.2,0.8-0.8,1-1.4c0.2-0.5,0.2-0.9,0.2-1.1l0,0V5.2h0.4v14.9c0.3,0.3,2.9,6-4.4,8.8C23.5,29.6,22.9,31.5,22.9,31.5z"/>
		<path class="st0" d="M12.2,53.4H7.4v-4.2h4.8c2.1,0,3.8-1.7,3.8-3.8V32.3H20l0,13.3C20,49.9,16.5,53.4,12.2,53.4z"/>
		<path class="st0" d="M33.7,53.4h4.8v-4.2h-4.7c-2.1,0-3.8-1.7-3.8-3.8V32.3h-4.1l0,13.3C25.9,49.9,29.4,53.4,33.7,53.4z"/>
		<path class="st0" d="M12.1,58.5H7.4v-4.2h4.8c5.4,0,8.7-4.2,8.7-8.9V32.3H25l0,13.3C25,52.6,19.4,58.5,12.1,58.5z"/>
	</g>
</g>
</svg>
