<?xml version="1.0" encoding="utf-8"?>
<!-- Generator: Adobe Illustrator 25.2.1, SVG Export Plug-In . SVG Version: 6.00 Build 0)  -->
<svg version="1.1" id="Capa_1" xmlns="http://www.w3.org/2000/svg" xmlns:xlink="http://www.w3.org/1999/xlink" x="0px" y="0px"
	 viewBox="0 0 500 239" style="enable-background:new 0 0 500 239;" xml:space="preserve">
<style type="text/css">
	.st0{fill:#FFFFFF;}
</style>
<g id="_x36_">
	<g>
		<path class="st0" d="M495.54,209.95c-0.5,0-1,0-1.5,0c-5.13-2.49-10.27-4.99-15.42-7.47c-0.52-0.26-0.98,0.53-0.46,0.79
			c4.59,2.22,9.18,4.45,13.78,6.68c-6.49,0-12.98,0-19.47,0c-9.33-18.64-18.64-37.28-27.97-55.91c-4.82-9.69-9.69-19.37-14.51-29.06
			c-0.63-1.22-1.13-2.72-2.07-3.73c-1.04-1.12-2.42-2.05-3.59-3.03c-2.23-1.86-4.45-3.72-6.66-5.57
			c-9.21-7.73-18.41-15.45-27.62-23.17c-0.17-0.14-0.38-0.18-0.56-0.07c-6.47,3.53-12.92,7.05-19.39,10.57
			c-2.44,1.34-4.88,2.7-7.35,4.02c-0.09-0.07-0.19-0.19-0.34-0.38c-0.5-0.68-1.15-1.29-1.71-1.93
			c-11.5-12.99-23.03-25.97-34.53-38.95c-3.74-4.22-7.45-8.43-11.19-12.64c-0.19-0.22-0.6-0.17-0.73,0.09
			c-4.03,8.05-8.06,16.09-12.07,24.14c-2.3,4.57-4.59,9.15-6.87,13.74c-14.01-12.88-28.04-25.75-42.04-38.63
			c-2.01-1.84-3.99-3.66-5.99-5.49c-0.17-0.16-0.48-0.21-0.65,0c-5.99,7.74-12,15.49-17.99,23.23c-3.32,4.29-6.64,8.58-9.96,12.88
			c-0.38,0.46-0.84,0.93-1.13,1.44c-0.08,0.17-0.17,0.25-0.21,0.31c-1.42-0.84-2.76-2.05-4.07-3.02c-0.56-0.41-1.13-0.83-1.69-1.23
			c0.4,0.25,0.79,0.51,1.19,0.76c0.9,0.57,1.77,1.16,2.67,1.73c0.17,0.1,0.44,0.09,0.56-0.07c10.04-12.3,20.06-24.58,30.1-36.87
			c0.06-0.08,0.23-0.24,0.35-0.4c0.38,0.4,0.98,0.79,1.27,1.06c2.55,2.34,5.09,4.7,7.64,7.03c7.72,7.12,15.45,14.25,23.17,21.36
			c5.28,4.86,10.56,9.73,15.82,14.58c0.44,0.41,1.11-0.24,0.67-0.65c-14.11-13-28.2-25.99-42.31-38.98
			c-1.98-1.84-3.97-3.66-5.95-5.5c-0.17-0.15-0.5-0.2-0.67,0c-5.84,7.17-11.69,14.34-17.53,21.51c-3.55,4.33-7.08,8.66-10.6,13
			c-0.65,0.79-1.96,1.91-2.38,2.9c-0.52-0.56-1.59-1-2.21-1.41c-4.72-3.05-9.46-6.11-14.17-9.15c-0.15-0.1-0.46-0.07-0.56,0.08
			c-11.63,13.98-23.25,27.96-34.88,41.94c-2.34,2.82-4.68,5.63-7.02,8.44c-0.31,0.37-0.67,0.95-1.06,1.3c-0.04,0-0.08,0-0.17,0
			c-0.44,0.03-0.88,0-1.31,0c-9.71,0-19.43,0-29.14,0c-8.89,0-17.76,0-26.66,0c-0.15,0-0.31,0.09-0.4,0.23
			c-8.77,17.2-17.56,34.4-26.32,51.6c-1.13,2.18-2.23,4.36-3.34,6.56c-6.3-8.83-12.59-17.66-18.87-26.5c-0.19-0.26-0.63-0.32-0.79,0
			c-0.46,0.86-0.92,1.72-1.38,2.58c-0.06,0.05-0.12,0.12-0.15,0.19c-0.04,0.1-0.08,0.21-0.13,0.3c-3.97,7.44-7.93,14.89-11.9,22.33
			c-2.19-1.9-4.36-3.79-6.53-5.69c-0.21-0.17-0.6-0.2-0.73,0.09c-4.78,11.16-9.54,22.31-14.32,33.47c-0.67,1.59-1.36,3.17-2.02,4.76
			c-0.15,0.3,0.02,0.69,0.4,0.69c0.04,0,0.06,0,0.1,0c0.02,0,0.02,0,0.04,0c4.11,0,8.22,0,12.32,0c-0.04,0.12-0.1,0.23-0.17,0.35
			c-0.25,0.53,0.54,1,0.8,0.46c0.15-0.27,0.27-0.54,0.4-0.81c0.92,0,1.82,0,2.73,0c-0.04,0.05-0.08,0.08-0.08,0.16
			c0,2.87,0,5.74,0,8.61c0,0.6,0.94,0.6,0.94,0c0-2.87,0-5.74,0-8.61c0-0.07-0.06-0.1-0.08-0.16c0.5,0,1,0,1.48,0
			c0.04,0.42,0.6,0.67,0.81,0.22c0.02-0.07,0.06-0.15,0.1-0.22c9.81,0,19.62,0,29.43,0c-0.02,0.05-0.06,0.08-0.06,0.16
			c0,2.87,0,5.74,0,8.61c0,0.6,0.92,0.6,0.92,0c0-2.87,0-5.74,0-8.61c0-0.07-0.04-0.1-0.06-0.16c10.6,0,21.21,0,31.81,0
			c-0.02,0.05-0.06,0.08-0.06,0.16c0,2.87,0,5.74,0,8.61c0,0.6,0.94,0.6,0.94,0c0-2.87,0-5.74,0-8.61c0-0.07-0.06-0.1-0.08-0.16
			c2.74,0,5.45,0,8.18,0c0.13,0.05,0.29,0.06,0.42,0c4.72,0,9.41,0,14.13,0c-0.23,0.57-0.44,1.15-0.65,1.72
			c-0.23,0.55,0.67,0.8,0.88,0.25c0.25-0.66,0.5-1.31,0.75-1.97c2.71,0,5.41,0,8.12,0c-0.02,0.05-0.06,0.08-0.06,0.16
			c0,2.87,0,5.74,0,8.61c0,0.6,0.92,0.6,0.92,0c0-2.87,0-5.74,0-8.61c0-0.07-0.04-0.1-0.06-0.16c4.78,0,9.58,0,14.38,0
			c-0.17,0.49-0.33,0.98-0.52,1.46c-0.19,0.56,0.69,0.8,0.9,0.25c0.21-0.56,0.4-1.14,0.6-1.71c5.49,0,10.96,0,16.45,0
			c-0.02,0.05-0.06,0.08-0.06,0.16c0,2.87,0,5.74,0,8.61c0,0.6,0.92,0.6,0.92,0c0-2.87,0-5.74,0-8.61c0-0.07-0.04-0.1-0.06-0.16
			c10.6,0,21.21,0,31.83,0c-0.04,0.05-0.08,0.08-0.08,0.16c0,2.87,0,5.74,0,8.61c0,0.6,0.94,0.6,0.94,0c0-2.87,0-5.74,0-8.61
			c0-0.07-0.06-0.1-0.08-0.16c3.03,0,6.03,0,9.04,0c7.6,0,15.2,0,22.79,0c-0.02,0.05-0.06,0.08-0.06,0.16c0,2.87,0,5.74,0,8.61
			c0,0.6,0.92,0.6,0.92,0c0-2.87,0-5.74,0-8.61c0-0.07-0.04-0.1-0.06-0.16c10.6,0,21.21,0,31.81,0c-0.02,0.05-0.06,0.08-0.06,0.16
			c0,2.87,0,5.74,0,8.61c0,0.6,0.92,0.6,0.92,0c0-2.87,0-5.74,0-8.61c0-0.07-0.04-0.1-0.06-0.16c10.6,0,21.21,0,31.83,0
			c-0.02,0.05-0.06,0.08-0.06,0.16c0,2.87,0,5.74,0,8.61c0,0.6,0.92,0.6,0.92,0c0-2.87,0-5.74,0-8.61c0-0.07-0.04-0.1-0.08-0.16
			c10.63,0,21.23,0,31.83,0c-0.02,0.05-0.06,0.08-0.06,0.16c0,2.39,0,4.77,0,7.16c-0.1,0-0.19-0.01-0.27-0.01
			c-2.96,0-4.63,0.8-4.63,2.44c0,1.63,1.65,2.43,4.63,2.43c2.96,0,4.63-0.8,4.63-2.43c0-1.4-1.23-2.19-3.45-2.39c0-2.4,0-4.8,0-7.2
			c0-0.07-0.04-0.1-0.06-0.16c10.6,0,21.21,0,31.81,0c-0.02,0.05-0.06,0.08-0.06,0.16c0,2.85,0,5.69,0,8.53
			c-0.23,0-0.44-0.02-0.69-0.02c-2.96,0-4.61,0.81-4.61,2.44c0,1.63,1.63,2.44,4.61,2.44c2.99,0,4.63-0.81,4.63-2.44
			c0-1.3-1.06-2.08-3.03-2.34l0,0c0-2.87,0-5.74,0-8.61c0-0.07-0.04-0.1-0.06-0.16c10.6,0,21.23,0,31.83,0
			c-0.02,0.05-0.08,0.08-0.08,0.16c0,2.62,0,5.25,0,7.88c-0.33-0.03-0.71-0.04-1.11-0.04c-2.96,0-4.61,0.8-4.61,2.43
			c0,1.64,1.65,2.44,4.61,2.44c2.98,0,4.63-0.8,4.63-2.44c0-1.21-0.9-1.96-2.59-2.27c0-2.67,0-5.34,0-8.01
			c0-0.07-0.04-0.1-0.06-0.16c0.84,0,1.69,0,2.55,0c9.75,0,19.52,0,29.26,0c-0.02,0.05-0.06,0.08-0.06,0.16c0,2.63,0,5.26,0,7.89
			c-0.48-0.06-0.96-0.09-1.52-0.09c-2.96,0-4.63,0.8-4.63,2.43c0,1.64,1.65,2.44,4.63,2.44c2.96,0,4.63-0.8,4.63-2.44
			c0-1.09-0.77-1.81-2.19-2.17c0-2.68,0-5.38,0-8.06c0-0.07-0.04-0.1-0.06-0.16c10.6,0,21.21,0,31.83,0
			c-0.02,0.05-0.08,0.08-0.08,0.16c0,2.53,0,5.05,0,7.59c-0.56-0.1-1.21-0.16-1.94-0.16c-2.96,0-4.63,0.8-4.63,2.44
			c0,1.63,1.65,2.44,4.63,2.44c2.96,0,4.63-0.81,4.63-2.44c0-0.99-0.63-1.67-1.75-2.06c0-2.61,0-5.22,0-7.82
			c0-0.07-0.04-0.1-0.08-0.16c12.75,0,25.49,0,38.24,0c-4.36,1.61-8.75,3.2-13.11,4.8c-0.54,0.2-0.31,1.1,0.25,0.89
			c5.18-1.89,10.35-3.79,15.53-5.69c0.58,0,1.17,0,1.73,0C496.15,210.87,496.15,209.95,495.54,209.95z M324.98,220.61
			c0,0.91-1.02,1.39-3.65,1.39c-2.63,0-3.65-0.48-3.65-1.39c0-0.91,1.02-1.4,3.65-1.4c0.1,0,0.17,0.01,0.27,0.01
			c0,0.14,0,0.27,0,0.41c0,0.6,0.92,0.6,0.92,0c0-0.12,0-0.25,0-0.37C324.27,219.4,324.98,219.86,324.98,220.61z M357.17,221.97
			c0,0.92-1,1.4-3.65,1.4c-2.63,0-3.65-0.48-3.65-1.4c0-0.9,1.02-1.4,3.65-1.4C356.17,220.57,357.17,221.07,357.17,221.97z
			 M389.38,221.29c0,0.92-1.02,1.4-3.67,1.4c-2.63,0-3.63-0.48-3.63-1.4c0-0.91,1-1.39,3.63-1.39c0.48,0,0.88,0.02,1.25,0.05
			c0.15,0.12,0.35,0.13,0.54,0.05C388.82,220.2,389.38,220.63,389.38,221.29z M421.57,221.25c0,0.92-1.02,1.4-3.65,1.4
			c-2.63,0-3.65-0.48-3.65-1.4c0-0.9,1.02-1.39,3.65-1.39c0.65,0,1.19,0.02,1.65,0.08c0.15,0.13,0.31,0.13,0.48,0.08
			C421.11,220.24,421.57,220.66,421.57,221.25z M453.76,220.9c0,0.91-1.02,1.39-3.65,1.39c-2.63,0-3.65-0.48-3.65-1.39
			s1.02-1.39,3.65-1.39c0.79,0,1.42,0.04,1.94,0.12c0.02,0.5,0.63,0.55,0.84,0.22C453.48,220.08,453.76,220.44,453.76,220.9z
			 M389.5,90.23C389.4,90.18,389.4,90.15,389.5,90.23L389.5,90.23z M217.25,81.93C217.19,81.97,217.19,81.94,217.25,81.93
			L217.25,81.93z M68.02,179.75c0.19,0.26,0.63,0.33,0.79,0c6.85-13.41,13.69-26.83,20.54-40.25c1.92-3.79,3.86-7.57,5.78-11.35
			c1.09-2.12,2.53-4.29,3.34-6.53c0.1-0.26,0.19-0.39,0.23-0.45c0.56-0.06,1.19,0.01,1.71,0.01c3.28,0,6.53,0,9.79,0
			c9.89,0,19.77,0,29.66,0c3.88,0,7.77,0,11.65,0c1.15,0,3.51,0.48,4.59-0.06c0.96-0.49,1.94-2.32,2.63-3.13
			c2.26-2.71,4.51-5.43,6.76-8.13c5.82-7.01,11.65-14.01,17.47-21.02c-2.51,3.25-5.01,6.48-7.49,9.73c-0.25-0.15-0.6-0.13-0.71,0.22
			c-0.17,0.43-0.31,0.85-0.46,1.28c-3.13,4.05-6.28,8.11-9.41,12.17c-2.27,2.95-4.57,5.91-6.85,8.86c-0.31,0.41-0.67,1.09-1.09,1.46
			c-0.04,0.01-0.06,0.01-0.13,0.01c-0.4,0.05-0.83,0-1.23,0c-9.77,0-19.54,0-29.31,0c-9.02,0-18.01,0-27.01,0
			c-0.15,0-0.31,0.08-0.4,0.23c-8.6,17.39-17.2,34.78-25.8,52.15c-1.15,2.31-2.28,4.61-3.42,6.92c-7.16-8.95-14.32-17.9-21.48-26.85
			c0.31-0.59,0.63-1.18,0.94-1.77C55.43,162.08,61.71,170.91,68.02,179.75z M95.05,209.95c-2.19,0-4.36,0-6.55,0
			c13.63-28.79,27.24-57.59,40.87-86.39c0-0.02,0-0.04,0-0.06c1.4,0,2.82,0,4.22,0c0,0-0.02,0.01-0.02,0.02
			c-12.88,28.62-25.76,57.25-38.66,85.88C94.82,209.62,94.91,209.81,95.05,209.95z M26.65,177.17c0.59-1.42,1.19-2.83,1.8-4.24
			c2.17,1.89,4.34,3.77,6.51,5.66c0.21,0.19,0.56,0.19,0.71-0.09c2.65-4.96,5.28-9.91,7.93-14.86c-2.42,5.92-4.84,11.84-7.27,17.75
			c-2.71-1.94-5.45-3.89-8.18-5.85c-0.19-0.12-0.52-0.04-0.63,0.17c-1.13,2.41-2.23,4.82-3.36,7.23
			C25,181.02,25.81,179.1,26.65,177.17z M12.64,209.95c0.19-0.41,0.38-0.83,0.56-1.23c0.21,0.17,0.52,0.21,0.69-0.08
			c5.72-9.83,11.44-19.66,17.14-29.5c0.08-0.13,0.08-0.26,0.04-0.38c0.25,0.18,0.48,0.35,0.73,0.52c0.44,0.32,0.9,0.63,1.34,0.96
			c-6.01,9.89-12.02,19.8-18.03,29.7C14.29,209.95,13.45,209.95,12.64,209.95z M28.13,176.7c0.21,0.22,0.65,0.43,0.83,0.56
			c0.56,0.41,1.15,0.83,1.71,1.23c-0.15-0.03-0.33,0-0.44,0.19c-5.09,8.78-10.21,17.56-15.3,26.33c1.77-3.79,3.53-7.59,5.28-11.39
			c1.82-3.9,3.63-7.82,5.45-11.73C26.44,180.23,27.5,178.47,28.13,176.7z M27.9,176.34C27.9,176.32,27.9,176.32,27.9,176.34
			L27.9,176.34z M51.74,164.05c-7.02,15.29-14.01,30.59-21.02,45.89c-1.61,0-3.24,0-4.87,0c7.95-16.61,15.91-33.23,23.84-49.85
			c0.27-0.53-0.54-1-0.79-0.47c-8.02,16.77-16.03,33.55-24.05,50.32c-2.9,0-5.78,0-8.66,0c5.91-9.73,11.79-19.44,17.7-29.17
			c0.81,0.57,1.61,1.15,2.42,1.72c0.25,0.2,0.56-0.02,0.67-0.27c3.59-8.77,7.18-17.53,10.75-26.3c7.24,9.04,14.46,18.08,21.71,27.11
			c0.17,0.23,0.6,0.16,0.71-0.08c6.85-13.82,13.69-27.64,20.52-41.47c1.92-3.85,3.82-7.71,5.74-11.56c0.98-1.99,2.44-4.12,3.09-6.25
			c0.02-0.07,0.04-0.13,0.04-0.18l0,0c0.83-0.03,1.65,0,2.46,0c3.59,0,7.2,0,10.81,0c5.18,0,10.37,0,15.57,0
			c-13.61,28.73-27.2,57.46-40.79,86.19c-0.04,0.09-0.02,0.18,0,0.26c-18.62,0-37.24,0-55.86,0c6.93-15.14,13.86-30.29,20.79-45.42
			C52.78,163.98,51.99,163.51,51.74,164.05z M184,90.38c-11.27,31.72-22.54,63.43-33.82,95.14c-2.9,8.14-5.8,16.28-8.68,24.42
			c-5.47,0-10.94,0-16.41,0c9.79-27.5,19.58-55,29.37-82.5c0.21-0.56-0.69-0.8-0.9-0.25c-9.79,27.5-19.58,55-29.37,82.51
			c-0.04,0.09,0,0.17,0.02,0.24c-2,0-4.01,0-5.99,0c10.6-27.94,21.23-55.87,31.83-83.81c0.21-0.55-0.69-0.79-0.9-0.24
			c-10.63,28.01-21.27,56.04-31.92,84.05c-4.66,0-9.31,0-13.96,0c11.69-28.26,23.36-56.54,35.05-84.8c0.23-0.55-0.67-0.78-0.9-0.24
			c-11.71,28.35-23.42,56.69-35.13,85.04c-2.23,0-4.45,0-6.68,0c0.02-0.03,0.08-0.04,0.1-0.08c12.88-28.63,25.76-57.26,38.66-85.89
			c0.06-0.19,0-0.34-0.1-0.48c2.92,0,5.8,0,8.73,0c3.69,0,7.39,0,11.1,0c0.96,0,2.59,0.32,3.4-0.21c1.27-0.8,2.4-3.1,3.3-4.26
			c2.42-3.12,4.82-6.25,7.24-9.36c1.75-2.29,3.51-4.55,5.26-6.83c-12.61,35.43-25.22,70.88-37.85,106.32
			c-0.21,0.55,0.69,0.8,0.9,0.24c12.92-36.3,25.84-72.61,38.76-108.92c3.86-4.99,7.72-9.98,11.59-14.98
			c2.63-3.4,5.26-6.79,7.87-10.19c1.34-1.73,3.4-3.63,4.34-5.6c0.02-0.07,0.08-0.14,0.13-0.2h0.02c0.75,1.11,2.82,2.08,3.88,2.87
			c3.97,2.89,7.91,5.78,11.86,8.68c0.79,0.59,1.59,1.17,2.4,1.75c0.15,0.1,0.44,0.07,0.54-0.07c4.34-5.59,8.66-11.19,13-16.79
			c3.3-4.26,6.59-8.53,9.91-12.8c1.96-2.53,4.49-5.08,6.1-7.87c0.04-0.08,0.15-0.18,0.23-0.27c0.38,0.46,1.15,0.96,1.48,1.27
			c2.55,2.33,5.07,4.65,7.62,6.99c7.77,7.14,15.53,14.28,23.32,21.43c5.16,4.74,10.31,9.48,15.47,14.21
			c-3.95,7.9-7.89,15.81-11.86,23.71c-1.4,2.83-2.82,5.65-4.22,8.46c-5.59-4.13-11.15-8.27-16.72-12.4c0.1-0.05,0.19-0.15,0.21-0.29
			c3.15-12.53,6.31-25.08,9.46-37.64c0.15-0.56-0.75-0.81-0.9-0.24c-3.15,12.55-6.28,25.09-9.44,37.64c-0.02,0.01,0,0.02,0,0.03
			c-1.09-0.8-2.17-1.61-3.26-2.41c2.78-12.87,5.53-25.76,8.31-38.64c0.1-0.57-0.77-0.82-0.9-0.24c-2.74,12.75-5.49,25.52-8.23,38.28
			c-3.3-2.45-6.6-4.91-9.89-7.35c2.96-13.74,5.93-27.47,8.89-41.21c0.13-0.58-0.75-0.83-0.88-0.25
			c-2.94,13.62-5.89,27.24-8.83,40.85c-0.29-0.22-0.6-0.44-0.9-0.66c-0.63-0.47-1.25-0.94-1.88-1.41c0.08-0.05,0.15-0.13,0.17-0.27
			c2.67-14.15,5.32-28.31,7.98-42.46c0.1-0.59-0.77-0.83-0.88-0.25c-2.67,14.15-5.32,28.31-7.98,42.46
			c-0.71-0.52-1.4-1.05-2.11-1.56c-0.19-0.15-0.52-0.04-0.63,0.16c-0.25,0.48-0.48,0.94-0.73,1.41c2.88-14.89,5.76-29.78,8.64-44.67
			c0.13-0.58-0.77-0.84-0.88-0.25c-2.98,15.41-5.97,30.8-8.95,46.2c-0.04,0.24,0.1,0.4,0.27,0.49c-9.14,17.61-18.29,35.2-27.43,52.8
			c-1.31,2.54-2.63,5.07-3.94,7.61c-2.86-1.64-5.72-3.28-8.58-4.91c6.37-22.1,12.75-44.19,19.12-66.3c0.17-0.56-0.71-0.81-0.88-0.25
			c-6.37,22.03-12.71,44.05-19.08,66.09c-1.36-0.78-2.71-1.57-4.07-2.34c5.91-21.53,11.82-43.06,17.72-64.61
			c0.17-0.57-0.73-0.81-0.88-0.24c-5.89,21.46-11.79,42.92-17.68,64.37c-0.84-0.47-1.65-0.94-2.49-1.42
			c-0.21-0.11-0.5-0.04-0.63,0.17c-0.52,0.86-1.04,1.71-1.56,2.56c6.26-23.2,12.5-46.41,18.77-69.62c0.17-0.57-0.73-0.82-0.88-0.24
			c-6.51,24.15-13.03,48.31-19.54,72.47c-0.02,0.04,0,0.06,0,0.09c-10.04,16.53-20.08,33.08-30.14,49.61
			c-1.55,2.55-3.11,5.1-4.66,7.66c-3.15,0-6.32,0-9.48,0c10.96-30.83,21.92-61.67,32.88-92.5c3.17-8.95,6.34-17.88,9.52-26.81
			C185.08,90.07,184.18,89.83,184,90.38z M278.52,123.62c-10.42-7.77-20.83-15.56-31.25-23.35c-0.1-0.07-0.19-0.15-0.29-0.22
			c0.08-0.41,0.19-0.8,0.27-1.22c8.93,6.63,17.85,13.25,26.78,19.88c1.56,1.16,3.13,2.33,4.7,3.48c0.17,0.13,0.44,0.04,0.56-0.11
			C279.04,122.6,278.77,123.11,278.52,123.62z M242.76,96.89c-0.21-0.15-0.52-0.02-0.65,0.17c-9.5,16.64-19.02,33.27-28.54,49.91
			c7.83-15.07,15.66-30.15,23.48-45.22c1.29-2.52,2.61-5.04,3.92-7.56c1.81,1.35,3.63,2.7,5.45,4.05c-0.08,0.41-0.19,0.8-0.27,1.21
			C245.03,98.6,243.89,97.75,242.76,96.89z M206.56,159.23c-2.88-1.62-5.76-3.23-8.64-4.85c0.13-0.04,0.23-0.12,0.27-0.28
			c0.13-0.41,0.25-0.82,0.35-1.24c2.92,1.67,5.87,3.35,8.79,5.02C207.06,158.33,206.81,158.79,206.56,159.23z M197.32,154.05
			c-1.38-0.77-2.73-1.55-4.11-2.32c0.15-0.56,0.29-1.12,0.46-1.67c1.36,0.77,2.71,1.54,4.07,2.33c-0.15,0.49-0.29,0.98-0.44,1.47
			C197.27,153.93,197.32,153.98,197.32,154.05z M307.22,209.95c-51.39,0-102.78,0-154.2,0c10.98-18.06,21.96-36.12,32.94-54.18
			c1.52-2.49,3.05-5,4.57-7.5c0.75,0.45,1.52,0.88,2.3,1.33c-0.15,0.55-0.31,1.12-0.46,1.67c-0.54-0.3-1.11-0.62-1.65-0.92
			c-0.21-0.12-0.5-0.05-0.63,0.16c-10.1,16.57-20.18,33.14-30.29,49.7c-1.44,2.38-2.9,4.75-4.34,7.12c-0.31,0.5,0.5,0.97,0.81,0.46
			c10.08-16.56,20.18-33.13,30.29-49.7c1.36-2.23,2.73-4.48,4.09-6.72c0.48,0.28,0.98,0.55,1.46,0.83c-0.04,0.12-0.06,0.23-0.1,0.34
			c-0.15,0.56,0.75,0.81,0.9,0.24c0.02-0.04,0.02-0.07,0.04-0.11c4.51,2.54,9.02,5.07,13.55,7.62c0.21,0.12,0.5,0.05,0.63-0.17
			c10.44-18.24,20.87-36.49,31.31-54.73c1.4-2.46,2.82-4.92,4.22-7.39c1.15,0.86,2.3,1.7,3.42,2.55c0,0.01,0.02,0.02,0.04,0.02
			c9.27,6.93,18.54,13.86,27.8,20.79c1.5,1.13,3.01,2.26,4.51,3.38c0.19,0.15,0.52,0.04,0.63-0.17c4.05-7.87,8.12-15.75,12.17-23.62
			c6.49-12.64,13-25.27,19.5-37.91c1.4-2.7,2.8-5.42,4.17-8.11c13.92,15.64,27.82,31.3,41.73,46.95c2.01,2.24,4.01,4.49,5.99,6.74
			c0.15,0.15,0.4,0.17,0.56,0.06c5.03-2.83,10.06-5.67,15.09-8.49c3.15-1.78,6.32-3.57,9.48-5.34c0.67-0.38,1.96-0.8,2.46-1.39
			c0.04-0.05,0.04-0.07,0.06-0.11c0.02,0.03,0,0.04,0.02,0.08c0.29,0.51,1.19,1.03,1.63,1.42c0.98,0.84,1.96,1.7,2.94,2.55
			c2.76,2.39,5.51,4.77,8.24,7.16c5.85,5.07,11.69,10.14,17.53,15.22c1.92,1.66,3.99,2.98,5.01,4.98c2,3.91,4.03,7.85,6.03,11.76
			c7.18,14.07,14.36,28.13,21.54,42.19c3.26,6.36,6.49,12.71,9.75,19.06c1.67,3.28,3.09,7.08,5.16,10.13
			c0.1,0.13,0.17,0.31,0.25,0.46c0.27,0.53,1.06,0.07,0.79-0.46c-9.02-17.65-18.03-35.3-27.05-52.95
			c-4.8-9.38-9.58-18.75-14.38-28.13c-0.63-1.24-1.15-2.82-2.07-3.88c-0.84-0.98-2.05-1.78-3.03-2.63c-1.92-1.67-3.84-3.33-5.76-5
			c-8.75-7.59-17.47-15.17-26.22-22.76c-0.15-0.14-0.38-0.18-0.56-0.07c-6.43,3.63-12.88,7.26-19.33,10.88
			c-2.48,1.41-5.49,2.63-7.78,4.37c-0.04-0.06-0.1-0.15-0.19-0.26c-0.42-0.68-1.13-1.29-1.67-1.9
			c-11.59-13.04-23.19-26.07-34.78-39.12c-3.74-4.22-7.49-8.43-11.23-12.64c-0.19-0.22-0.58-0.17-0.73,0.09
			c-4.05,7.87-8.1,15.74-12.15,23.62c-6.51,12.63-13,25.27-19.52,37.91c-0.67,1.3-1.34,2.6-2.01,3.9
			c3.57-7.13,7.14-14.27,10.71-21.41c6.39-12.76,12.75-25.53,19.14-38.3c1.4-2.77,2.8-5.56,4.17-8.35
			c13.86,15.65,27.74,31.29,41.6,46.94c1.98,2.24,3.97,4.48,5.97,6.72c0.13,0.16,0.38,0.17,0.54,0.07
			c5.39-2.93,10.77-5.87,16.14-8.8c3.09-1.68,6.16-3.35,9.23-5.03c0.48-0.25,0.94-0.53,1.42-0.78c0.17,0.16,0.38,0.3,0.54,0.45
			c10.96,9.2,21.92,18.39,32.9,27.58c2.02,1.7,4.01,2.88,5.05,4.99c2.09,4.17,4.17,8.33,6.24,12.5
			c7.33,14.62,14.63,29.25,21.94,43.88c3.32,6.62,6.64,13.24,9.94,19.85c1.67,3.34,3.09,7.2,5.14,10.33
			C416.68,209.95,361.95,209.95,307.22,209.95z M363.06,107.77C363.16,107.81,363.18,107.9,363.06,107.77L363.06,107.77z"/>
		<path class="st0" d="M34.87,182.38c-4.66,8.83-9.33,17.65-13.99,26.47c-0.29,0.53,0.5,0.99,0.79,0.47
			c4.66-8.83,9.33-17.64,13.99-26.47C35.96,182.33,35.16,181.86,34.87,182.38z"/>
		<path class="st0" d="M36.58,209.16c6.49-13.99,12.96-27.98,19.45-41.97c0.23-0.53-0.56-1-0.79-0.46
			c-6.49,13.99-12.96,27.97-19.45,41.96C35.54,209.24,36.33,209.71,36.58,209.16z"/>
		<path class="st0" d="M40.63,209.34c5.91-12.37,11.79-24.72,17.68-37.07c0.25-0.54-0.54-1.01-0.79-0.47
			c-5.89,12.36-11.79,24.71-17.68,37.07C39.59,209.4,40.38,209.87,40.63,209.34z"/>
		<path class="st0" d="M46.73,207.53c4.97-10.98,9.94-21.95,14.9-32.92c0.23-0.53-0.56-1-0.81-0.46
			c-4.97,10.97-9.92,21.94-14.9,32.91C45.68,207.59,46.48,208.06,46.73,207.53z"/>
		<path class="st0" d="M52.38,208.97c4.28-9.71,8.56-19.41,12.84-29.11c0.25-0.54-0.54-1.01-0.79-0.47
			c-4.28,9.71-8.56,19.4-12.84,29.11C51.36,209.04,52.16,209.51,52.38,208.97z"/>
		<path class="st0" d="M56.83,209.34c3.95-8.85,7.91-17.71,11.86-26.56c0.25-0.54-0.54-1.01-0.79-0.47
			c-3.97,8.86-7.91,17.71-11.88,26.57C55.79,209.41,56.58,209.88,56.83,209.34z"/>
		<path class="st0" d="M61.55,207.56c13.74-26.89,27.49-53.78,41.23-80.67c0.27-0.53-0.52-0.99-0.79-0.46
			c-13.75,26.89-27.49,53.77-41.23,80.66C60.48,207.62,61.28,208.09,61.55,207.56z"/>
		<path class="st0" d="M67.39,209.1C81,182,94.63,154.89,108.24,127.79c0.27-0.53-0.52-1-0.79-0.47
			c-13.61,27.11-27.24,54.21-40.85,81.33C66.33,209.16,67.12,209.63,67.39,209.1z"/>
		<path class="st0" d="M75.01,206.45c13.03-26.4,26.05-52.82,39.06-79.23c0.27-0.53-0.52-1-0.79-0.47
			c-13.03,26.42-26.03,52.82-39.06,79.24C73.97,206.52,74.76,206.98,75.01,206.45z"/>
		<path class="st0" d="M79.96,207.78c12.57-27.18,25.13-54.36,37.7-81.53c0.25-0.54-0.54-1.01-0.79-0.47
			c-12.57,27.18-25.13,54.36-37.7,81.54C78.92,207.85,79.71,208.32,79.96,207.78z"/>
		<path class="st0" d="M86.83,205.91c12.31-26.46,24.63-52.91,36.95-79.35c0.25-0.54-0.54-1.01-0.79-0.47
			c-12.32,26.45-24.63,52.91-36.95,79.35C85.78,205.98,86.58,206.44,86.83,205.91z"/>
		<path class="st0" d="M142.83,126.69c-11.02,27.1-22.04,54.18-33.07,81.27c-0.23,0.55,0.67,0.8,0.88,0.25
			c11.02-27.1,22.04-54.19,33.07-81.29C143.94,126.39,143.04,126.14,142.83,126.69z"/>
		<path class="st0" d="M163.29,118.94c-10.6,30.05-21.21,60.09-31.81,90.12c-0.19,0.56,0.71,0.8,0.9,0.24
			c10.6-30.04,21.19-60.08,31.79-90.11C164.38,118.62,163.48,118.38,163.29,118.94z"/>
		<path class="st0" d="M146.84,208.04c-0.21,0.55,0.69,0.8,0.88,0.24c11.21-32.06,22.42-64.14,33.63-96.2
			c3.19-9.14,6.39-18.28,9.58-27.42c0.21-0.56-0.69-0.81-0.88-0.25c-11.21,32.06-22.42,64.14-33.63,96.2
			C153.23,189.75,150.04,198.89,146.84,208.04z"/>
		<path class="st0" d="M159.74,194.48c-0.17,0.56,0.71,0.81,0.9,0.25c9.91-30.74,19.83-61.46,29.75-92.19
			c2.82-8.78,5.66-17.57,8.49-26.34c0.17-0.56-0.71-0.8-0.9-0.24c-9.91,30.73-19.83,61.45-29.75,92.18
			C165.42,176.92,162.58,185.69,159.74,194.48z"/>
		<path class="st0" d="M174.5,170.82c9.81-32.07,19.62-64.14,29.41-96.21c0.19-0.57-0.71-0.81-0.88-0.25
			c-9.81,32.07-19.62,64.13-29.41,96.22C173.43,171.14,174.33,171.38,174.5,170.82z"/>
		<path class="st0" d="M206.25,149.8c6.6-24.05,13.19-48.09,19.79-72.13c0.17-0.57-0.73-0.81-0.88-0.25
			c-6.62,24.05-13.21,48.09-19.81,72.14C205.2,150.12,206.08,150.37,206.25,149.8z"/>
		<path class="st0" d="M217.58,135.7c5.74-23.03,11.48-46.05,17.22-69.07c0.15-0.57-0.75-0.82-0.9-0.24
			c-5.74,23.01-11.48,46.04-17.22,69.06C216.54,136.03,217.44,136.27,217.58,135.7z"/>
		<path class="st0" d="M231.51,109.64c3.84-18.46,7.66-36.94,11.5-55.41c0.13-0.59-0.77-0.84-0.9-0.25
			c-3.82,18.47-7.66,36.95-11.5,55.42C230.5,109.97,231.38,110.22,231.51,109.64z"/>
		<path class="st0" d="M251.44,98.61c2.48-12.56,4.97-25.1,7.45-37.65c0.1-0.58-0.77-0.83-0.9-0.24
			c-2.48,12.55-4.95,25.09-7.43,37.65C250.44,98.95,251.34,99.2,251.44,98.61z"/>
		<path class="st0" d="M255.6,100.52c2.05-11.93,4.09-23.86,6.14-35.8c0.08-0.57-0.79-0.83-0.9-0.24
			c-2.05,11.93-4.09,23.87-6.14,35.8C254.59,100.86,255.49,101.11,255.6,100.52z"/>
		<path class="st0" d="M267.89,110.27c2.59-11.5,5.17-23,7.76-34.5c0.13-0.59-0.75-0.83-0.9-0.25c-2.59,11.5-5.17,23-7.76,34.51
			C266.87,110.61,267.77,110.86,267.89,110.27z"/>
		<path class="st0" d="M272.63,113.92c2.17-11.71,4.32-23.42,6.47-35.13c0.12-0.57-0.77-0.83-0.88-0.24
			c-2.17,11.71-4.32,23.41-6.47,35.13C271.65,114.26,272.53,114.51,272.63,113.92z"/>
		<path class="st0" d="M277.6,116.4c2.5-11.68,5.01-23.37,7.51-35.05c0.13-0.57-0.75-0.83-0.88-0.24
			c-2.51,11.68-5.01,23.36-7.52,35.04C276.6,116.73,277.47,116.97,277.6,116.4z"/>
		<path class="st0" d="M284.34,108.39c1.65-7.99,3.28-16,4.93-23.99c0.12-0.59-0.77-0.84-0.9-0.25c-1.63,8.01-3.28,16-4.93,23.99
			C283.34,108.73,284.24,108.98,284.34,108.39z"/>
		<path class="st0" d="M165.96,196.64c-1.84,3.28-3.7,6.56-5.53,9.84c-0.29,0.52,0.5,0.98,0.79,0.47c1.84-3.29,3.7-6.56,5.53-9.85
			C167.05,196.59,166.25,196.12,165.96,196.64z"/>
		<path class="st0" d="M181.26,171.98c-3.09,5.53-6.18,11.06-9.27,16.59c-0.29,0.52,0.5,0.98,0.79,0.46
			c3.09-5.52,6.18-11.05,9.27-16.59C182.35,171.92,181.56,171.45,181.26,171.98z"/>
		<path class="st0" d="M194.66,155.26c-2.71,3.87-5.41,7.74-8.12,11.61c-0.33,0.49,0.46,0.96,0.79,0.47
			c2.71-3.87,5.43-7.73,8.12-11.61C195.79,155.24,195,154.78,194.66,155.26z"/>
		<path class="st0" d="M182.08,193.62c-2.36,3.84-4.72,7.67-7.08,11.51c-0.31,0.5,0.48,0.97,0.79,0.46
			c2.36-3.83,4.72-7.67,7.08-11.5C183.18,193.58,182.37,193.12,182.08,193.62z"/>
		<path class="st0" d="M198.61,168.35c-3.36,4.87-6.74,9.73-10.1,14.59c-0.33,0.49,0.46,0.95,0.79,0.47
			c3.38-4.86,6.74-9.73,10.1-14.59C199.74,168.32,198.94,167.87,198.61,168.35z"/>
		<path class="st0" d="M199.9,189.32c-3.09,4.3-6.18,8.59-9.29,12.88c-0.35,0.48,0.46,0.94,0.79,0.47c3.11-4.29,6.2-8.59,9.29-12.88
			C201.05,189.31,200.26,188.84,199.9,189.32z"/>
		<path class="st0" d="M250.73,129.16c3.28-5.48,6.56-10.95,9.85-16.43c0.31-0.51-0.5-0.98-0.8-0.46
			c-3.3,5.47-6.58,10.95-9.87,16.43C249.63,129.22,250.42,129.68,250.73,129.16z"/>
		<path class="st0" d="M246.64,134.17c-2.4,4.02-4.82,8.04-7.22,12.06c-0.31,0.51,0.48,0.97,0.79,0.47
			c2.4-4.02,4.82-8.03,7.22-12.05C247.75,134.13,246.95,133.67,246.64,134.17z"/>
		<path class="st0" d="M236.14,151.71c-3.51,5.84-7.01,11.68-10.52,17.52c-0.31,0.51,0.5,0.97,0.79,0.47
			c3.51-5.84,7.02-11.69,10.52-17.53C237.23,151.66,236.43,151.2,236.14,151.71z"/>
		<path class="st0" d="M222.34,174.71c-6.37,10.58-12.71,21.18-19.06,31.76c-0.31,0.51,0.5,0.98,0.79,0.47
			c6.35-10.58,12.71-21.18,19.06-31.77C223.45,174.66,222.64,174.2,222.34,174.71z"/>
		<path class="st0" d="M239.96,124.55c2.55-4.49,5.09-8.96,7.66-13.44c0.29-0.52-0.5-0.99-0.81-0.47
			c-2.55,4.48-5.09,8.97-7.66,13.44C238.86,124.6,239.67,125.07,239.96,124.55z"/>
		<path class="st0" d="M230.38,141.35c2.13-3.74,4.26-7.47,6.39-11.2c0.29-0.52-0.5-0.99-0.79-0.47c-2.13,3.74-4.26,7.47-6.39,11.21
			C229.29,141.42,230.09,141.88,230.38,141.35z"/>
		<path class="st0" d="M209.97,177.22c5.74-10.08,11.48-20.17,17.22-30.25c0.31-0.52-0.5-0.99-0.8-0.47
			c-5.74,10.08-11.48,20.17-17.22,30.26C208.88,177.28,209.67,177.74,209.97,177.22z"/>
		<path class="st0" d="M264.45,135.52c1.96-3.31,3.92-6.63,5.87-9.94c0.31-0.51-0.48-0.98-0.79-0.47c-1.96,3.32-3.9,6.63-5.87,9.94
			C263.34,135.56,264.16,136.03,264.45,135.52z"/>
		<path class="st0" d="M261.19,141.04c0.29-0.52-0.5-0.98-0.79-0.47c-1.09,1.84-2.19,3.67-3.28,5.52c-0.29,0.51,0.5,0.97,0.8,0.46
			C259.02,144.72,260.1,142.88,261.19,141.04z"/>
		<path class="st0" d="M253.86,151.6c-2.82,4.78-5.66,9.57-8.48,14.35c-0.31,0.51,0.48,0.97,0.79,0.47
			c2.82-4.79,5.66-9.57,8.48-14.35C254.97,151.56,254.18,151.09,253.86,151.6z"/>
		<path class="st0" d="M242.11,171.48c-2.17,3.67-4.34,7.36-6.51,11.03c-0.29,0.51,0.5,0.98,0.79,0.47
			c2.17-3.69,4.34-7.36,6.53-11.04C243.22,171.42,242.42,170.96,242.11,171.48z"/>
		<path class="st0" d="M232.34,188.03c-3.7,6.25-7.39,12.5-11.11,18.77c-0.29,0.5,0.5,0.97,0.81,0.46
			c3.7-6.25,7.39-12.5,11.09-18.77C233.43,187.99,232.63,187.52,232.34,188.03z"/>
		<path class="st0" d="M254.84,186.25c-2.09,4.21-4.2,8.4-6.3,12.6c-0.25,0.53,0.54,1,0.79,0.47c2.11-4.2,4.22-8.4,6.32-12.6
			C255.91,186.19,255.12,185.73,254.84,186.25z"/>
		<path class="st0" d="M266.33,163.36c-2.88,5.73-5.74,11.45-8.6,17.18c-0.27,0.52,0.52,0.99,0.79,0.46
			c2.86-5.72,5.72-11.45,8.6-17.17C267.37,163.29,266.58,162.82,266.33,163.36z"/>
		<path class="st0" d="M269.98,158.09c2.11-4.19,4.2-8.39,6.3-12.6c0.27-0.53-0.52-0.99-0.79-0.47c-2.11,4.21-4.2,8.4-6.3,12.61
			C268.91,158.16,269.71,158.63,269.98,158.09z"/>
		<path class="st0" d="M279.14,139.78c2.11-4.21,4.22-8.4,6.3-12.6c0.27-0.53-0.52-1-0.79-0.47c-2.09,4.21-4.2,8.4-6.3,12.6
			C278.1,139.84,278.89,140.31,279.14,139.78z"/>
		<path class="st0" d="M288.33,121.45c1.9-3.81,3.82-7.63,5.72-11.45c0.27-0.53-0.52-1-0.79-0.47c-1.9,3.82-3.82,7.64-5.72,11.45
			C287.26,121.51,288.06,121.98,288.33,121.45z"/>
		<path class="st0" d="M296.93,104.28c4.01-8.03,8.02-16.04,12.02-24.06c0.27-0.53-0.52-0.99-0.8-0.46
			c-4.01,8.02-8.02,16.03-12.02,24.05C295.86,104.34,296.66,104.8,296.93,104.28z"/>
		<path class="st0" d="M272.4,181.98c-2.48,4.97-4.99,9.94-7.49,14.92c-0.25,0.53,0.54,0.99,0.79,0.46
			c2.51-4.97,5.01-9.95,7.52-14.92C273.46,181.91,272.67,181.43,272.4,181.98z"/>
		<path class="st0" d="M280.48,165.9c-1.73,3.44-3.46,6.89-5.2,10.33c-0.25,0.52,0.54,0.99,0.81,0.46
			c1.71-3.44,3.45-6.88,5.18-10.32C281.54,165.84,280.75,165.38,280.48,165.9z"/>
		<path class="st0" d="M291.44,144.11c-2.69,5.35-5.38,10.71-8.08,16.06c-0.27,0.53,0.54,0.99,0.79,0.47
			c2.69-5.37,5.39-10.71,8.08-16.07C292.5,144.05,291.71,143.58,291.44,144.11z"/>
		<path class="st0" d="M301.81,123.45c-2.51,4.97-4.99,9.95-7.49,14.92c-0.27,0.53,0.52,1,0.79,0.47c2.51-4.98,5.01-9.95,7.49-14.92
			C302.88,123.39,302.08,122.92,301.81,123.45z"/>
		<path class="st0" d="M305.48,118.19c1.92-3.83,3.84-7.65,5.76-11.48c0.27-0.52-0.52-0.99-0.79-0.46
			c-1.92,3.82-3.84,7.65-5.76,11.47C304.44,118.25,305.23,118.72,305.48,118.19z"/>
		<path class="st0" d="M314.15,100.97c1.15-2.3,2.3-4.59,3.45-6.89c0.27-0.53-0.52-0.99-0.8-0.47c-1.15,2.3-2.3,4.59-3.46,6.89
			C313.08,101.04,313.88,101.51,314.15,100.97z"/>
		<path class="st0" d="M320.49,88.35c1.92-3.83,3.84-7.65,5.76-11.48c0.27-0.52-0.54-0.99-0.81-0.46
			c-1.92,3.82-3.84,7.64-5.76,11.47C319.43,88.42,320.22,88.88,320.49,88.35z"/>
		<path class="st0" d="M290.87,185.11c-2.55,5.43-5.12,10.85-7.66,16.28c-0.25,0.54,0.54,1,0.79,0.47
			c2.57-5.43,5.11-10.87,7.68-16.29C291.94,185.03,291.14,184.56,290.87,185.11z"/>
		<path class="st0" d="M300.2,165.32c-2.19,4.66-4.38,9.31-6.58,13.97c-0.25,0.53,0.54,1,0.79,0.47c2.19-4.65,4.38-9.31,6.58-13.96
			C301.25,165.26,300.45,164.79,300.2,165.32z"/>
		<path class="st0" d="M309.54,145.54c-2.21,4.66-4.41,9.31-6.6,13.97c-0.25,0.53,0.54,1,0.79,0.47c2.21-4.65,4.41-9.31,6.6-13.96
			C310.58,145.48,309.79,145.01,309.54,145.54z"/>
		<path class="st0" d="M313.06,140.18c2.57-5.43,5.12-10.85,7.68-16.28c0.25-0.54-0.54-1-0.81-0.47
			c-2.55,5.44-5.11,10.87-7.66,16.29C312.02,140.26,312.81,140.73,313.06,140.18z"/>
		<path class="st0" d="M329.26,103.66c-2,4.27-4.03,8.54-6.03,12.8c-0.25,0.54,0.54,1,0.79,0.47c2.03-4.27,4.03-8.53,6.03-12.81
			C330.31,103.59,329.51,103.11,329.26,103.66z"/>
		<path class="st0" d="M336.94,87.36c-1.65,3.49-3.3,6.98-4.95,10.48c-0.25,0.53,0.54,1,0.81,0.46c1.65-3.49,3.28-6.98,4.92-10.47
			C337.99,87.3,337.19,86.83,336.94,87.36z"/>
		<path class="st0" d="M308.55,191.56c-1.36,3.14-2.71,6.28-4.07,9.41c-0.25,0.54,0.54,1.01,0.79,0.47
			c1.36-3.14,2.71-6.27,4.07-9.42C309.58,191.49,308.78,191.01,308.55,191.56z"/>
		<path class="st0" d="M317.72,170.38c-2.21,5.1-4.42,10.2-6.62,15.3c-0.23,0.53,0.56,1.01,0.79,0.46
			c2.21-5.09,4.41-10.2,6.62-15.29C318.74,170.31,317.95,169.84,317.72,170.38z"/>
		<path class="st0" d="M328.93,144.51c-2.9,6.66-5.78,13.33-8.66,20c-0.23,0.54,0.56,1.01,0.79,0.46c2.88-6.66,5.78-13.33,8.66-20
			C329.95,144.43,329.16,143.96,328.93,144.51z"/>
		<path class="st0" d="M336.57,126.86c-1.71,3.92-3.4,7.84-5.09,11.76c-0.23,0.54,0.56,1.01,0.79,0.47
			c1.69-3.92,3.38-7.85,5.09-11.76C337.59,126.78,336.8,126.3,336.57,126.86z"/>
		<path class="st0" d="M339.91,121.44c1.69-3.92,3.38-7.85,5.09-11.76c0.23-0.54-0.56-1.01-0.81-0.47
			c-1.69,3.92-3.38,7.85-5.09,11.76C338.86,121.51,339.66,121.98,339.91,121.44z"/>
		<path class="st0" d="M328.51,197.61c-1.06,2.34-2.11,4.69-3.17,7.02c-0.25,0.54,0.54,1.01,0.79,0.47
			c1.06-2.35,2.11-4.69,3.17-7.03C329.55,197.54,328.76,197.07,328.51,197.61z"/>
		<path class="st0" d="M335.94,181.2c-1.77,3.9-3.55,7.81-5.3,11.71c-0.25,0.54,0.54,1.01,0.79,0.47c1.77-3.9,3.53-7.82,5.3-11.72
			C336.96,181.13,336.17,180.66,335.94,181.2z"/>
		<path class="st0" d="M344.94,161.28c-2.11,4.69-4.24,9.37-6.34,14.06c-0.25,0.54,0.54,1.01,0.79,0.47
			c2.13-4.69,4.24-9.38,6.37-14.06C345.98,161.2,345.19,160.74,344.94,161.28z"/>
		<path class="st0" d="M354.75,141.81c0.25-0.53-0.54-1-0.79-0.46c-2.11,4.69-4.24,9.37-6.37,14.06c-0.23,0.54,0.56,1.01,0.81,0.47
			C350.51,151.2,352.64,146.51,354.75,141.81z"/>
		<path class="st0" d="M357.4,135.96c2.48-5.46,4.95-10.94,7.43-16.41c0.25-0.53-0.56-1-0.79-0.47c-2.48,5.48-4.95,10.94-7.43,16.41
			C356.38,136.03,357.17,136.5,357.4,135.96z"/>
		<path class="st0" d="M367.48,113.7c1.23-2.73,2.46-5.47,3.72-8.2c0.23-0.54-0.56-1-0.79-0.47c-1.25,2.74-2.49,5.47-3.72,8.2
			C366.44,113.76,367.23,114.24,367.48,113.7z"/>
		<path class="st0" d="M354.1,190.26c-1.92,4.3-3.86,8.6-5.8,12.9c-0.23,0.54,0.56,1,0.81,0.46c1.92-4.3,3.86-8.6,5.78-12.9
			C355.15,190.19,354.35,189.72,354.1,190.26z"/>
		<path class="st0" d="M362.56,171.49c-1.94,4.3-3.88,8.6-5.8,12.91c-0.25,0.53,0.54,1,0.79,0.46c1.92-4.3,3.86-8.6,5.8-12.9
			C363.58,171.41,362.79,170.94,362.56,171.49z"/>
		<path class="st0" d="M371.51,151.54c-2.27,5.08-4.57,10.17-6.85,15.26c-0.25,0.53,0.54,1,0.79,0.46
			c2.28-5.08,4.57-10.17,6.85-15.25C372.55,151.48,371.76,151,371.51,151.54z"/>
		<path class="st0" d="M374.95,146.15c2.11-4.7,4.22-9.38,6.32-14.08c0.23-0.53-0.56-1-0.79-0.46c-2.11,4.69-4.22,9.38-6.34,14.07
			C373.91,146.22,374.7,146.69,374.95,146.15z"/>
		<path class="st0" d="M388.4,114.01c-1.59,3.52-3.17,7.03-4.76,10.55c-0.23,0.53,0.56,1.01,0.79,0.47
			c1.59-3.53,3.17-7.05,4.76-10.56C389.44,113.92,388.63,113.47,388.4,114.01z"/>
		<path class="st0" d="M374.62,187.21c-1.13,2.76-2.25,5.51-3.38,8.27c-0.23,0.55,0.67,0.79,0.88,0.25
			c1.13-2.76,2.26-5.51,3.38-8.28C375.73,186.91,374.85,186.67,374.62,187.21z"/>
		<path class="st0" d="M381.38,170.66c-1.29,3.15-2.57,6.31-3.86,9.46c-0.23,0.55,0.67,0.79,0.9,0.25c1.27-3.15,2.57-6.3,3.86-9.46
			C382.51,170.36,381.61,170.12,381.38,170.66z"/>
		<path class="st0" d="M388.15,154.11c-1.44,3.55-2.88,7.1-4.34,10.65c-0.23,0.54,0.67,0.78,0.9,0.24c1.44-3.55,2.9-7.1,4.34-10.64
			C389.28,153.81,388.38,153.57,388.15,154.11z"/>
		<path class="st0" d="M396.37,134.01c-1.92,4.74-3.86,9.46-5.8,14.19c-0.21,0.54,0.67,0.78,0.9,0.24c1.94-4.73,3.86-9.46,5.8-14.18
			C397.5,133.7,396.6,133.46,396.37,134.01z"/>
		<path class="st0" d="M399.69,128.35c1.94-4.74,3.86-9.46,5.8-14.19c0.23-0.54-0.67-0.79-0.9-0.24c-1.92,4.73-3.86,9.46-5.8,14.18
			C398.58,128.64,399.46,128.89,399.69,128.35z"/>
		<path class="st0" d="M401.8,189.42c-1.19,3.23-2.36,6.46-3.55,9.7c-0.21,0.56,0.69,0.8,0.88,0.25c1.19-3.24,2.38-6.47,3.57-9.71
			C402.89,189.1,402.01,188.86,401.8,189.42z"/>
		<path class="st0" d="M407.56,173.65c-1.34,3.64-2.65,7.28-3.99,10.92c-0.21,0.56,0.69,0.79,0.9,0.25
			c1.31-3.64,2.65-7.27,3.99-10.92C408.67,173.33,407.77,173.1,407.56,173.65z"/>
		<path class="st0" d="M413.78,156.68c-1.19,3.24-2.38,6.47-3.55,9.7c-0.21,0.56,0.69,0.8,0.88,0.25c1.19-3.24,2.38-6.47,3.55-9.7
			C414.87,156.36,413.99,156.12,413.78,156.68z"/>
		<path class="st0" d="M419.54,140.92c-1.17,3.23-2.36,6.46-3.55,9.7c-0.21,0.55,0.69,0.8,0.9,0.25c1.19-3.24,2.36-6.47,3.55-9.71
			C420.65,140.6,419.75,140.36,419.54,140.92z"/>
		<path class="st0" d="M419.98,193.37c-0.9,2.15-1.84,4.3-2.8,6.42c-0.25,0.53,0.56,1.01,0.79,0.47c1-2.2,1.96-4.41,2.9-6.65
			C421.11,193.06,420.21,192.83,419.98,193.37z"/>
		<path class="st0" d="M425.01,180.03c-0.75,2.24-1.56,4.49-2.4,6.7c-0.21,0.56,0.69,0.8,0.9,0.25c0.84-2.22,1.63-4.46,2.4-6.71
			C426.1,179.71,425.22,179.47,425.01,180.03z"/>
		<path class="st0" d="M429.17,166.38c-0.63,2.3-1.27,4.59-1.96,6.87c-0.17,0.56,0.73,0.81,0.9,0.24c0.69-2.28,1.34-4.56,1.96-6.86
			C430.21,166.06,429.31,165.82,429.17,166.38z"/>
		<path class="st0" d="M440.42,191.72c-1.27,3.52-2.55,7.03-3.8,10.54c-0.21,0.56,0.69,0.8,0.88,0.25
			c1.27-3.52,2.55-7.03,3.82-10.54C441.5,191.41,440.63,191.17,440.42,191.72z"/>
		<path class="st0" d="M445.07,178.84c-0.86,2.35-1.69,4.69-2.55,7.02c-0.19,0.56,0.69,0.8,0.9,0.25c0.83-2.34,1.69-4.69,2.52-7.03
			C446.16,178.51,445.26,178.28,445.07,178.84z"/>
		<path class="st0" d="M455.28,191.77c-1.65,3.7-3.28,7.39-4.93,11.09c-0.23,0.53,0.56,1,0.79,0.46c1.65-3.7,3.3-7.38,4.93-11.07
			C456.32,191.69,455.51,191.22,455.28,191.77z"/>
		<path class="st0" d="M368.32,203.37c-0.6,1.23-1.23,2.45-1.84,3.69c-0.27,0.53,0.52,1,0.79,0.47c0.6-1.23,1.23-2.46,1.84-3.69
			C369.38,203.3,368.59,202.83,368.32,203.37z"/>
		<path class="st0" d="M420.38,133.78c1-2.05,2.01-4.11,3.03-6.18c0.25-0.53-0.54-1-0.81-0.46c-1,2.06-2.01,4.11-3.01,6.18
			C419.33,133.85,420.13,134.32,420.38,133.78z"/>
		<path class="st0" d="M16.17,28.9c0.17,0.57,1.06,0.33,0.9-0.24c-2.17-7.9-4.34-15.81-6.53-23.7c0-0.06,0-0.13,0-0.18
			c0-0.14-0.04-0.24-0.12-0.31c-0.02-0.08-0.04-0.17-0.06-0.24c-0.12-0.43-0.81-0.47-0.9,0C7.84,12.39,6.23,20.58,4.6,28.75
			C4.5,29.33,5.4,29.57,5.5,29c1.38-6.96,2.73-13.91,4.11-20.86c0,52.98,0,105.97,0,158.95c0,15.06,0,30.11,0,45.17
			c0,0.6,0.92,0.6,0.92,0c0-53.97,0-107.95,0-161.93c0-13.96,0-27.93,0-41.89C12.41,15.25,14.29,22.08,16.17,28.9z"/>
		<polygon class="st0" points="27.08,231.79 28.82,234.05 29.67,233.62 28.4,231.92 36.06,231.92 36.06,230.92 27.08,230.92 		"/>
		<path class="st0" d="M31.57,224.25c-2.94,0-4.61,0.8-4.61,2.44c0,1.63,1.65,2.43,4.61,2.43c2.98,0,4.66-0.8,4.66-2.43
			C36.23,225.05,34.56,224.25,31.57,224.25z M31.57,228.08c-2.61,0-3.63-0.48-3.63-1.39c0-0.92,1.02-1.4,3.63-1.4
			c2.65,0,3.67,0.48,3.67,1.4C35.25,227.6,34.22,228.08,31.57,228.08z"/>
		<path class="st0" d="M67.23,232.87c-2.76-2.23-3.95-3.11-5.62-3.11c-1.4,0-2.46,0.86-2.46,2.19c0,0.92,0.46,1.63,1.36,2.21
			l0.65-0.68c-0.69-0.47-0.98-0.87-0.98-1.48c0-0.71,0.54-1.2,1.48-1.2c1.46,0,2.32,0.64,5.62,3.2h0.98v-4.3l-1.02-0.11V232.87z"/>
		<path class="st0" d="M63.78,223.57c-2.96,0-4.63,0.8-4.63,2.44c0,1.63,1.65,2.43,4.63,2.43c2.96,0,4.63-0.8,4.63-2.43
			C68.42,224.37,66.75,223.57,63.78,223.57z M63.78,227.4c-2.63,0-3.65-0.48-3.65-1.39s1.02-1.4,3.65-1.4c2.63,0,3.65,0.49,3.65,1.4
			S66.41,227.4,63.78,227.4z"/>
		<path class="st0" d="M97.87,229.59c-1.36,0-2.07,0.73-2.17,1.65c-0.25-0.81-0.94-1.41-2.07-1.41c-1.21,0-2.27,0.76-2.27,2.15
			c0,0.78,0.33,1.46,1.04,2.08l0.75-0.52c-0.56-0.48-0.81-0.92-0.81-1.5c0-0.73,0.52-1.21,1.36-1.21c1.06,0,1.59,0.6,1.59,1.33v0.37
			l0.96,0.12v-0.54c0-0.89,0.38-1.45,1.61-1.45c1.06,0,1.75,0.55,1.75,1.47c0,0.59-0.27,1.09-0.9,1.55l0.69,0.6
			c0.84-0.55,1.21-1.31,1.21-2.19C100.61,230.56,99.44,229.59,97.87,229.59z"/>
		<path class="st0" d="M95.97,223.53c-2.96,0-4.61,0.8-4.61,2.43c0,1.64,1.63,2.44,4.61,2.44c2.98,0,4.63-0.8,4.63-2.44
			C100.61,224.33,98.95,223.53,95.97,223.53z M95.97,227.36c-2.63,0-3.65-0.48-3.65-1.4c0-0.9,1.02-1.39,3.65-1.39
			c2.65,0,3.65,0.49,3.65,1.39C99.62,226.88,98.62,227.36,95.97,227.36z"/>
		<polygon class="st0" points="130.43,228.96 129.45,228.96 129.45,229.91 127.03,229.91 127.03,230.78 129.45,230.87 
			129.45,232.94 123.96,230.97 123.54,231.8 129.54,233.99 130.43,233.99 130.43,230.88 132.65,230.88 132.65,229.91 130.43,229.91 
					"/>
		<path class="st0" d="M128.16,223.17c-2.96,0-4.61,0.8-4.61,2.43c0,1.64,1.65,2.44,4.61,2.44c2.99,0,4.66-0.8,4.66-2.44
			C132.81,223.98,131.14,223.17,128.16,223.17z M128.16,227c-2.63,0-3.63-0.48-3.63-1.4c0-0.9,1-1.39,3.63-1.39
			c2.65,0,3.67,0.49,3.67,1.39C131.83,226.52,130.81,227,128.16,227z"/>
		<path class="st0" d="M161.95,229.46c-1.77,0-2.84,0.84-2.84,2.07c0,0.4,0.12,0.79,0.35,1.17h-2.63v-2.84l-0.98-0.15v3.95h4.53
			v-0.78c-0.21-0.35-0.31-0.65-0.31-1.03c0-0.75,0.48-1.34,1.86-1.34c1.31,0,2.07,0.59,2.07,1.49c0,0.63-0.29,1.09-0.88,1.53
			l0.73,0.62c0.71-0.57,1.15-1.23,1.15-2.16C165,230.48,163.75,229.46,161.95,229.46z"/>
		<path class="st0" d="M160.37,223.51c-2.96,0-4.63,0.8-4.63,2.43c0,1.64,1.65,2.44,4.63,2.44c2.96,0,4.63-0.8,4.63-2.44
			C165,224.31,163.33,223.51,160.37,223.51z M160.37,227.34c-2.63,0-3.65-0.48-3.65-1.4c0-0.9,1.02-1.39,3.65-1.39
			c2.63,0,3.65,0.49,3.65,1.39C164.02,226.85,163,227.34,160.37,227.34z"/>
		<path class="st0" d="M193.97,229.07c-1.9,0-2.84,0.94-2.84,2c0,0.69,0.34,1.28,1.17,1.75c-2.05-0.05-3.4-0.68-3.4-1.73
			c0-0.41,0.15-0.79,0.4-1.13l-0.81-0.4c-0.35,0.43-0.56,0.92-0.56,1.5c0,1.72,1.96,2.76,4.91,2.76c2.57,0,4.36-0.67,4.36-2.44
			C197.19,230.1,195.94,229.07,193.97,229.07z M193.35,232.81c-0.75-0.36-1.23-0.91-1.23-1.55c0-0.7,0.48-1.19,1.9-1.19
			c1.31,0,2.19,0.46,2.19,1.32C196.21,232.36,195.29,232.77,193.35,232.81z"/>
		<path class="st0" d="M192.55,223.16c-2.96,0-4.63,0.79-4.63,2.43c0,1.64,1.65,2.44,4.63,2.44c2.96,0,4.63-0.8,4.63-2.44
			C197.19,223.95,195.52,223.16,192.55,223.16z M192.55,226.99c-2.63,0-3.65-0.48-3.65-1.4c0-0.9,1.02-1.39,3.65-1.39
			c2.63,0,3.65,0.49,3.65,1.39C196.21,226.51,195.19,226.99,192.55,226.99z"/>
		<polygon class="st0" points="220.26,229.92 220.26,234.16 221.26,234.16 221.26,230.94 228.98,233.57 229.36,232.65 
			221.17,229.92 		"/>
		<path class="st0" d="M224.74,224.12c-2.96,0-4.61,0.81-4.61,2.44c0,1.63,1.65,2.44,4.61,2.44c2.96,0,4.63-0.81,4.63-2.44
			C229.38,224.94,227.71,224.12,224.74,224.12z M224.74,227.96c-2.63,0-3.65-0.48-3.65-1.4c0-0.9,1.02-1.4,3.65-1.4
			c2.63,0,3.65,0.5,3.65,1.4C228.4,227.48,227.37,227.96,224.74,227.96z"/>
		<path class="st0" d="M259.02,228.92c-1.13,0-1.92,0.53-2.42,1.53c-0.5-0.83-1.11-1.24-2.02-1.24c-1.52,0-2.26,1.13-2.26,2.21
			c0,1.11,0.79,2.21,2.3,2.21c0.94,0,1.61-0.35,2.09-1.14c0.48,0.9,1.19,1.44,2.34,1.44c1.48,0,2.53-0.99,2.53-2.49
			C261.57,229.96,260.52,228.92,259.02,228.92z M256.22,231.3c-0.34,0.85-0.67,1.36-1.59,1.36c-0.9,0-1.4-0.48-1.4-1.23
			c0-0.79,0.54-1.23,1.38-1.23c0.77,0,1.23,0.27,1.69,0.92L256.22,231.3z M259.04,232.89c-0.98,0-1.59-0.34-2.02-1.06l0.12-0.27
			c0.5-1.17,0.92-1.59,1.88-1.59c0.94,0,1.59,0.56,1.59,1.47C260.61,232.34,260.02,232.89,259.04,232.89z"/>
		<path class="st0" d="M256.93,222.96c-2.96,0-4.61,0.8-4.61,2.43c0,1.64,1.65,2.44,4.61,2.44c2.98,0,4.63-0.8,4.63-2.44
			C261.57,223.77,259.92,222.96,256.93,222.96z M256.93,226.79c-2.63,0-3.63-0.48-3.63-1.4c0-0.9,1-1.4,3.63-1.4
			c2.65,0,3.67,0.5,3.67,1.4C260.61,226.31,259.58,226.79,256.93,226.79z"/>
		<path class="st0" d="M287.99,229.26c-2.11,0-3.49,0.8-3.49,2.36c0,1.26,1.09,2.33,2.96,2.33c1.77,0,2.88-0.89,2.88-2.02
			c0-0.74-0.48-1.31-1.06-1.64c2.03,0.08,3.05,1.24,3.7,3.08l0.92-0.23C292.96,230.46,291.71,229.26,287.99,229.26z M289.39,231.72
			c0,0.71-0.6,1.21-1.9,1.21c-1.27,0-2-0.49-2-1.34c0-0.91,0.75-1.36,2.78-1.33C288.95,230.63,289.39,231.09,289.39,231.72z"/>
		<path class="st0" d="M289.14,228.12c2.96,0,4.63-0.8,4.63-2.43c0-1.64-1.67-2.44-4.63-2.44c-2.96,0-4.63,0.8-4.63,2.44
			C284.51,227.31,286.15,228.12,289.14,228.12z M289.14,224.29c2.63,0,3.65,0.49,3.65,1.4c0,0.91-1.02,1.39-3.65,1.39
			c-2.63,0-3.65-0.48-3.65-1.39C285.49,224.78,286.51,224.29,289.14,224.29z"/>
		<polygon class="st0" points="316.84,231.79 318.55,234.05 319.43,233.62 318.13,231.92 325.8,231.92 325.8,230.92 316.84,230.92 
					"/>
		<path class="st0" d="M321.33,224.25c-2.96,0-4.63,0.8-4.63,2.44c0,1.63,1.65,2.43,4.63,2.43c2.96,0,4.63-0.8,4.63-2.43
			C325.96,225.05,324.29,224.25,321.33,224.25z M321.33,228.08c-2.63,0-3.65-0.48-3.65-1.39c0-0.92,1.02-1.4,3.65-1.4
			c2.63,0,3.65,0.48,3.65,1.4C324.98,227.6,323.96,228.08,321.33,228.08z"/>
		<polygon class="st0" points="349.03,231.79 350.74,234.05 351.62,233.62 350.34,231.92 358.01,231.92 358.01,230.92 
			349.03,230.92 		"/>
		<polygon class="st0" points="349.03,227.09 350.74,229.34 351.62,228.9 350.34,227.21 358.01,227.21 358.01,226.21 349.03,226.21 
					"/>
		<polygon class="st0" points="381.22,231.79 382.93,234.05 383.81,233.62 382.53,231.92 390.19,231.92 390.19,230.92 
			381.22,230.92 		"/>
		<path class="st0" d="M389.15,228.15c-2.73-2.23-3.92-3.1-5.62-3.1c-1.4,0-2.44,0.84-2.44,2.19c0,0.91,0.46,1.62,1.36,2.2
			l0.63-0.67c-0.67-0.47-0.98-0.88-0.98-1.48c0-0.71,0.56-1.2,1.5-1.2c1.46,0,2.32,0.64,5.62,3.2h0.98V225l-1.04-0.12V228.15z"/>
		<polygon class="st0" points="413.41,231.79 415.14,234.05 415.99,233.62 414.72,231.92 422.38,231.92 422.38,230.92 
			413.41,230.92 		"/>
		<path class="st0" d="M419.79,224.88c-1.36,0-2.07,0.73-2.17,1.65c-0.25-0.81-0.92-1.42-2.06-1.42c-1.19,0-2.28,0.76-2.28,2.16
			c0,0.78,0.35,1.46,1.06,2.08l0.73-0.52c-0.56-0.49-0.79-0.93-0.79-1.5c0-0.73,0.5-1.21,1.36-1.21c1.04,0,1.59,0.59,1.59,1.31v0.38
			l0.94,0.11v-0.54c0-0.88,0.38-1.45,1.63-1.45c1.04,0,1.75,0.56,1.75,1.47c0,0.6-0.27,1.1-0.92,1.55l0.71,0.62
			c0.81-0.55,1.21-1.33,1.21-2.19C422.55,225.85,421.36,224.88,419.79,224.88z"/>
		<polygon class="st0" points="445.61,231.79 447.33,234.05 448.2,233.62 446.93,231.92 454.57,231.92 454.57,230.92 445.61,230.92 
					"/>
		<polygon class="st0" points="452.36,224.26 451.4,224.26 451.4,225.21 448.97,225.21 448.97,226.07 451.4,226.17 451.4,228.23 
			445.91,226.26 445.47,227.1 451.48,229.28 452.36,229.28 452.36,226.17 454.57,226.17 454.57,225.21 452.36,225.21 		"/>
		<polygon class="st0" points="477.8,231.79 479.51,234.05 480.39,233.62 479.12,231.92 486.76,231.92 486.76,230.92 477.8,230.92 
					"/>
		<path class="st0" d="M483.9,224.76c-1.77,0-2.84,0.84-2.84,2.07c0,0.38,0.1,0.78,0.35,1.17h-2.65v-2.85l-0.96-0.14v3.94h4.51
			v-0.78c-0.19-0.34-0.31-0.64-0.31-1.03c0-0.75,0.5-1.33,1.88-1.33c1.32,0,2.05,0.57,2.05,1.49c0,0.63-0.29,1.11-0.86,1.53
			l0.73,0.6c0.71-0.56,1.13-1.22,1.13-2.15C486.92,225.77,485.67,224.76,483.9,224.76z"/>
		<path class="st0" d="M482.29,218.8c-2.96,0-4.63,0.8-4.63,2.43c0,1.64,1.67,2.44,4.63,2.44c2.99,0,4.63-0.8,4.63-2.44
			C486.92,219.6,485.28,218.8,482.29,218.8z M482.29,222.63c-2.63,0-3.65-0.48-3.65-1.4c0-0.9,1.02-1.39,3.65-1.39
			c2.63,0,3.65,0.49,3.65,1.39C485.94,222.15,484.92,222.63,482.29,222.63z"/>
	</g>
</g>
</svg>
