<?xml version="1.0" encoding="utf-8"?>
<!-- Generator: Adobe Illustrator 25.2.1, SVG Export Plug-In . SVG Version: 6.00 Build 0)  -->
<svg version="1.1" id="Capa_1" xmlns="http://www.w3.org/2000/svg" xmlns:xlink="http://www.w3.org/1999/xlink" x="0px" y="0px"
	 viewBox="0 0 493 450" style="enable-background:new 0 0 493 450;" xml:space="preserve">
<style type="text/css">
	.st0{opacity:0.6;fill:#358534;}
	.st1{opacity:0.6;fill:#D16E13;}
	.st2{opacity:0.6;fill:#AA1571;}
	.st3{fill:#FFFFFF;}
</style>
<circle class="st0" cx="246.25" cy="145.5" r="141"/>
<circle class="st1" cx="145.5" cy="304.5" r="141"/>
<circle class="st2" cx="346.5" cy="304.5" r="141"/>
<g>
	<path class="st3" d="M189.74,90.65v8.49h-4.54V75.68h7.85c2.35,0,4.22,0.69,5.59,2.07c1.38,1.38,2.06,3.19,2.06,5.42
		c0,2.25-0.69,4.05-2.06,5.42c-1.38,1.37-3.24,2.05-5.59,2.05H189.74z M189.74,87.08h3.3c1.02,0,1.8-0.37,2.33-1.1
		c0.53-0.73,0.8-1.66,0.8-2.79c0-1.15-0.27-2.1-0.8-2.84c-0.53-0.75-1.31-1.12-2.33-1.12h-3.3V87.08z"/>
	<path class="st3" d="M208.14,95.59h8.75v3.54H203.6V75.68h4.54V95.59z"/>
	<path class="st3" d="M230.33,94.06h-5.87l-1.32,5.08h-4.74l6.65-23.46h4.71l6.65,23.46h-4.75L230.33,94.06z M225.4,90.48h4
		l-1.95-7.44h-0.1L225.4,90.48z"/>
	<path class="st3" d="M254.94,99.14h-4.54l-7.44-14.97l-0.1,0.02v14.95h-4.54V75.68h4.54l7.44,14.99l0.1-0.02V75.68h4.54V99.14z"/>
	<path class="st3" d="M270.26,88.78h-7.17v6.82h8.59v3.54h-13.13V75.68h13.1v3.56h-8.56v5.99h7.17V88.78z"/>
	<path class="st3" d="M288.68,79.24h-5.51v19.9h-4.56v-19.9h-5.37v-3.56h15.44V79.24z"/>
	<path class="st3" d="M300.04,94.06h-5.87l-1.32,5.08h-4.74l6.65-23.46h4.71l6.65,23.46h-4.75L300.04,94.06z M295.11,90.48h4
		l-1.95-7.44h-0.1L295.11,90.48z"/>
	<path class="st3" d="M180.38,122.62h0.07l3.08-12.18h4.16v16.42h-3.16v-10.34l-0.07-0.01l-2.97,10.35h-2.13l-2.94-10.28l-0.07,0.01
		v10.26h-3.17v-16.42h4.14L180.38,122.62z"/>
	<path class="st3" d="M194.62,127.09c-1.61,0-2.86-0.56-3.74-1.67c-0.89-1.11-1.33-2.54-1.33-4.3v-0.46c0-1.84,0.43-3.34,1.28-4.5
		c0.85-1.16,2.05-1.74,3.6-1.74c1.44,0,2.54,0.49,3.3,1.48c0.77,0.99,1.15,2.32,1.15,4.02v1.74h-6.16c0.05,0.9,0.26,1.62,0.61,2.15
		c0.36,0.53,0.91,0.8,1.65,0.8c0.63,0,1.16-0.07,1.58-0.22c0.42-0.15,0.88-0.38,1.37-0.69l0.82,1.99c-0.44,0.4-1.02,0.73-1.77,1
		C196.27,126.96,195.47,127.09,194.62,127.09z M194.43,116.92c-0.53,0-0.93,0.23-1.19,0.71c-0.26,0.47-0.42,1.11-0.49,1.93h3.02
		v-0.28c0-0.74-0.1-1.32-0.31-1.74C195.26,117.13,194.91,116.92,194.43,116.92z"/>
	<path class="st3" d="M200.1,120.82c0-1.92,0.36-3.46,1.07-4.64c0.71-1.17,1.73-1.76,3.03-1.76c0.49,0,0.93,0.12,1.33,0.35
		c0.4,0.23,0.75,0.56,1.05,0.99v-6.51h3.18v17.6h-2.72l-0.24-1.38c-0.32,0.53-0.7,0.93-1.14,1.2s-0.93,0.41-1.49,0.41
		c-1.29,0-2.3-0.55-3.01-1.65s-1.07-2.56-1.07-4.38V120.82z M203.25,121.06c0,1.1,0.14,1.97,0.41,2.6c0.27,0.63,0.72,0.94,1.34,0.94
		c0.35,0,0.65-0.08,0.92-0.24c0.27-0.16,0.49-0.4,0.66-0.72v-5.61c-0.17-0.35-0.39-0.62-0.67-0.81c-0.27-0.2-0.57-0.29-0.9-0.29
		c-0.62,0-1.06,0.36-1.34,1.07c-0.28,0.71-0.42,1.65-0.42,2.82V121.06z"/>
	<path class="st3" d="M215.22,111.69h-3.18v-2.42h3.18V111.69z M215.22,126.86h-3.18v-12.2h3.18V126.86z"/>
	<path class="st3" d="M217.1,120.64c0-1.83,0.44-3.33,1.31-4.48s2.11-1.73,3.69-1.73c1.58,0,2.81,0.58,3.7,1.73s1.33,2.65,1.33,4.48
		v0.26c0,1.83-0.44,3.33-1.33,4.47c-0.88,1.15-2.11,1.72-3.68,1.72c-1.59,0-2.83-0.57-3.71-1.71c-0.88-1.14-1.32-2.64-1.32-4.48
		V120.64z M220.27,120.9c0,1.14,0.14,2.04,0.42,2.71c0.28,0.67,0.76,1,1.44,1c0.65,0,1.11-0.33,1.4-1c0.29-0.67,0.43-1.57,0.43-2.71
		v-0.26c0-1.12-0.14-2.02-0.43-2.7c-0.29-0.68-0.76-1.02-1.42-1.02s-1.13,0.34-1.42,1.03c-0.28,0.68-0.42,1.58-0.42,2.7V120.9z"/>
	<path class="st3" d="M240.07,126.86c-0.12-0.27-0.22-0.56-0.3-0.88c-0.08-0.32-0.14-0.64-0.17-0.97c-0.27,0.61-0.63,1.11-1.07,1.5
		c-0.44,0.39-0.98,0.59-1.62,0.59c-1.11,0-1.97-0.33-2.57-0.98s-0.9-1.54-0.9-2.68c0-1.19,0.39-2.11,1.18-2.77
		c0.79-0.66,1.96-0.99,3.52-0.99h1.39v-1.02c0-0.61-0.11-1.08-0.34-1.4c-0.23-0.33-0.56-0.49-1-0.49c-0.39,0-0.69,0.13-0.89,0.39
		s-0.3,0.64-0.3,1.13l-3.07-0.01l-0.02-0.07c-0.05-1.05,0.35-1.95,1.18-2.68c0.83-0.74,1.94-1.11,3.31-1.11
		c1.29,0,2.33,0.37,3.12,1.11s1.2,1.79,1.2,3.16v5.01c0,0.57,0.04,1.11,0.12,1.62c0.08,0.51,0.21,1.02,0.38,1.53H240.07z
		 M237.73,124.74c0.42,0,0.8-0.13,1.13-0.39c0.33-0.26,0.56-0.57,0.68-0.94v-1.92h-1.39c-0.53,0-0.92,0.17-1.17,0.52
		c-0.24,0.35-0.37,0.78-0.37,1.31c0,0.42,0.1,0.76,0.3,1.03C237.12,124.61,237.4,124.74,237.73,124.74z"/>
	<path class="st3" d="M247.74,114.65l0.12,1.57c0.33-0.57,0.75-1.01,1.25-1.33c0.5-0.31,1.07-0.47,1.72-0.47
		c0.64,0,1.19,0.17,1.66,0.5c0.47,0.33,0.82,0.84,1.07,1.53c0.32-0.64,0.74-1.14,1.25-1.49c0.51-0.36,1.1-0.54,1.78-0.54
		c1.02,0,1.83,0.43,2.43,1.29c0.59,0.86,0.89,2.17,0.89,3.94v7.21h-3.18v-7.21c0-1.03-0.11-1.74-0.33-2.13
		c-0.22-0.39-0.55-0.59-1-0.59c-0.33,0-0.62,0.1-0.88,0.29c-0.26,0.19-0.47,0.46-0.63,0.8c0.01,0.19,0.02,0.35,0.03,0.48
		s0.02,0.27,0.02,0.41v7.95h-3.17v-7.21c0-1.02-0.11-1.72-0.33-2.12c-0.22-0.4-0.56-0.6-1.01-0.6c-0.31,0-0.58,0.08-0.83,0.23
		c-0.24,0.15-0.45,0.37-0.63,0.65v9.05h-3.18v-12.2H247.74z"/>
	<path class="st3" d="M271.71,121.06c0,1.84-0.35,3.31-1.04,4.4c-0.7,1.09-1.71,1.64-3.05,1.64c-0.59,0-1.1-0.14-1.53-0.41
		s-0.81-0.67-1.12-1.19l-0.21,1.36h-2.72v-17.6h3.17v6.47c0.29-0.42,0.64-0.74,1.04-0.97c0.4-0.23,0.85-0.34,1.36-0.34
		c1.35,0,2.37,0.58,3.06,1.74c0.7,1.16,1.04,2.71,1.04,4.66V121.06z M268.53,120.82c0-1.23-0.12-2.18-0.37-2.87
		c-0.25-0.68-0.7-1.03-1.36-1.03c-0.37,0-0.69,0.09-0.95,0.28c-0.27,0.19-0.48,0.45-0.64,0.79v5.67c0.16,0.31,0.37,0.54,0.63,0.69
		c0.26,0.15,0.59,0.23,0.97,0.23c0.67,0,1.12-0.3,1.36-0.9c0.24-0.6,0.36-1.48,0.36-2.64V120.82z"/>
	<path class="st3" d="M276.73,111.69h-3.18v-2.42h3.18V111.69z M276.73,126.86h-3.18v-12.2h3.18V126.86z"/>
	<path class="st3" d="M283.68,127.09c-1.61,0-2.86-0.56-3.74-1.67c-0.89-1.11-1.33-2.54-1.33-4.3v-0.46c0-1.84,0.43-3.34,1.28-4.5
		c0.85-1.16,2.05-1.74,3.6-1.74c1.44,0,2.54,0.49,3.3,1.48c0.77,0.99,1.15,2.32,1.15,4.02v1.74h-6.16c0.05,0.9,0.26,1.62,0.61,2.15
		c0.36,0.53,0.91,0.8,1.65,0.8c0.63,0,1.16-0.07,1.58-0.22c0.42-0.15,0.88-0.38,1.37-0.69l0.82,1.99c-0.44,0.4-1.02,0.73-1.77,1
		C285.32,126.96,284.52,127.09,283.68,127.09z M283.48,116.92c-0.53,0-0.93,0.23-1.19,0.71c-0.26,0.47-0.42,1.11-0.49,1.93h3.02
		v-0.28c0-0.74-0.1-1.32-0.31-1.74C284.31,117.13,283.96,116.92,283.48,116.92z"/>
	<path class="st3" d="M292.48,114.65l0.14,1.7c0.35-0.61,0.77-1.08,1.27-1.42s1.06-0.51,1.68-0.51c1.04,0,1.85,0.4,2.44,1.21
		c0.59,0.81,0.88,2.08,0.88,3.81v7.41h-3.18v-7.41c0-0.92-0.11-1.57-0.33-1.95c-0.22-0.38-0.56-0.57-1.01-0.57
		c-0.35,0-0.67,0.08-0.95,0.25c-0.28,0.17-0.52,0.4-0.72,0.7v8.98h-3.18v-12.2H292.48z"/>
	<path class="st3" d="M304.67,111.62v3.03h1.66v2.27h-1.66v6.21c0,0.52,0.08,0.89,0.23,1.11s0.36,0.33,0.62,0.33
		c0.15,0,0.27-0.01,0.37-0.03c0.1-0.02,0.22-0.05,0.36-0.1l0.25,2.35c-0.3,0.11-0.59,0.18-0.86,0.23s-0.58,0.07-0.93,0.07
		c-1.04,0-1.83-0.32-2.39-0.95c-0.55-0.63-0.83-1.63-0.83-2.99v-6.24h-1.48v-2.27h1.48v-3.03H304.67z"/>
	<path class="st3" d="M312.78,127.09c-1.61,0-2.86-0.56-3.74-1.67c-0.89-1.11-1.33-2.54-1.33-4.3v-0.46c0-1.84,0.43-3.34,1.28-4.5
		c0.85-1.16,2.05-1.74,3.6-1.74c1.44,0,2.54,0.49,3.3,1.48c0.77,0.99,1.15,2.32,1.15,4.02v1.74h-6.16c0.05,0.9,0.26,1.62,0.61,2.15
		c0.36,0.53,0.91,0.8,1.65,0.8c0.63,0,1.16-0.07,1.58-0.22c0.42-0.15,0.88-0.38,1.37-0.69l0.82,1.99c-0.44,0.4-1.02,0.73-1.77,1
		C314.42,126.96,313.62,127.09,312.78,127.09z M312.58,116.92c-0.53,0-0.93,0.23-1.19,0.71c-0.26,0.47-0.42,1.11-0.49,1.93h3.02
		v-0.28c0-0.74-0.1-1.32-0.31-1.74C313.41,117.13,313.07,116.92,312.58,116.92z"/>
</g>
<g>
	<path class="st3" d="M28.93,290.04v8.49h-4.54v-23.46h7.85c2.35,0,4.22,0.69,5.59,2.07c1.38,1.38,2.06,3.19,2.06,5.42
		c0,2.25-0.69,4.05-2.06,5.42c-1.38,1.37-3.24,2.05-5.59,2.05H28.93z M28.93,286.48h3.3c1.02,0,1.8-0.37,2.33-1.1
		c0.53-0.73,0.8-1.66,0.8-2.79c0-1.15-0.27-2.1-0.8-2.84c-0.53-0.75-1.31-1.12-2.33-1.12h-3.3V286.48z"/>
	<path class="st3" d="M54.5,288.18h-7.17v6.82h8.59v3.54H42.79v-23.46h13.1v3.56h-8.56v5.99h7.17V288.18z"/>
	<path class="st3" d="M63.35,289.13v9.41h-4.54v-23.44h7.03c2.33,0,4.17,0.61,5.5,1.82c1.34,1.21,2.01,2.91,2.01,5.08
		c0,1.21-0.28,2.27-0.85,3.16c-0.56,0.89-1.38,1.6-2.44,2.13c1.22,0.41,2.11,1.08,2.64,2.03s0.81,2.13,0.81,3.54v1.71
		c0,0.66,0.08,1.34,0.23,2.06s0.42,1.25,0.81,1.58v0.34h-4.71c-0.38-0.34-0.62-0.9-0.72-1.68c-0.1-0.78-0.15-1.56-0.15-2.33v-1.64
		c0-1.19-0.25-2.12-0.74-2.77s-1.2-0.98-2.13-0.98H63.35z M63.35,285.58h2.45c0.98,0,1.72-0.29,2.23-0.88s0.77-1.42,0.77-2.49
		c0-1.1-0.25-1.97-0.76-2.61s-1.24-0.97-2.21-0.97h-2.48V285.58z"/>
	<path class="st3" d="M87.36,292.45c0-0.93-0.24-1.67-0.72-2.22c-0.48-0.54-1.33-1.07-2.57-1.59c-2.41-0.85-4.22-1.81-5.43-2.88
		s-1.82-2.58-1.82-4.51c0-1.92,0.69-3.49,2.08-4.7c1.39-1.21,3.15-1.81,5.3-1.81c2.28,0,4.11,0.64,5.49,1.93s2.06,3.02,2.01,5.19
		l-0.03,0.1h-4.42c0-1.21-0.27-2.14-0.81-2.76c-0.54-0.63-1.32-0.94-2.33-0.94c-0.87,0-1.55,0.29-2.03,0.86
		c-0.48,0.58-0.73,1.29-0.73,2.15c0,0.79,0.27,1.45,0.82,1.97s1.49,1.08,2.82,1.69c2.27,0.75,3.98,1.7,5.15,2.85
		c1.17,1.15,1.75,2.7,1.75,4.64c0,2.01-0.68,3.59-2.05,4.74s-3.17,1.72-5.43,1.72c-2.22,0-4.12-0.62-5.7-1.86
		c-1.58-1.24-2.34-3.13-2.29-5.66l0.03-0.1h4.43c0,1.47,0.3,2.53,0.89,3.17c0.6,0.64,1.47,0.97,2.63,0.97c0.98,0,1.71-0.27,2.2-0.81
		S87.36,293.34,87.36,292.45z"/>
	<path class="st3" d="M111.5,290.09c0,2.76-0.78,4.91-2.34,6.46s-3.63,2.32-6.22,2.32s-4.66-0.77-6.2-2.32s-2.32-3.7-2.32-6.46
		v-6.54c0-2.75,0.77-4.91,2.31-6.47c1.54-1.56,3.61-2.34,6.2-2.34s4.66,0.78,6.23,2.34c1.56,1.56,2.34,3.72,2.34,6.47V290.09z
		 M106.97,283.5c0-1.71-0.35-3-1.04-3.87c-0.69-0.87-1.69-1.31-3.01-1.31c-1.32,0-2.31,0.43-2.98,1.3c-0.67,0.87-1,2.16-1,3.88v6.59
		c0,1.74,0.34,3.05,1.01,3.92s1.67,1.31,2.99,1.31s2.32-0.44,3-1.31s1.02-2.18,1.02-3.92V283.5z"/>
	<path class="st3" d="M131.3,298.54h-4.54l-7.44-14.97l-0.1,0.02v14.95h-4.54v-23.46h4.54l7.44,14.99l0.1-0.02v-14.97h4.54V298.54z"
		/>
	<path class="st3" d="M145.61,293.46h-5.87l-1.32,5.08h-4.74l6.65-23.46h4.71l6.65,23.46h-4.75L145.61,293.46z M140.68,289.88h4
		l-1.95-7.44h-0.1L140.68,289.88z"/>
	<path class="st3" d="M163.93,292.45c0-0.93-0.24-1.67-0.72-2.22c-0.48-0.54-1.33-1.07-2.57-1.59c-2.41-0.85-4.22-1.81-5.43-2.88
		s-1.82-2.58-1.82-4.51c0-1.92,0.69-3.49,2.08-4.7c1.39-1.21,3.15-1.81,5.3-1.81c2.28,0,4.11,0.64,5.49,1.93s2.06,3.02,2.01,5.19
		l-0.03,0.1h-4.42c0-1.21-0.27-2.14-0.81-2.76c-0.54-0.63-1.32-0.94-2.33-0.94c-0.87,0-1.55,0.29-2.03,0.86
		c-0.48,0.58-0.73,1.29-0.73,2.15c0,0.79,0.27,1.45,0.82,1.97s1.49,1.08,2.82,1.69c2.27,0.75,3.98,1.7,5.15,2.85
		c1.17,1.15,1.75,2.7,1.75,4.64c0,2.01-0.68,3.59-2.05,4.74s-3.17,1.72-5.43,1.72c-2.22,0-4.12-0.62-5.7-1.86
		c-1.58-1.24-2.34-3.13-2.29-5.66l0.03-0.1h4.43c0,1.47,0.3,2.53,0.89,3.17c0.6,0.64,1.47,0.97,2.63,0.97c0.98,0,1.71-0.27,2.2-0.81
		S163.93,293.34,163.93,292.45z"/>
	<path class="st3" d="M24.72,326.26v-16.42h4.7c1.71,0,3.05,0.37,4,1.12s1.43,1.87,1.43,3.36c0,0.77-0.17,1.46-0.52,2.07
		s-0.87,1.05-1.55,1.35c0.92,0.19,1.6,0.63,2.05,1.32s0.67,1.5,0.67,2.43c0,1.57-0.46,2.76-1.37,3.57
		c-0.91,0.81-2.22,1.21-3.91,1.21H24.72z M27.9,316.78h1.67c0.68-0.02,1.21-0.21,1.57-0.58c0.36-0.37,0.54-0.9,0.54-1.6
		c0-0.78-0.19-1.36-0.56-1.73c-0.38-0.37-0.94-0.55-1.69-0.55H27.9V316.78z M27.9,318.98v4.79h2.32c0.69,0,1.21-0.19,1.57-0.58
		c0.35-0.39,0.53-0.96,0.53-1.72c0-0.78-0.16-1.39-0.49-1.82c-0.32-0.43-0.83-0.65-1.51-0.68h-0.11H27.9z"/>
	<path class="st3" d="M40.72,311.09h-3.18v-2.42h3.18V311.09z M40.72,326.26h-3.18v-12.2h3.18V326.26z"/>
	<path class="st3" d="M47.67,326.49c-1.61,0-2.86-0.56-3.74-1.67c-0.89-1.11-1.33-2.54-1.33-4.3v-0.46c0-1.84,0.43-3.34,1.28-4.5
		c0.85-1.16,2.05-1.74,3.6-1.74c1.44,0,2.54,0.49,3.3,1.48c0.77,0.99,1.15,2.32,1.15,4.02v1.74h-6.16c0.05,0.9,0.26,1.62,0.61,2.15
		c0.36,0.53,0.91,0.8,1.65,0.8c0.63,0,1.16-0.07,1.58-0.22c0.42-0.15,0.88-0.38,1.37-0.69l0.82,1.99c-0.44,0.4-1.02,0.73-1.77,1
		C49.32,326.36,48.52,326.49,47.67,326.49z M47.48,316.32c-0.53,0-0.93,0.23-1.19,0.71c-0.26,0.47-0.42,1.11-0.49,1.93h3.02v-0.28
		c0-0.74-0.1-1.32-0.31-1.74C48.31,316.53,47.96,316.32,47.48,316.32z"/>
	<path class="st3" d="M56.48,314.05l0.14,1.7c0.35-0.61,0.77-1.08,1.27-1.42s1.06-0.51,1.68-0.51c1.04,0,1.85,0.4,2.44,1.21
		c0.59,0.81,0.89,2.08,0.89,3.81v7.41h-3.18v-7.41c0-0.92-0.11-1.57-0.33-1.95c-0.22-0.38-0.56-0.57-1.01-0.57
		c-0.35,0-0.67,0.08-0.95,0.25c-0.28,0.17-0.52,0.4-0.72,0.7v8.98h-3.18v-12.2H56.48z"/>
	<path class="st3" d="M69.61,326.49c-1.61,0-2.86-0.56-3.74-1.67c-0.89-1.11-1.33-2.54-1.33-4.3v-0.46c0-1.84,0.43-3.34,1.28-4.5
		c0.85-1.16,2.05-1.74,3.6-1.74c1.44,0,2.54,0.49,3.3,1.48c0.77,0.99,1.15,2.32,1.15,4.02v1.74h-6.16c0.05,0.9,0.26,1.62,0.61,2.15
		c0.36,0.53,0.91,0.8,1.65,0.8c0.63,0,1.16-0.07,1.58-0.22c0.42-0.15,0.88-0.38,1.37-0.69l0.82,1.99c-0.44,0.4-1.02,0.73-1.77,1
		C71.26,326.36,70.46,326.49,69.61,326.49z M69.42,316.32c-0.53,0-0.93,0.23-1.19,0.71c-0.26,0.47-0.42,1.11-0.49,1.93h3.02v-0.28
		c0-0.74-0.1-1.32-0.31-1.74C70.24,316.53,69.9,316.32,69.42,316.32z"/>
	<path class="st3" d="M80.94,323.08c0-0.36-0.14-0.67-0.42-0.92c-0.28-0.26-0.82-0.57-1.61-0.94c-1.24-0.47-2.17-0.99-2.8-1.57
		c-0.62-0.58-0.94-1.32-0.94-2.23c0-0.99,0.4-1.84,1.19-2.54c0.79-0.7,1.84-1.05,3.15-1.05c1.37,0,2.46,0.36,3.28,1.09
		s1.21,1.64,1.17,2.75l-0.02,0.07h-3.07c0-0.51-0.11-0.92-0.34-1.23s-0.57-0.47-1.03-0.47c-0.37,0-0.68,0.12-0.93,0.36
		s-0.38,0.53-0.38,0.88c0,0.36,0.12,0.65,0.37,0.87c0.25,0.22,0.79,0.53,1.62,0.92c1.29,0.44,2.24,0.96,2.87,1.56
		c0.63,0.6,0.94,1.37,0.94,2.33c0,1.04-0.42,1.89-1.25,2.55c-0.83,0.66-1.93,0.99-3.29,0.99c-1.42,0-2.55-0.41-3.37-1.22
		c-0.83-0.81-1.22-1.73-1.18-2.76l0.03-0.07h2.89c0.02,0.66,0.17,1.14,0.47,1.43c0.3,0.29,0.71,0.43,1.24,0.43
		c0.45,0,0.8-0.11,1.03-0.33C80.82,323.75,80.94,323.45,80.94,323.08z"/>
	<path class="st3" d="M89.37,311.02v3.03h1.66v2.27h-1.66v6.21c0,0.52,0.08,0.89,0.23,1.11s0.36,0.33,0.62,0.33
		c0.15,0,0.27-0.01,0.37-0.03c0.1-0.02,0.22-0.05,0.36-0.1l0.25,2.35c-0.3,0.11-0.59,0.18-0.86,0.23s-0.58,0.07-0.93,0.07
		c-1.04,0-1.83-0.32-2.39-0.95c-0.55-0.63-0.83-1.63-0.83-2.99v-6.24h-1.48v-2.27h1.48v-3.03H89.37z"/>
	<path class="st3" d="M98.9,326.26c-0.12-0.27-0.22-0.56-0.3-0.88c-0.08-0.32-0.14-0.64-0.17-0.97c-0.27,0.61-0.63,1.11-1.07,1.5
		c-0.44,0.39-0.98,0.59-1.62,0.59c-1.11,0-1.97-0.33-2.57-0.98s-0.9-1.54-0.9-2.68c0-1.19,0.39-2.11,1.18-2.77
		c0.79-0.66,1.96-0.99,3.52-0.99h1.39v-1.02c0-0.61-0.11-1.08-0.34-1.4c-0.23-0.33-0.56-0.49-1-0.49c-0.39,0-0.69,0.13-0.89,0.39
		s-0.3,0.64-0.3,1.13l-3.07-0.01l-0.02-0.07c-0.05-1.05,0.35-1.95,1.18-2.68c0.83-0.74,1.94-1.11,3.31-1.11
		c1.29,0,2.33,0.37,3.12,1.11s1.2,1.79,1.2,3.16v5.01c0,0.57,0.04,1.11,0.12,1.62c0.08,0.51,0.21,1.02,0.38,1.53H98.9z
		 M96.57,324.14c0.42,0,0.8-0.13,1.13-0.39c0.33-0.26,0.56-0.57,0.68-0.94v-1.92h-1.39c-0.53,0-0.92,0.17-1.17,0.52
		c-0.24,0.35-0.37,0.78-0.37,1.31c0,0.42,0.1,0.76,0.3,1.03C95.96,324,96.23,324.14,96.57,324.14z"/>
	<path class="st3" d="M109.29,316.8l-1.08-0.03c-0.35,0-0.65,0.09-0.89,0.28c-0.24,0.19-0.42,0.45-0.55,0.79v8.41h-3.17v-12.2h2.97
		l0.12,1.73c0.23-0.62,0.53-1.1,0.9-1.44s0.78-0.51,1.26-0.51c0.14,0,0.27,0.01,0.39,0.04c0.12,0.03,0.24,0.06,0.37,0.1
		L109.29,316.8z"/>
	<path class="st3" d="M121.33,323.08c0-0.36-0.14-0.67-0.42-0.92c-0.28-0.26-0.82-0.57-1.61-0.94c-1.24-0.47-2.17-0.99-2.8-1.57
		c-0.62-0.58-0.94-1.32-0.94-2.23c0-0.99,0.4-1.84,1.19-2.54c0.79-0.7,1.84-1.05,3.15-1.05c1.37,0,2.46,0.36,3.28,1.09
		s1.21,1.64,1.17,2.75l-0.02,0.07h-3.07c0-0.51-0.11-0.92-0.34-1.23s-0.57-0.47-1.03-0.47c-0.37,0-0.68,0.12-0.93,0.36
		s-0.38,0.53-0.38,0.88c0,0.36,0.12,0.65,0.37,0.87c0.25,0.22,0.79,0.53,1.62,0.92c1.29,0.44,2.24,0.96,2.87,1.56
		c0.63,0.6,0.94,1.37,0.94,2.33c0,1.04-0.42,1.89-1.25,2.55c-0.83,0.66-1.93,0.99-3.29,0.99c-1.42,0-2.55-0.41-3.37-1.22
		c-0.83-0.81-1.22-1.73-1.18-2.76l0.03-0.07h2.89c0.02,0.66,0.17,1.14,0.47,1.43c0.3,0.29,0.71,0.43,1.24,0.43
		c0.45,0,0.8-0.11,1.03-0.33C121.21,323.75,121.33,323.45,121.33,323.08z"/>
	<path class="st3" d="M125.65,320.04c0-1.83,0.44-3.33,1.31-4.48s2.11-1.73,3.69-1.73c1.58,0,2.81,0.58,3.7,1.73
		s1.33,2.65,1.33,4.48v0.26c0,1.83-0.44,3.33-1.33,4.47c-0.88,1.15-2.11,1.72-3.68,1.72c-1.59,0-2.83-0.57-3.71-1.71
		c-0.88-1.14-1.32-2.64-1.32-4.48V320.04z M128.82,320.3c0,1.14,0.14,2.04,0.42,2.71c0.28,0.67,0.76,1,1.44,1
		c0.65,0,1.11-0.33,1.4-1c0.29-0.67,0.43-1.57,0.43-2.71v-0.26c0-1.12-0.14-2.02-0.43-2.7c-0.29-0.68-0.76-1.02-1.42-1.02
		s-1.13,0.34-1.42,1.03c-0.28,0.68-0.42,1.58-0.42,2.7V320.3z"/>
	<path class="st3" d="M141.9,324.01c0.45,0,0.79-0.17,1.03-0.5c0.23-0.33,0.35-0.81,0.35-1.44h2.88l0.03,0.07
		c0.02,1.27-0.37,2.31-1.19,3.13s-1.85,1.22-3.1,1.22c-1.59,0-2.82-0.57-3.67-1.72c-0.85-1.15-1.28-2.63-1.28-4.45V320
		c0-1.8,0.43-3.28,1.28-4.44s2.07-1.73,3.66-1.73c1.32,0,2.38,0.42,3.16,1.27c0.78,0.85,1.16,1.99,1.14,3.42l-0.02,0.06h-2.89
		c0-0.68-0.12-1.22-0.35-1.64c-0.23-0.41-0.58-0.62-1.04-0.62c-0.66,0-1.12,0.34-1.38,1.01c-0.26,0.67-0.38,1.56-0.38,2.67v0.33
		c0,1.14,0.13,2.03,0.38,2.7C140.77,323.68,141.23,324.01,141.9,324.01z"/>
	<path class="st3" d="M151.13,311.09h-3.18v-2.42h3.18V311.09z M151.13,326.26h-3.18v-12.2h3.18V326.26z"/>
	<path class="st3" d="M159.5,326.26c-0.12-0.27-0.22-0.56-0.3-0.88c-0.08-0.32-0.14-0.64-0.17-0.97c-0.27,0.61-0.63,1.11-1.07,1.5
		c-0.44,0.39-0.98,0.59-1.62,0.59c-1.11,0-1.97-0.33-2.57-0.98s-0.9-1.54-0.9-2.68c0-1.19,0.39-2.11,1.18-2.77
		c0.79-0.66,1.96-0.99,3.52-0.99h1.39v-1.02c0-0.61-0.11-1.08-0.34-1.4c-0.23-0.33-0.56-0.49-1-0.49c-0.39,0-0.69,0.13-0.89,0.39
		s-0.3,0.64-0.3,1.13l-3.07-0.01l-0.02-0.07c-0.05-1.05,0.35-1.95,1.18-2.68c0.83-0.74,1.94-1.11,3.31-1.11
		c1.29,0,2.33,0.37,3.12,1.11s1.2,1.79,1.2,3.16v5.01c0,0.57,0.04,1.11,0.12,1.62c0.08,0.51,0.21,1.02,0.38,1.53H159.5z
		 M157.16,324.14c0.42,0,0.8-0.13,1.13-0.39c0.33-0.26,0.56-0.57,0.68-0.94v-1.92h-1.39c-0.53,0-0.92,0.17-1.17,0.52
		c-0.24,0.35-0.37,0.78-0.37,1.31c0,0.42,0.1,0.76,0.3,1.03C156.55,324,156.82,324.14,157.16,324.14z"/>
	<path class="st3" d="M167.53,326.26h-3.18v-17.6h3.18V326.26z"/>
</g>
<g>
	<path class="st3" d="M330.99,288.18h-7.17v6.82h8.59v3.54h-13.13v-23.46h13.1v3.56h-8.56v5.99h7.17V288.18z"/>
	<path class="st3" d="M345.48,292.48h0.1l4.4-17.4h5.95v23.46h-4.51v-14.78l-0.1-0.02l-4.24,14.79h-3.05l-4.21-14.68l-0.1,0.02
		v14.66h-4.53v-23.46h5.91L345.48,292.48z"/>
	<path class="st3" d="M363.99,290.04v8.49h-4.54v-23.46h7.85c2.35,0,4.22,0.69,5.59,2.07c1.38,1.38,2.06,3.19,2.06,5.42
		c0,2.25-0.69,4.05-2.06,5.42c-1.38,1.37-3.24,2.05-5.59,2.05H363.99z M363.99,286.48h3.3c1.02,0,1.8-0.37,2.33-1.1
		c0.53-0.73,0.8-1.66,0.8-2.79c0-1.15-0.27-2.1-0.8-2.84c-0.53-0.75-1.31-1.12-2.33-1.12h-3.3V286.48z"/>
	<path class="st3" d="M382.39,289.13v9.41h-4.54v-23.44h7.03c2.33,0,4.17,0.61,5.5,1.82c1.34,1.21,2.01,2.91,2.01,5.08
		c0,1.21-0.28,2.27-0.85,3.16c-0.56,0.89-1.38,1.6-2.44,2.13c1.22,0.41,2.11,1.08,2.64,2.03s0.81,2.13,0.81,3.54v1.71
		c0,0.66,0.08,1.34,0.23,2.06s0.42,1.25,0.81,1.58v0.34h-4.71c-0.38-0.34-0.62-0.9-0.72-1.68c-0.1-0.78-0.15-1.56-0.15-2.33v-1.64
		c0-1.19-0.25-2.12-0.74-2.77s-1.2-0.98-2.13-0.98H382.39z M382.39,285.58h2.45c0.98,0,1.72-0.29,2.23-0.88
		c0.51-0.59,0.77-1.42,0.77-2.49c0-1.1-0.25-1.97-0.76-2.61s-1.24-0.97-2.21-0.97h-2.48V285.58z"/>
	<path class="st3" d="M407.77,288.18h-7.17v6.82h8.59v3.54h-13.13v-23.46h13.1v3.56h-8.56v5.99h7.17V288.18z"/>
	<path class="st3" d="M422.42,292.45c0-0.93-0.24-1.67-0.72-2.22c-0.48-0.54-1.33-1.07-2.57-1.59c-2.41-0.85-4.22-1.81-5.43-2.88
		s-1.82-2.58-1.82-4.51c0-1.92,0.69-3.49,2.08-4.7c1.39-1.21,3.15-1.81,5.3-1.81c2.28,0,4.11,0.64,5.5,1.93
		c1.38,1.29,2.06,3.02,2.01,5.19l-0.03,0.1h-4.42c0-1.21-0.27-2.14-0.81-2.76c-0.54-0.63-1.32-0.94-2.33-0.94
		c-0.87,0-1.55,0.29-2.03,0.86c-0.48,0.58-0.73,1.29-0.73,2.15c0,0.79,0.27,1.45,0.82,1.97c0.55,0.52,1.49,1.08,2.82,1.69
		c2.27,0.75,3.98,1.7,5.15,2.85c1.17,1.15,1.75,2.7,1.75,4.64c0,2.01-0.68,3.59-2.05,4.74s-3.17,1.72-5.43,1.72
		c-2.22,0-4.12-0.62-5.7-1.86c-1.58-1.24-2.34-3.13-2.29-5.66l0.03-0.1h4.43c0,1.47,0.3,2.53,0.89,3.17
		c0.6,0.64,1.47,0.97,2.63,0.97c0.98,0,1.71-0.27,2.2-0.81C422.17,294.05,422.42,293.34,422.42,292.45z"/>
	<path class="st3" d="M440.32,293.46h-5.87l-1.32,5.08h-4.74l6.66-23.46h4.71l6.65,23.46h-4.75L440.32,293.46z M435.39,289.88h4
		l-1.95-7.44h-0.1L435.39,289.88z"/>
	<path class="st3" d="M458.64,292.45c0-0.93-0.24-1.67-0.72-2.22c-0.48-0.54-1.33-1.07-2.57-1.59c-2.41-0.85-4.22-1.81-5.43-2.88
		s-1.82-2.58-1.82-4.51c0-1.92,0.69-3.49,2.08-4.7c1.39-1.21,3.15-1.81,5.3-1.81c2.28,0,4.11,0.64,5.5,1.93
		c1.38,1.29,2.06,3.02,2.01,5.19l-0.03,0.1h-4.42c0-1.21-0.27-2.14-0.81-2.76c-0.54-0.63-1.32-0.94-2.33-0.94
		c-0.87,0-1.55,0.29-2.03,0.86c-0.48,0.58-0.73,1.29-0.73,2.15c0,0.79,0.27,1.45,0.82,1.97c0.55,0.52,1.49,1.08,2.82,1.69
		c2.27,0.75,3.98,1.7,5.15,2.85c1.17,1.15,1.75,2.7,1.75,4.64c0,2.01-0.68,3.59-2.05,4.74s-3.17,1.72-5.43,1.72
		c-2.22,0-4.12-0.62-5.7-1.86c-1.58-1.24-2.34-3.13-2.29-5.66l0.03-0.1h4.43c0,1.47,0.3,2.53,0.89,3.17
		c0.6,0.64,1.47,0.97,2.63,0.97c0.98,0,1.71-0.27,2.2-0.81C458.4,294.05,458.64,293.34,458.64,292.45z"/>
	<path class="st3" d="M343.97,319.67v6.59h-3.18v-16.41h4.92c1.63,0,2.92,0.42,3.85,1.27c0.94,0.85,1.4,2.03,1.4,3.55
		c0,0.85-0.2,1.59-0.59,2.21c-0.39,0.62-0.96,1.12-1.71,1.49c0.86,0.29,1.47,0.76,1.85,1.42s0.56,1.49,0.56,2.48v1.2
		c0,0.46,0.05,0.94,0.16,1.44c0.11,0.5,0.29,0.87,0.56,1.11v0.24h-3.29c-0.26-0.24-0.43-0.63-0.5-1.18
		c-0.07-0.54-0.11-1.09-0.11-1.63v-1.15c0-0.83-0.17-1.48-0.52-1.94s-0.84-0.69-1.49-0.69H343.97z M343.97,317.19h1.71
		c0.68,0,1.21-0.21,1.56-0.61c0.36-0.41,0.54-0.99,0.54-1.74c0-0.77-0.18-1.38-0.53-1.83s-0.87-0.68-1.55-0.68h-1.74V317.19z"/>
	<path class="st3" d="M358,326.49c-1.61,0-2.86-0.56-3.74-1.67c-0.89-1.11-1.33-2.54-1.33-4.3v-0.46c0-1.84,0.43-3.34,1.28-4.5
		c0.85-1.16,2.05-1.74,3.6-1.74c1.44,0,2.54,0.49,3.3,1.48c0.77,0.99,1.15,2.32,1.15,4.02v1.74h-6.16c0.05,0.9,0.26,1.62,0.61,2.15
		c0.36,0.53,0.91,0.8,1.65,0.8c0.63,0,1.16-0.07,1.58-0.22c0.42-0.15,0.88-0.38,1.37-0.69l0.82,1.99c-0.44,0.4-1.02,0.73-1.77,1
		C359.65,326.36,358.85,326.49,358,326.49z M357.81,316.32c-0.53,0-0.93,0.23-1.19,0.71c-0.26,0.47-0.42,1.11-0.49,1.93h3.02v-0.28
		c0-0.74-0.1-1.32-0.31-1.74C358.64,316.53,358.29,316.32,357.81,316.32z"/>
	<path class="st3" d="M373.58,320.46c0,1.82-0.36,3.28-1.08,4.38c-0.72,1.1-1.72,1.65-3.02,1.65c-0.52,0-0.98-0.1-1.38-0.31
		c-0.4-0.21-0.74-0.51-1.04-0.91v5.67h-3.17v-16.9h2.91l0.13,1.25c0.3-0.47,0.66-0.84,1.07-1.09c0.41-0.26,0.9-0.38,1.44-0.38
		c1.31,0,2.32,0.59,3.04,1.76c0.72,1.17,1.08,2.72,1.08,4.64V320.46z M370.4,320.22c0-1.17-0.14-2.11-0.43-2.82
		c-0.29-0.71-0.73-1.07-1.33-1.07c-0.36,0-0.67,0.09-0.94,0.28c-0.26,0.18-0.47,0.44-0.63,0.77v5.75c0.16,0.29,0.37,0.5,0.63,0.65
		c0.26,0.15,0.58,0.23,0.95,0.23c0.62,0,1.06-0.31,1.34-0.94c0.27-0.63,0.41-1.5,0.41-2.61V320.22z"/>
	<path class="st3" d="M381.62,324.52c-0.32,0.63-0.73,1.12-1.21,1.46c-0.49,0.34-1.05,0.51-1.69,0.51c-1.1,0-1.96-0.44-2.59-1.32
		c-0.63-0.88-0.94-2.24-0.94-4.08v-7.04h3.18v7.06c0,1.09,0.11,1.84,0.32,2.26c0.21,0.42,0.55,0.63,1.01,0.63
		c0.37,0,0.69-0.07,0.97-0.21s0.51-0.34,0.71-0.61v-9.12h3.19v12.2h-2.61L381.62,324.52z"/>
	<path class="st3" d="M390.36,311.02v3.03h1.66v2.27h-1.66v6.21c0,0.52,0.08,0.89,0.23,1.11s0.36,0.33,0.62,0.33
		c0.15,0,0.27-0.01,0.37-0.03c0.1-0.02,0.22-0.05,0.36-0.1l0.25,2.35c-0.3,0.11-0.59,0.18-0.86,0.23s-0.58,0.07-0.93,0.07
		c-1.04,0-1.83-0.32-2.39-0.95c-0.55-0.63-0.83-1.63-0.83-2.99v-6.24h-1.48v-2.27h1.48v-3.03H390.36z"/>
	<path class="st3" d="M399.89,326.26c-0.12-0.27-0.22-0.56-0.3-0.88c-0.08-0.32-0.14-0.64-0.17-0.97c-0.27,0.61-0.63,1.11-1.07,1.5
		c-0.44,0.39-0.98,0.59-1.62,0.59c-1.11,0-1.97-0.33-2.57-0.98s-0.9-1.54-0.9-2.68c0-1.19,0.39-2.11,1.18-2.77
		c0.79-0.66,1.96-0.99,3.52-0.99h1.39v-1.02c0-0.61-0.11-1.08-0.34-1.4c-0.23-0.33-0.56-0.49-1-0.49c-0.39,0-0.69,0.13-0.89,0.39
		s-0.3,0.64-0.3,1.13l-3.07-0.01l-0.02-0.07c-0.04-1.05,0.35-1.95,1.18-2.68s1.94-1.11,3.3-1.11c1.29,0,2.33,0.37,3.12,1.11
		c0.8,0.74,1.2,1.79,1.2,3.16v5.01c0,0.57,0.04,1.11,0.12,1.62c0.08,0.51,0.21,1.02,0.38,1.53H399.89z M397.56,324.14
		c0.42,0,0.8-0.13,1.13-0.39c0.33-0.26,0.56-0.57,0.68-0.94v-1.92h-1.39c-0.53,0-0.92,0.17-1.17,0.52
		c-0.25,0.35-0.37,0.78-0.37,1.31c0,0.42,0.1,0.76,0.3,1.03S397.22,324.14,397.56,324.14z"/>
	<path class="st3" d="M409.09,324.01c0.45,0,0.79-0.17,1.03-0.5c0.23-0.33,0.35-0.81,0.35-1.44h2.88l0.03,0.07
		c0.02,1.27-0.38,2.31-1.19,3.13s-1.85,1.22-3.1,1.22c-1.59,0-2.82-0.57-3.67-1.72c-0.85-1.15-1.28-2.63-1.28-4.45V320
		c0-1.8,0.43-3.28,1.28-4.44s2.07-1.73,3.66-1.73c1.32,0,2.38,0.42,3.16,1.27c0.78,0.85,1.16,1.99,1.14,3.42l-0.02,0.06h-2.89
		c0-0.68-0.12-1.22-0.35-1.64c-0.23-0.41-0.58-0.62-1.04-0.62c-0.66,0-1.12,0.34-1.38,1.01c-0.26,0.67-0.38,1.56-0.38,2.67v0.33
		c0,1.14,0.13,2.03,0.38,2.7C407.95,323.68,408.42,324.01,409.09,324.01z"/>
	<path class="st3" d="M418.31,311.09h-3.18v-2.42h3.18V311.09z M418.31,326.26h-3.18v-12.2h3.18V326.26z"/>
	<path class="st3" d="M420.2,320.04c0-1.83,0.44-3.33,1.31-4.48s2.11-1.73,3.69-1.73c1.58,0,2.81,0.58,3.7,1.73s1.33,2.65,1.33,4.48
		v0.26c0,1.83-0.44,3.33-1.33,4.47c-0.88,1.15-2.11,1.72-3.68,1.72c-1.59,0-2.83-0.57-3.71-1.71s-1.32-2.64-1.32-4.48V320.04z
		 M423.37,320.3c0,1.14,0.14,2.04,0.42,2.71c0.28,0.67,0.76,1,1.44,1c0.65,0,1.11-0.33,1.4-1c0.29-0.67,0.43-1.57,0.43-2.71v-0.26
		c0-1.12-0.14-2.02-0.43-2.7c-0.29-0.68-0.76-1.02-1.42-1.02c-0.66,0-1.13,0.34-1.42,1.03c-0.28,0.68-0.42,1.58-0.42,2.7V320.3z
		 M425.67,308.84h3.54l0.03,0.07l-2.84,2.93h-2.75L425.67,308.84z"/>
	<path class="st3" d="M434.87,314.05l0.13,1.7c0.35-0.61,0.77-1.08,1.27-1.42c0.5-0.34,1.06-0.51,1.67-0.51
		c1.04,0,1.85,0.4,2.44,1.21c0.59,0.81,0.89,2.08,0.89,3.81v7.41h-3.18v-7.41c0-0.92-0.11-1.57-0.33-1.95
		c-0.22-0.38-0.56-0.57-1.01-0.57c-0.35,0-0.67,0.08-0.95,0.25c-0.28,0.17-0.52,0.4-0.72,0.7v8.98h-3.18v-12.2H434.87z"/>
	<path class="st3" d="M338.16,347.39v6.59h-3.18v-16.41h4.92c1.63,0,2.92,0.42,3.85,1.27c0.94,0.85,1.4,2.03,1.4,3.55
		c0,0.85-0.2,1.59-0.59,2.21c-0.39,0.62-0.96,1.12-1.71,1.49c0.86,0.29,1.47,0.76,1.85,1.42s0.56,1.49,0.56,2.48v1.2
		c0,0.46,0.05,0.94,0.16,1.44c0.11,0.5,0.29,0.87,0.56,1.11v0.24h-3.29c-0.26-0.24-0.43-0.63-0.5-1.18
		c-0.07-0.54-0.11-1.09-0.11-1.63v-1.15c0-0.83-0.17-1.48-0.52-1.94s-0.84-0.69-1.49-0.69H338.16z M338.16,344.91h1.71
		c0.68,0,1.21-0.21,1.56-0.61c0.36-0.41,0.54-0.99,0.54-1.74c0-0.77-0.18-1.38-0.53-1.83s-0.87-0.68-1.55-0.68h-1.74V344.91z"/>
	<path class="st3" d="M352.19,354.21c-1.61,0-2.86-0.56-3.74-1.67c-0.89-1.11-1.33-2.54-1.33-4.3v-0.46c0-1.84,0.43-3.34,1.28-4.5
		c0.85-1.16,2.05-1.74,3.6-1.74c1.44,0,2.54,0.49,3.3,1.48c0.77,0.99,1.15,2.32,1.15,4.02v1.74h-6.16c0.05,0.9,0.26,1.62,0.61,2.15
		c0.36,0.53,0.91,0.8,1.65,0.8c0.63,0,1.16-0.07,1.58-0.22c0.42-0.15,0.88-0.38,1.37-0.69l0.82,1.99c-0.44,0.4-1.02,0.73-1.77,1
		C353.84,354.08,353.04,354.21,352.19,354.21z M352,344.04c-0.53,0-0.93,0.23-1.19,0.71c-0.26,0.47-0.42,1.11-0.49,1.93h3.02v-0.28
		c0-0.74-0.1-1.32-0.31-1.74C352.83,344.25,352.48,344.04,352,344.04z"/>
	<path class="st3" d="M361,341.77l0.13,1.7c0.35-0.61,0.77-1.08,1.27-1.42c0.5-0.34,1.06-0.51,1.67-0.51c1.04,0,1.85,0.4,2.44,1.21
		c0.59,0.81,0.89,2.08,0.89,3.81v7.41h-3.18v-7.41c0-0.92-0.11-1.57-0.33-1.95c-0.22-0.38-0.56-0.57-1.01-0.57
		c-0.35,0-0.67,0.08-0.95,0.25c-0.28,0.17-0.52,0.4-0.72,0.7v8.98h-3.18v-12.2H361z"/>
	<path class="st3" d="M373.18,338.74v3.03h1.66v2.27h-1.66v6.21c0,0.52,0.08,0.89,0.23,1.11s0.36,0.33,0.62,0.33
		c0.15,0,0.27-0.01,0.37-0.03c0.1-0.02,0.22-0.05,0.36-0.1l0.25,2.35c-0.3,0.11-0.59,0.18-0.86,0.23s-0.58,0.07-0.93,0.07
		c-1.04,0-1.83-0.32-2.39-0.95c-0.55-0.63-0.83-1.63-0.83-2.99v-6.24h-1.48v-2.27H370v-3.03H373.18z"/>
	<path class="st3" d="M382.72,353.98c-0.12-0.27-0.22-0.56-0.3-0.88c-0.08-0.32-0.14-0.64-0.17-0.97c-0.27,0.61-0.63,1.11-1.07,1.5
		c-0.44,0.39-0.98,0.59-1.62,0.59c-1.11,0-1.97-0.33-2.57-0.98s-0.9-1.54-0.9-2.68c0-1.19,0.39-2.11,1.18-2.77
		c0.79-0.66,1.96-0.99,3.52-0.99h1.39v-1.02c0-0.61-0.11-1.08-0.34-1.4c-0.23-0.33-0.56-0.49-1-0.49c-0.39,0-0.69,0.13-0.89,0.39
		s-0.3,0.64-0.3,1.13l-3.07-0.01l-0.02-0.07c-0.04-1.05,0.35-1.95,1.18-2.68s1.94-1.11,3.3-1.11c1.29,0,2.33,0.37,3.12,1.11
		c0.8,0.74,1.2,1.79,1.2,3.16v5.01c0,0.57,0.04,1.11,0.12,1.62c0.08,0.51,0.21,1.02,0.38,1.53H382.72z M380.38,351.86
		c0.42,0,0.8-0.13,1.13-0.39c0.33-0.26,0.56-0.57,0.68-0.94v-1.92h-1.39c-0.53,0-0.92,0.17-1.17,0.52
		c-0.25,0.35-0.37,0.78-0.37,1.31c0,0.42,0.1,0.76,0.3,1.03S380.04,351.86,380.38,351.86z"/>
	<path class="st3" d="M397.1,348.18c0,1.84-0.35,3.31-1.04,4.4s-1.71,1.64-3.05,1.64c-0.59,0-1.1-0.14-1.53-0.41
		s-0.81-0.67-1.12-1.19l-0.21,1.36h-2.72v-17.6h3.17v6.47c0.29-0.42,0.64-0.74,1.04-0.97s0.85-0.34,1.36-0.34
		c1.35,0,2.37,0.58,3.06,1.74c0.7,1.16,1.04,2.71,1.04,4.66V348.18z M393.92,347.94c0-1.23-0.12-2.18-0.37-2.87
		c-0.25-0.68-0.7-1.03-1.36-1.03c-0.37,0-0.69,0.09-0.95,0.28c-0.27,0.19-0.48,0.45-0.64,0.79v5.67c0.16,0.31,0.37,0.54,0.63,0.69
		c0.26,0.15,0.59,0.23,0.97,0.23c0.67,0,1.12-0.3,1.37-0.9c0.24-0.6,0.36-1.48,0.36-2.64V347.94z"/>
	<path class="st3" d="M402.12,338.81h-3.18v-2.42h3.18V338.81z M402.12,353.98h-3.18v-12.2h3.18V353.98z"/>
	<path class="st3" d="M407.72,353.98h-3.18v-17.6h3.18V353.98z"/>
	<path class="st3" d="M413.33,338.81h-3.18v-2.42h3.18V338.81z M413.33,353.98h-3.18v-12.2h3.18V353.98z"/>
	<path class="st3" d="M415.18,347.94c0-1.92,0.36-3.46,1.07-4.64c0.71-1.17,1.73-1.76,3.03-1.76c0.49,0,0.93,0.12,1.33,0.35
		s0.75,0.56,1.05,0.99v-6.51h3.18v17.6h-2.72l-0.24-1.38c-0.32,0.53-0.7,0.93-1.14,1.2c-0.44,0.27-0.93,0.41-1.49,0.41
		c-1.29,0-2.3-0.55-3.01-1.65c-0.71-1.1-1.07-2.56-1.07-4.38V347.94z M418.33,348.18c0,1.1,0.13,1.97,0.41,2.6
		c0.27,0.63,0.72,0.94,1.34,0.94c0.35,0,0.65-0.08,0.92-0.24c0.27-0.16,0.49-0.4,0.66-0.72v-5.61c-0.17-0.35-0.39-0.62-0.67-0.81
		c-0.27-0.2-0.57-0.29-0.9-0.29c-0.62,0-1.06,0.36-1.34,1.07c-0.28,0.71-0.42,1.65-0.42,2.82V348.18z"/>
	<path class="st3" d="M433.06,353.98c-0.12-0.27-0.22-0.56-0.3-0.88c-0.08-0.32-0.14-0.64-0.17-0.97c-0.27,0.61-0.63,1.11-1.07,1.5
		c-0.44,0.39-0.98,0.59-1.62,0.59c-1.11,0-1.97-0.33-2.57-0.98s-0.9-1.54-0.9-2.68c0-1.19,0.39-2.11,1.18-2.77
		c0.79-0.66,1.96-0.99,3.52-0.99h1.39v-1.02c0-0.61-0.11-1.08-0.34-1.4c-0.23-0.33-0.56-0.49-1-0.49c-0.39,0-0.69,0.13-0.89,0.39
		s-0.3,0.64-0.3,1.13l-3.07-0.01l-0.02-0.07c-0.04-1.05,0.35-1.95,1.18-2.68s1.94-1.11,3.3-1.11c1.29,0,2.33,0.37,3.12,1.11
		c0.8,0.74,1.2,1.79,1.2,3.16v5.01c0,0.57,0.04,1.11,0.12,1.62c0.08,0.51,0.21,1.02,0.38,1.53H433.06z M430.73,351.86
		c0.42,0,0.8-0.13,1.13-0.39c0.33-0.26,0.56-0.57,0.68-0.94v-1.92h-1.39c-0.53,0-0.92,0.17-1.17,0.52
		c-0.25,0.35-0.37,0.78-0.37,1.31c0,0.42,0.1,0.76,0.3,1.03S430.39,351.86,430.73,351.86z"/>
	<path class="st3" d="M437.34,347.94c0-1.92,0.36-3.46,1.07-4.64c0.71-1.17,1.73-1.76,3.03-1.76c0.49,0,0.93,0.12,1.33,0.35
		s0.75,0.56,1.05,0.99v-6.51H447v17.6h-2.72l-0.24-1.38c-0.32,0.53-0.7,0.93-1.14,1.2c-0.44,0.27-0.93,0.41-1.49,0.41
		c-1.29,0-2.3-0.55-3.01-1.65c-0.71-1.1-1.07-2.56-1.07-4.38V347.94z M440.5,348.18c0,1.1,0.13,1.97,0.41,2.6
		c0.27,0.63,0.72,0.94,1.34,0.94c0.35,0,0.65-0.08,0.92-0.24c0.27-0.16,0.49-0.4,0.66-0.72v-5.61c-0.17-0.35-0.39-0.62-0.67-0.81
		c-0.27-0.2-0.57-0.29-0.9-0.29c-0.62,0-1.06,0.36-1.34,1.07c-0.28,0.71-0.42,1.65-0.42,2.82V348.18z"/>
</g>
<g>
	<path class="st3" d="M227.09,255.3v8.55h-4.13v-21.31h6.39c2.12,0,3.79,0.55,5,1.66c1.22,1.1,1.82,2.64,1.82,4.61
		c0,1.1-0.26,2.06-0.77,2.87c-0.51,0.81-1.25,1.46-2.22,1.93c1.11,0.37,1.91,0.99,2.4,1.85s0.73,1.93,0.73,3.22v1.55
		c0,0.6,0.07,1.22,0.21,1.88s0.38,1.13,0.73,1.44v0.31h-4.28c-0.34-0.31-0.56-0.82-0.65-1.53s-0.14-1.41-0.14-2.12v-1.49
		c0-1.08-0.22-1.92-0.67-2.52s-1.09-0.89-1.93-0.89H227.09z M227.09,252.07h2.23c0.89,0,1.56-0.27,2.03-0.8
		c0.46-0.53,0.7-1.29,0.7-2.26c0-1-0.23-1.79-0.69-2.37s-1.13-0.88-2.01-0.88h-2.26V252.07z"/>
	<path class="st3" d="M248.92,258.31c0-0.85-0.22-1.52-0.65-2.01s-1.21-0.97-2.34-1.44c-2.19-0.77-3.83-1.65-4.94-2.62
		s-1.66-2.34-1.66-4.1c0-1.75,0.63-3.17,1.89-4.27s2.87-1.65,4.82-1.65c2.07,0,3.74,0.59,5,1.76s1.87,2.74,1.83,4.72l-0.03,0.09
		h-4.01c0-1.1-0.25-1.94-0.74-2.51s-1.2-0.86-2.12-0.86c-0.79,0-1.41,0.26-1.85,0.78s-0.66,1.17-0.66,1.96
		c0,0.72,0.25,1.32,0.75,1.79s1.35,0.98,2.56,1.54c2.06,0.68,3.62,1.55,4.68,2.59s1.59,2.45,1.59,4.22c0,1.83-0.62,3.26-1.86,4.31
		s-2.89,1.57-4.94,1.57c-2.02,0-3.75-0.56-5.19-1.69s-2.13-2.84-2.08-5.15l0.03-0.09h4.03c0,1.34,0.27,2.3,0.81,2.89
		c0.54,0.59,1.34,0.88,2.39,0.88c0.89,0,1.55-0.24,2-0.73C248.69,259.77,248.92,259.12,248.92,258.31z"/>
	<path class="st3" d="M269.7,257.23l0.03,0.09c0.04,2.29-0.54,4-1.75,5.13c-1.21,1.14-2.93,1.71-5.16,1.71
		c-2.29,0-4.12-0.68-5.46-2.03s-2.02-3.27-2.02-5.76v-6.33c0-2.48,0.65-4.4,1.96-5.77c1.3-1.37,3.06-2.05,5.28-2.05
		c2.33,0,4.13,0.57,5.38,1.7s1.86,2.85,1.82,5.14l-0.03,0.09h-4.01c0-1.37-0.24-2.32-0.72-2.87c-0.48-0.55-1.29-0.82-2.42-0.82
		c-1.04,0-1.81,0.37-2.33,1.12s-0.78,1.89-0.78,3.44v6.36c0,1.55,0.28,2.7,0.83,3.45s1.4,1.12,2.52,1.12c1.03,0,1.76-0.27,2.21-0.81
		s0.67-1.51,0.67-2.89H269.7z"/>
</g>
</svg>
