<?xml version="1.0" encoding="utf-8"?>
<!-- Generator: Adobe Illustrator 25.2.1, SVG Export Plug-In . SVG Version: 6.00 Build 0)  -->
<svg version="1.1" id="Capa_1" xmlns="http://www.w3.org/2000/svg" xmlns:xlink="http://www.w3.org/1999/xlink" x="0px" y="0px"
	 viewBox="0 0 500 500" style="enable-background:new 0 0 500 500;" xml:space="preserve">
<style type="text/css">
	.st0{fill:#FFFFFF;}
	.st1{fill:#2257A4;}
</style>
<rect x="-4" y="-4" class="st0" width="508" height="508"/>
<g>
	<path class="st1" d="M465.58,289.1c1.24-0.4,1.83-1.35,1.84-2.43c4.31-21.49,5.45-43.97,6.24-65.81
		c0.23-6.36,2.92-27.47-2.88-35.84c-0.2-1.03-0.83-1.99-2.09-2.43c-0.37-0.13-0.75-0.22-1.11-0.34c-0.33-0.15-0.64-0.35-1.01-0.45
		c-0.22-0.06-0.4-0.02-0.6-0.04c-12.44-3.77-25.31-3.99-38.28-4.68c-22.25-1.17-43.48-3.05-65.85-2.67
		c-0.45,0.01-0.82,0.12-1.17,0.26c-7.28-1.62-15.51,5.84-17.21,13.01c-7.64,0.42-14.64,1.12-17.61,1.07
		c-15.89-0.25-33.32-12.93-49.28-16c-12.09-2.32-26.1,7.55-35.99,12.84c-1.76,0.95-3.38,1.74-4.94,2.48
		c-0.14-0.06-0.24-0.16-0.4-0.2c-15.27-4.1-29.05-3.22-44.18,1.04c-18.41,5.19-34.28,13.21-53.63,7.53
		c-0.72-5.27-1.53-10.53-2.91-15.65c-0.25-0.91-0.77-1.5-1.41-1.85c0,0-0.01-0.01-0.01-0.01c-0.16-0.09-0.33-0.15-0.51-0.21
		c-0.58-0.25-1.23-0.37-2-0.17c-33.3,8.69-68.44,1.32-101.9-2.79c-1.71-0.2-3.25,1.62-3.2,3.2c0.59,22.39,5.24,44.33,6.29,66.68
		c1.05,22.45-0.92,45.83-2.5,68.24c-0.12,1.68,1.55,3.29,3.19,3.2c28.83-1.56,57.61-0.92,86.45,0c1.61,0.05,2.57-0.9,2.92-2.08
		c0.04-0.11,0.12-0.16,0.16-0.28c4.4-13.49,8.75-26.99,12.91-40.56c23.6-0.61,40.47,7.29,60.39,20.43
		c16.64,10.98,33.07,20.28,52.1,26.37c7.51,2.41,21.25,10.41,29.42,4.45c4.54-3.31,4.25-2.78,6.9-7.7c1.27-2.36,1.76-3.87,1.87-4.82
		c0.3,0.12,0.57,0.25,1.06,0.34c5.14,0.86,13.96-1.37,16.87-6.36c5.13-8.76,12.4-4.77,18.6-11.68c5.42-6.07,3.99-9.24,12.57-11.28
		c8.14-1.93,11.21-9.7,12.36-16.97c0.83,0.12,1.67,0.22,2.53,0.28c0.18,0.13,0.4,0.21,0.6,0.3c-0.21,11.08-1.48,22.4-0.63,33.41
		c0.33,4.33,2.52,11.5,8.1,10.75c0.24,0.14,0.45,0.29,0.76,0.37c10.07,2.57,28.21-6.82,38.12-9.46c22.47-6,45.62-9.38,68.51-13.3
		C465.25,289.24,465.41,289.18,465.58,289.1z M129.27,270.88c-4.07,13.3-8.33,26.54-12.64,39.77c-0.95-0.01-2.1-0.01-3.41-0.02
		c0.83-1.31,1.5-2.73,2-3.68c2.07-3.94,3.87-8.21,5.1-12.49c0.27-0.93-1.19-1.34-1.46-0.4c-0.96,3.37-2.35,6.63-3.81,9.82
		c-0.61,1.33-1.92,4.66-3.53,6.75c-1.22-0.01-2.53-0.01-3.96-0.02c3.06-5.04,6.23-10,7.84-15.77c0.26-0.93-1.2-1.34-1.46-0.4
		c-1.65,5.93-4.98,10.98-8.12,16.17c-0.95-0.01-1.94-0.01-2.96-0.01c3.72-4.58,6.01-10.19,8.31-15.56c0.38-0.89-0.93-1.67-1.31-0.77
		c-2.41,5.65-4.75,11.68-8.91,16.32c-0.82-0.01-1.66-0.01-2.52-0.02c2.88-4.25,4.79-9.02,7.05-13.64c0.43-0.88-0.88-1.64-1.31-0.77
		c-2.39,4.88-4.33,10.01-7.55,14.4c-1.2-0.01-2.42-0.02-3.66-0.03c2.8-3.72,5.11-7.72,6.54-12.28c0.29-0.93-1.17-1.32-1.46-0.4
		c-1.48,4.73-3.92,8.85-6.92,12.66c-1.43-0.01-2.88-0.03-4.34-0.05c3.06-3.67,5.57-7.77,7.42-12.21c0.38-0.9-1.09-1.29-1.46-0.4
		c-1.92,4.62-4.63,8.86-7.94,12.59c-1.17-0.02-2.34-0.04-3.52-0.05c3.02-3.31,5.88-7.05,6.86-11c0.24-0.95-1.22-1.35-1.46-0.4
		c-1.03,4.13-4.22,8.01-7.41,11.37c-0.95-0.02-1.89-0.04-2.84-0.05c2.13-2.68,3.71-6.13,4.51-9.02c0.26-0.93-1.2-1.34-1.46-0.4
		c-0.83,2.97-2.58,6.81-4.97,9.38c-1.18-0.02-2.36-0.05-3.53-0.08c1.99-3.29,3.64-6.8,5.34-10.22c0.41-0.87-0.87-1.64-1.31-0.77
		c-0.11,0.22-0.26,0.42-0.37,0.65c-0.38-0.34-1.07-0.35-1.22,0.29c-0.62,2.57-1.82,4.84-3.23,7c-0.69,0.99-1.37,1.99-2.06,2.97
		c-1.74-0.05-3.46-0.11-5.14-0.16c2.98-2.44,5.15-6.48,6.9-9.59c0.48-0.85-0.83-1.62-1.31-0.77c-1.95,3.47-4.33,8.32-7.98,10.27
		c-2.61-0.11-5.11-0.23-7.44-0.37c1.45-2.05,2.79-4.17,3.86-6.47c0.41-0.89-0.9-1.66-1.31-0.77c-1.19,2.55-2.68,4.88-4.34,7.13
		c-1.73-0.12-3.35-0.25-4.85-0.38c1.99-3.77,3.39-7.94,4.89-11.84c0.35-0.91-1.11-1.3-1.46-0.4c-1.54,4.02-2.98,8.27-5.08,12.09
		c-0.77-0.08-1.49-0.17-2.17-0.25c1.47-4.45,3.15-8.85,4.55-13.32c0.29-0.93-1.17-1.32-1.46-0.4c-1.42,4.54-3.13,8.99-4.62,13.51
		c-0.67-0.11-1.3-0.22-1.84-0.33c1.03-5.19,2.52-10.28,3.76-15.42c0.23-0.95-1.23-1.35-1.46-0.4c-1.24,5.16-2.72,10.26-3.75,15.45
		c-1.11-0.34-1.71-0.73-1.69-1.15c1.76-24.92,3.16-50.76,0.98-75.64c-1.08-12.35-3.25-24.6-4.56-36.92
		c-0.73-6.9,1.57-9.74,5.33-10.61c-0.38,4.31-0.83,8.62-0.88,12.95c-0.01,0.98,1.5,0.98,1.51,0c0.05-4.42,0.51-8.81,0.9-13.2
		c2.48-0.22,5.42,0.17,8.51,0.77c-0.16,1.13-0.35,2.27-0.38,3.2c-0.15,4.19-0.89,8.35-1.8,12.44c-0.21,0.96,1.25,1.36,1.46,0.4
		c0.76-3.41,1.33-6.84,1.68-10.31c0.18-1.8,0.09-3.67,0.33-5.46c1.5,0.31,3.02,0.65,4.52,0.98c-0.55,4.85-1.76,9.6-2.7,14.4
		c-0.19,0.96,1.27,1.36,1.46,0.4c0.94-4.82,2.16-9.6,2.73-14.48c1.55,0.32,3.07,0.6,4.51,0.79c0.07,2.22-0.68,5.04-0.91,6.32
		c-0.46,2.52-1.08,5.01-1.38,7.56c-0.12,0.97,1.4,0.96,1.51,0c0.42-3.55,1.44-7,1.88-10.55c0.11-0.86,0.27-2.01,0.3-3.15
		c0.61,0.08,1.24,0.14,1.85,0.21c-0.19,4.5-0.84,8.97-2.11,13.29c-0.28,0.95,1.19,1.34,1.46,0.4c1.29-4.38,1.95-8.95,2.15-13.51
		c0.96,0.11,1.92,0.22,2.88,0.33c0.26,2.1-0.4,4.61-0.78,6.38c-0.56,2.55-1.35,5.1-2.3,7.53c-0.36,0.91,1.11,1.3,1.46,0.4
		c1.25-3.2,2.18-6.55,2.77-9.95c0.22-1.28,0.42-2.77,0.34-4.2c0.9,0.09,1.8,0.17,2.7,0.25c0.98,4.88-1.64,11.01-3.1,15.38
		c-0.31,0.93,1.15,1.32,1.46,0.4c1.48-4.43,4.06-10.57,3.25-15.63c1.04,0.1,2.09,0.21,3.13,0.3c-0.22,4.54-1.46,8.92-2.16,13.42
		c-0.15,0.96,1.31,1.37,1.46,0.4c0.72-4.59,1.98-9.05,2.21-13.68c1.24,0.1,2.48,0.16,3.72,0.25c-0.14,2.29-0.88,4.82-1.28,6.58
		c-0.69,3.05-1.56,6.07-2.33,9.09c-0.24,0.95,1.22,1.35,1.46,0.4c1.02-3.99,2.14-7.94,2.94-11.98c0.24-1.2,0.54-2.61,0.66-4.01
		c1.08,0.07,2.17,0.15,3.25,0.21c0.2,3.39-2.55,11.72-3.01,13.11c-0.3,0.93,1.16,1.32,1.46,0.4c1.17-3.54,2.15-7.18,2.7-10.87
		c0.1-0.67,0.22-1.63,0.22-2.57c1.31,0.06,2.63,0.07,3.94,0.1c-0.71,5.11-1.99,10.16-3.02,15.21c-0.19,0.96,1.27,1.36,1.46,0.4
		c1.05-5.17,2.34-10.33,3.07-15.57c1.29,0.02,2.57,0.07,3.85,0.07c0.44,5.52-0.96,11.36-1.95,16.62c-0.18,0.96,1.28,1.36,1.46,0.4
		c1.01-5.39,2.49-11.39,2.08-17.05c0.8-0.01,1.61-0.04,2.41-0.05c2.25,4.71,0.06,12.11-1.41,16.71c-0.3,0.93,1.17,1.34,1.46,0.4
		c1.52-4.76,3.54-12.05,1.57-17.14c1.68-0.05,3.36-0.13,5.04-0.24c-0.17,2.86-0.74,7.13-0.81,7.57c-0.44,2.77-1.07,5.51-1.58,8.27
		c-0.17,0.96,1.28,1.36,1.46,0.4c1-5.46,2.22-10.83,2.08-16.33c1.05-0.08,2.11-0.15,3.15-0.25c-0.26,5.74-1.39,11.41-1.81,17.14
		c-0.07,0.98,1.44,0.97,1.51,0c0.42-5.77,1.56-11.48,1.82-17.25c0.95-0.09,1.89-0.22,2.83-0.34c0.4,6.31-0.89,12.46-1.62,18.73
		c-0.11,0.97,1.4,0.96,1.51,0c0.74-6.36,2.06-12.56,1.61-18.95c1.21-0.16,2.42-0.33,3.64-0.52c0.03,0.02,0.02,0.06,0.05,0.08
		c1.85,1.24,0,8.75-0.25,10.32c-0.57,3.61-1.37,7.17-1.99,10.76c-0.17,0.96,1.29,1.36,1.46,0.4c0.81-4.64,1.87-9.24,2.45-13.92
		c0.24-1.93,1.01-5.75-0.22-7.86c0.91-0.16,1.82-0.38,2.74-0.57c0.77,7.49-1.52,15.04-3.02,22.33c-0.2,0.96,1.26,1.36,1.46,0.4
		c1.56-7.54,3.85-15.3,3.04-23.05c0.56-0.12,1.11-0.24,1.67-0.37c0.08,3.03-0.71,10.08-0.78,10.54c-0.88,5.96-2.2,11.9-3.49,17.78
		c-0.21,0.96,1.25,1.36,1.46,0.4c0.22-1.01,3.45-14.93,4.06-23.96c0.56,3.1,1.01,6.23,1.43,9.37c-0.67,3.57-1.47,6.91-1.63,7.82
		c-1.05,5.93-2.12,11.95-3.8,17.73c-0.27,0.95,1.19,1.34,1.46,0.4c2.07-7.13,3.34-14.56,4.52-21.91c0.24,1.82,0.51,3.63,0.79,5.44
		c0.66,20.41,0.16,40.92-3.56,61.04C129.22,270.39,129.27,270.63,129.27,270.88z M354.18,182.88c3.41-3.21,6.63-2.11,8.81,1.52
		c0.72,1.21,1.26,2.53,1.76,3.86c-3.88-0.78-8.99-0.97-14.31-0.86C351.39,185.65,352.91,184.06,354.18,182.88z M146.61,267.32
		c-0.47,0.04-0.92,0.08-1.37,0.12c0.75-2.13,1.51-4.26,2.21-6.4C147.16,263.14,146.89,265.23,146.61,267.32z M148.57,253.08
		c-0.42-0.08-0.92,0.12-0.97,0.67c-0.48,4.86-2.44,9.31-4.01,13.87c-0.66,0.07-1.29,0.13-1.87,0.16c1.41-5.25,3-10.45,4.35-15.72
		c0.24-0.95-1.22-1.35-1.46-0.4c-1.38,5.39-3.01,10.7-4.44,16.07c-0.56-0.06-1.06-0.19-1.48-0.41c0.88-5.61,2.56-10.99,4.36-16.39
		c0.31-0.92-1.15-1.32-1.46-0.4c-1.68,5.04-3.24,10.09-4.17,15.3c-0.42-1.04-0.52-2.58-0.18-4.91c2.75-18.96,2.58-38.36,1.76-57.49
		c4.56,1.04,9.05,1.47,13.49,1.38C152.95,221.06,150.84,237.05,148.57,253.08z M325.16,278.5c-6.59-6.07-13.7-11.56-20.34-17.58
		c-3.04-2.77-7.58,1.74-4.51,4.52c6.52,5.94,13.52,11.37,20.03,17.32c-3.71,8.7-9.16,12.23-16.41,10.51
		c-5.29-5.52-10.68-10.9-16.54-15.82c-3.13-2.64-7.68,1.86-4.51,4.52c5.69,4.8,10.95,10.02,16.1,15.38
		c-2.87,4.22-0.38,11.35-15.46,8.9c-2.22-2.82-5.38-5.21-7.92-7.52c-3.73-3.37-7.48-6.86-11.63-9.71c-3.41-2.35-6.61,3.19-3.23,5.52
		c3.69,2.53,7.01,5.72,10.32,8.7c1.74,1.57,3.47,3.17,5.18,4.79c0.63,0.61,1.27,1.23,1.88,1.86c0.05,0.05,0.17,0.19,0.3,0.34
		c-1.81,21.7-55.79-6.24-61.18-9.17c-15.92-8.66-29.71-21.37-46.51-28.45c-6.13-2.58-11.45-4.04-17.75-4.97
		c2.74-21.09,6.58-41.9,5.88-63.25c22.6-2.55,44.23-15,67.97-11.7c-3.71,2.43-6.6,5.59-8.96,11.61
		c-6.23,15.86-5.52,35.23-8.86,51.79c-0.27,1.32,0.25,2.35,1.05,3.06c0.35,0.67,0.94,1.25,1.86,1.54
		c25.56,8.05,28.63-21.63,36.32-38.7c12.36,0.58,22.84,6.87,34.92,2.7c13.49,15.81,37.67,27.63,54.8,39.01
		c0.72,0.47,1.49,0.79,2.25,1.15C336.01,269.79,339.16,278.22,325.16,278.5z M348.65,260.67c-2.77-0.36-5.33-1.09-7.47-2.5
		c-16.54-10.77-40.9-23.1-53.73-38.24c-0.65-1.64-2.53-2.95-4.61-1.96c-10.93,5.25-22.06-1.11-33.32-2.22
		c-1.21-1.74-4.04-2.38-5.35,0.02c-6.91,12.67-8.7,43.34-28.5,39.18c2.16-11.54,3.38-23.22,5.13-34.82
		c2.35-15.49,9.72-22.07,23.03-29.02c17.4-9.09,29.49-13.92,49.1-7.28c9.53,3.23,21.38,11.14,31.55,11.29
		c6.55,0.1,13.09,0.21,19.64,0.31C353.26,215.14,351.9,239.51,348.65,260.67z M351.11,195.54c5.24,0.08,10.48,0.16,15.72,0.24
		c0.57,2.79,1.05,5.59,1.67,8.21c0.01,0.02,0.02,0.03,0.02,0.05c1.09,13.94,1.55,41.91,1.76,55.27c-4.71,0.47-10.07,1.34-15.24,1.55
		C358.23,239.47,359.33,215.79,351.11,195.54z M361.34,302.54c-6.57,7.62-5.61-6.37-5.46-10.15c0.35-8.42,0.7-16.81,0.76-25.23
		c0.62-0.05,1.24-0.08,1.85-0.14c0.95,1.99,0.56,4.63,0.37,6.75c-0.23,2.63-0.69,5.22-1.2,7.79c-0.19,0.96,1.27,1.36,1.45,0.4
		c0.87-4.39,2.59-10.64,0.9-15.09c0.47-0.05,0.93-0.11,1.4-0.16c0.04,3.96,0.26,7.89-0.35,11.81c-0.15,0.96,1.3,1.37,1.45,0.4
		c0.65-4.12,0.45-8.24,0.41-12.39c0.5-0.06,0.99-0.11,1.49-0.17c-0.07,4.13-0.33,8.25-0.35,12.36c-0.01,0.98,1.51,0.98,1.51,0
		c0.03-4.18,0.3-8.35,0.36-12.55c0.42-0.05,0.85-0.1,1.27-0.15c0.51,3.6,0.3,7.2,0.27,10.81c-0.01,0.98,1.51,0.98,1.51,0
		c0.03-3.68,0.21-7.33-0.3-10.98c0.49-0.05,0.95-0.08,1.43-0.13c0,2.2,0,4.41,0,6.6C369.56,283.39,367.71,295.14,361.34,302.54z
		 M462.31,279.1c-0.69,4.73,0.85,3.77-2.05,3.44c-1.48-0.16-2.4,0.58-2.8,1.6c-16.03,2.74-32.05,5.46-47.97,8.82
		c-9.54,2.01-18.93,4.59-28.32,7.17c-2.65,0.73-8.04,3.08-12.93,4.59c7.07-9.46,8.31-25.92,8.51-38.17c0-0.08,0.04-0.15,0.04-0.24
		c-0.01-0.34-0.01-0.69-0.02-1.03c0.03-2.68,0.02-5.15,0.02-7.23c0-0.39-0.11-0.71-0.21-1.03c-0.27-12.21-0.51-24.42-1.05-36.62
		c-0.22-4.98-0.18-10.92-0.88-16.6c0.11-0.45,0.13-0.95,0-1.49c-1.46-6.27-2.34-15.42-6.26-21.61c1.6-0.03,3.21-0.06,4.79-0.09
		c1.82,3.18,2.83,6.72,4.16,10.15c0.34,0.9,1.81,0.51,1.45-0.4c-1.27-3.28-2.23-6.68-3.86-9.78c1.35-0.02,2.69-0.01,4.04-0.02
		c1.64,3.27,2.87,6.72,4.04,10.21c0.31,0.92,1.77,0.53,1.45-0.4c-1.12-3.35-2.28-6.66-3.81-9.82c0.88-0.01,1.76-0.01,2.64-0.02
		c1.34,3.52,2.56,7.08,4.33,10.43c0.46,0.85,1.77,0.09,1.31-0.77c-1.64-3.1-2.79-6.4-4.04-9.67c1.06,0,2.12-0.02,3.18-0.02
		c2.22,2.61,3.21,6.77,4.46,9.7c0.39,0.89,1.69,0.12,1.31-0.77c-1.16-2.7-2.09-6.19-3.81-8.87c0.56,0.01,1.12,0.04,1.67,0.05
		c-0.03,0.15-0.04,0.33,0.07,0.5c1.91,3.15,3.43,6.48,4.92,9.84c0.4,0.89,1.7,0.12,1.31-0.77c-1.45-3.25-2.93-6.47-4.75-9.53
		c1.38,0.04,2.77,0.07,4.15,0.13c1.43,3.2,2.29,6.65,3.38,9.98c0.3,0.92,1.76,0.53,1.45-0.4c-1.03-3.19-1.9-6.44-3.19-9.53
		c0.63,0.03,1.25,0.02,1.88,0.06c1.58,3.12,3.16,6.23,4.39,9.5c0.34,0.91,1.8,0.52,1.45-0.4c-1.16-3.08-2.61-6.02-4.08-8.95
		c1.42,0.09,2.85,0.27,4.28,0.39c1.51,3.29,2.89,6.64,4.48,9.91c0.43,0.88,1.74,0.11,1.31-0.77c-1.44-2.95-2.71-5.99-4.06-8.99
		c1.08,0.1,2.16,0.17,3.24,0.3c1.8,2.96,2.97,6.42,3.98,9.65c0.28,0.93,1.75,0.53,1.45-0.4c-0.93-3.03-2.02-6.23-3.58-9.08
		c0.18,0.02,0.35,0.02,0.53,0.05c1.48,0.19,2.98,0.32,4.47,0.47c1.54,3.19,2.26,6.85,3.55,10.11c0.36,0.9,1.82,0.51,1.45-0.4
		c-1.23-3.1-2.02-6.46-3.34-9.53c1.03,0.09,2.08,0.16,3.12,0.24c1.63,3.36,2.66,7,4.51,10.27c0.48,0.84,1.79,0.08,1.31-0.77
		c-1.69-2.97-2.66-6.27-4.04-9.37c1.3,0.09,2.6,0.18,3.9,0.26c1.78,3.38,2.77,7.27,4.51,10.64c0.45,0.86,1.76,0.09,1.31-0.77
		c-1.62-3.1-2.63-6.59-4.15-9.77c1.55,0.09,3.1,0.19,4.65,0.28c0.17,0.45,0.32,0.9,0.54,1.37c1.73,3.54,3.03,7.29,4.38,10.98
		c0.33,0.91,1.79,0.52,1.45-0.4c-1.39-3.83-2.8-7.64-4.53-11.33c-0.07-0.15-0.12-0.34-0.18-0.5c1.24,0.08,2.47,0.15,3.7,0.24
		c0.63,1.54,1.01,3.56,1.39,4.66c0.85,2.52,1.63,5.11,2.78,7.52c0.43,0.88,1.73,0.11,1.31-0.77c-1.29-2.7-2.12-5.64-3.08-8.47
		c-0.25-0.74-0.5-1.79-0.82-2.8c1.48,0.12,2.95,0.24,4.42,0.4c0.14,0.28,0.28,0.57,0.42,0.85c0.71,1.51,1.35,3.05,2,4.58
		c1.15,2.71,2.18,5.56,3.68,8.1c0.5,0.83,1.81,0.07,1.31-0.77c-2.06-3.45-3.37-7.42-4.98-11.08c-0.1-0.24-0.31-0.8-0.57-1.45
		c1.54,0.18,3.07,0.38,4.61,0.63c0.01,0.07-0.02,0.12,0.01,0.18c2.21,4.23,3.39,8.88,5.3,13.25c0.39,0.89,1.7,0.12,1.31-0.77
		c-1.78-4.06-2.96-8.35-4.88-12.35c2.9,0.51,5.77,1.21,8.62,2.05c0.44,1.48,0.68,3.12,0.93,4.21c0.64,2.85,1.1,5.75,1.9,8.56
		c0.26,0.95,1.73,0.54,1.45-0.4c-0.86-3.05-1.37-6.21-2.07-9.31c-0.16-0.7-0.33-1.56-0.53-2.45c5.53,4.5,1.19,44.88,0.89,49.83
		c-0.6,9.7-1.53,19.37-2.58,29.02C463.38,271.23,462.87,275.16,462.31,279.1z"/>
	<path class="st1" d="M386.27,274.94c-1.26,0.7-1.65,1.85-1.51,2.95c-1.99,2.92-2.57,6.67,0.42,9.22c3.18,2.73,7.47,3.22,10.29-0.37
		c2.2-2.79,3.18-6.98,1.61-10.3C394.96,271.95,389.81,272.95,386.27,274.94z M391.21,281.41c-0.94,3.42-2.43-0.3,0.34-1.38
		C391.5,280.34,391.38,280.79,391.21,281.41z"/>
	<path class="st1" d="M403.28,274.51c-5.44,1.97-6.28,10.09-1.57,13.94c3.55,2.9,9.84,3.35,11.97-1.45c1.75-3.96,0.57-8.6-1.99-11.9
		C409.23,271.96,405.9,272.6,403.28,274.51z M404.92,281.25c0.42-0.18,0.81-0.47,1.15-0.86c0.49-0.05,0.91-0.18,1.26-0.39
		c0.48,0.76,0.7,1.88,0.76,2.68c0.07,1.03-0.62,1.7,0.09,1.61C406.58,284.5,404.91,282.43,404.92,281.25z"/>
	<path class="st1" d="M422.57,274.03c-0.87-1.04-2.25-1.52-3.68-0.43c-3.61,2.76-5.12,7.5-2.13,11.38
		c2.58,3.36,8.39,4.34,11.57,1.18C433.74,280.78,428.95,272.36,422.57,274.03z M424.23,281.08c-0.2,0.83-1.32,0.73-2.08,0.21
		c0.29-0.1,0.57-0.18,0.87-0.39C424.24,280.03,424.65,279.23,424.23,281.08z"/>
	<path class="st1" d="M459.16,188.29c1.41,3.25,2.53,6.58,3.34,10.03c0.22,0.96,1.68,0.56,1.45-0.4c-0.83-3.58-2.02-7.02-3.48-10.4
		C460.08,186.62,458.78,187.4,459.16,188.29z"/>
	<path class="st1" d="M42.41,184.29c-0.77,4.6-1.5,9.19-1.92,13.83c-0.09,0.97,1.43,0.97,1.51,0c0.41-4.51,1.12-8.96,1.87-13.42
		C44.03,183.75,42.57,183.34,42.41,184.29z"/>
	<path class="st1" d="M62.93,298.79c-1.92,3.07-3.78,6.16-5.3,9.46c-0.41,0.88,0.9,1.64,1.31,0.77c1.52-3.3,3.38-6.39,5.3-9.46
		C64.75,298.72,63.44,297.96,62.93,298.79z"/>
</g>
</svg>
