<?xml version="1.0" encoding="utf-8"?>
<!-- Generator: Adobe Illustrator 25.2.1, SVG Export Plug-In . SVG Version: 6.00 Build 0)  -->
<svg version="1.1" id="Capa_1" xmlns="http://www.w3.org/2000/svg" xmlns:xlink="http://www.w3.org/1999/xlink" x="0px" y="0px"
	 viewBox="0 0 500 500" style="enable-background:new 0 0 500 500;" xml:space="preserve">
<style type="text/css">
	.st0{fill:#7EA532;}
</style>
<path class="st0" d="M233.11,32.95c-79.98,19.3-138.22,81.7-156.14,156.58c-1.76,7.99-3.07,16.04-3.83,24.08
	c-0.1,1.1-0.42,2.15-0.84,3.16c-2.42,23.29-1.02,47.38,4.79,71.44c6.7,27.77,18.62,52.9,34.43,74.66
	c5.83,2.76,12.01,5.09,18.49,6.96c-20.58-23.9-35.37-52.48-42.98-84.02c-12.61-52.28-4.12-106.34,23.93-152.22
	c0.66-1.08,1.37-2.11,2.05-3.18c-0.18,2.29-0.44,4.56-1.22,6.68c-1.86,5.04-6.3,7.95-8.36,12.75c-1.88,4.38-2.76,10.52-2.79,14.93
	c-0.03,4.78,1.97,10.08,1.47,14.96c-0.64,6.19-3.47,10.47-1.2,16.92c8.52,0.44,1.66-12.86,8.19-15.2c3.4,4.76,4.37,14.9,5.15,20.8
	c1.08,8.1,0.01,10.44,6.37,16.08c5.04,4.48,7.15,7.78,14.58,6.88c6.82-0.82,10.3,1.52,14.6,7.24c5.37-0.15,8.68-0.05,10.71,5.46
	c2.51,0.7,7.65,3.68,10.14,3.74c3.61,0.07,8.11-6.13,12.21-3.18c6.85,4.93-1.35,24.1-2.16,30.23c-1.19,8.97,1.25,21.14,10.45,25.16
	c4.72,2.06,9.32,2.49,11.94,7.66c2.43,4.79,2.51,9.24,5.92,13.49c5.31,6.64,13.94,7.18,21.04,11.53c4.64,2.84,7.42,6.71,9.36,11.2
	l62.75-0.87c0.02-1.98,0.16-3.93,0.77-5.78c1.86-5.61,6.15-6.66,9.63-10.86c4.5-5.45,1.19-9.25,0.82-15.14
	c-0.6-9.86,1.16-21.32,5.31-30.28c5.21-11.29,6.49-20.12-4.83-27.02c-5.59-3.41-7.65-1.64-14.02-1.77
	c-4.85-0.09-9.76-2.44-14.54-1.89c-2.86,0.33-4.27,1.73-6.97,1.68c-2.51-0.05-2.58-1.56-5.07-0.93c-3.71,0.94-7.05,9.96-11.39,5.76
	c-2.42-2.34,1.06-11.26-0.08-14.92c-1.39-4.47-4.88-11.48-9.93-12.89c-1.91-0.53-5.69,0.24-7.95-0.06c-2.66-0.35-5.4-1.28-7.91-2.15
	c-3.28-1.14-9.53-2.99-11.58-5.94c-3.52,0.7-6.35-0.65-9.88,0.26c-3.17,0.81-4.93,2.79-8.46,3.23c-3.09,0.39-6.92-1.21-10.05,0.03
	c-2.1,0.82-4.63,4.41-6.25,5.92c-4.28,3.99-9.06,7.29-14.29,9.63c-8.1,3.64-10.4,0.76-11.8-7.21l-1.88-2.23
	c1.04-9.52-4.79-8.76-11.55-9.38c-2.37-6.03,4.23-12.34-0.63-18.41c-6.57,1.23-9.24,21.21-16.64,14.62
	c-4.88-4.34-2.9-20.26-0.78-25.46c2.14-5.23,11.88-16.09,17.22-18.11c4.15-1.57,8.36-0.59,10.91,2.77c2.78,3.66,1.37,8.08,3.01,12.6
	c5.17-2.59,2.07-9.21,0.93-12.88c-1.9-6.14,1.48-6.46,3.57-11.73c1.91-4.79,1.23-9.57,3.89-14.4c2.07-3.77,4.59-7.81,6.99-11.4
	c2.74-4.09,6.78-4.76,9.82-8.02c4.62-4.96-4.28-9.95,3.94-11.4c2.92-0.51,1.93,1.62,5.53-0.16c1.53-0.76,4.16-2.98,5.68-4.07
	c6.97-5,1.29-4.52-3.24-7.75c-5.76-4.11,0.84-4.74,5.3-6.65c3.27-1.39,2.29-2.33,5.77-1.05c3.07,1.13,2.09,3.86,5.89,2.8
	c7.26-2.02,0.42-8.12-1.8-10.16c-3.79-3.49-5.21-6.22-11.14-4.96c0.11-2.01-0.42-4.5-1.68-6.1c-4.8,1.85-6.53-1.55-10.62-2.06
	c-6.9-0.87-4.64,4.06-6.37,8.22c-1.79,4.28-7.03,4.88-7.91,9.79c-0.92,5.11,1.87,8.18-5.86,8.71c0.34-3.03-0.87-6.51-1.77-9.43
	c-2.22,0.25-4.33,0.18-6.49,0.01c-1.78-7.43,6.29-10.05,11.72-12.1c6.07-2.3,6.59-9.17,11.92-11.59c4.98-2.26,10.76,5.29,16.02-1.16
	c3-3.69,0.91-4.91-1.09-7.28c-0.53-0.63-2.78-1.81-3.43-2.36c-0.08-0.07-0.11-0.13-0.18-0.19c4.76-2.17,9.63-4.13,14.57-5.94
	c1.62,2.54,4.51,5.41,6.11,7.06c1.17,1.21,2.97,1.78,4,3.17c1.18,1.58-0.07,4.2,2.45,4.86c3.89,1.01,11.02-13.39,12.96-15.92
	c2.46-3.2,4.04-5.02,2.74-7.23c16.23-3.41,32.58-4.79,48.78-4.2c1.57,1.22,3.19,2.48,4.84,3.9c3.57,3.07,6.06,6,11.27,6.48
	c3.02,0.28,11.88-2.04,9.71,5.22c-2,6.69-7.64-0.09-9.81-1.52c-3-1.98-10.75-3.12-9.11,2.71c2.44,8.67,21.81,2.5,19.9,13.13
	c2.7,0.82,7.92,2.01,7.98,5.64c0.08,4.48-6.11,3.11-4.69,8.51c2.01,7.65,11.94,11.97,19.07,7.31c7.6-4.96-1.44-14.99,7.8-18.48
	c3.65-1.37,6.12-0.81,10.13,1.04c3.26,1.51,6.22,6.01,9.9,4.72c-0.17-2.44-2.35-3.69-3.17-5.77c3.1,0.02,9.86,2.26,12.16,4.4
	c3.47,3.24,4.54,8.86,9.55,2.39c-1.12-0.54-1.99-2.13-2.64-2.62c7.94-1.89,14.27,0.04,19.35,6.11c11.32,13.55-10.32,5.85-9.31,14.09
	c-4.96-0.35-7.9-3.57-12.43-4.81c-2.15-0.6-5.52,0.82-7.23,0.1c-2.35-0.98-2.5-3.77-4.61-4.79c-8.28-4-21.84,8.96-27.31,14.15
	c-1.49,1.41-3.29,1.96-4.02,4.11c-1.25,3.68,1.79,3.82,1.87,6.96c0.13,4.47-4.96,7.78-5.81,11.6c-2.06,9.17,8.97,18.92,10.06,28.29
	c0.61,5.2-3.52,11.98-0.41,15.7c1.34,1.6,4.85,2.39,6.57,4.25c1.56,1.68,2.65,4.13,4.57,5.8c6.24,5.43,14.7,11.09,21.64,15.89
	c3.94,2.73,8.4,2.68,12.85,0.59c3.67-1.73,9.23-4.44,12.39-7.01c4.23-3.44,4.09-6.83,9.64-5.86c4.42,0.77,9.17,5.02,12.82-0.33
	c4.76,2.83,2.07,10.42,2.22,14.81c0.2,5.64,3.45,9.8,7.85,13.57c5.29,4.53,6.45,5.26,7.41,12.78c0.74,5.86,0.56,11.43,0.69,17.38
	c0.13,5.69-2.32,10.63-0.76,16.31c1.45,5.25,4.76,8.95,5.43,14.79c0.59,5.15,1.73,11.17,1.6,16.38c-0.13,5.33-2.6,10.62-2.85,16.12
	c-0.24,5.22,1.69,11.44,6.07,14.63c4.56,3.32,7.51,0.08,10.92-4.09c6.71-8.22,7.9-19.72,11.33-29.44c3.5-9.94,7.23-19.14,8.79-28.95
	c0.33-2.08,0.84-4.18,1.36-6.26c-1.41,33.71-11.31,66.71-29.4,96.29c-28.04,45.88-72.28,78.1-124.56,90.72
	c-13.47,3.25-27.07,5.07-40.61,5.54l-11.57,10.26c17.97,0.41,36.28-1.45,54.58-5.87c113.58-27.41,183.43-141.69,156.02-255.27
	C460.97,75.4,346.69,5.54,233.11,32.95z M196.23,349.49l181.2-2.52L243.38,465.71c-2.66,2.35-5.07,1.39-5.38-2.14l-2.73-31
	c-43,9.32-86.56,7.83-122.77-4.3c-47.29-15.29-82.13-48.13-95.39-88.06c-13.84-39.76-6.18-86.25,19.22-125.81
	c8.91-14.18,20.06-27.43,32.8-39.4c-3.45,12.2-5.85,24.77-7.05,37.58c-1.45,2.59-2.84,5.18-4.11,7.8
	c-17.78,35.94-18.27,74.11-2.67,104.02c15.22,30.14,46,51.36,82.67,58.89c23.18,4.95,53.04,2.7,77.23-2.68l-21.31-26.05
	C191.63,351.81,192.68,349.54,196.23,349.49z"/>
</svg>
