<?xml version="1.0" encoding="utf-8"?>
<!-- Generator: Adobe Illustrator 25.2.1, SVG Export Plug-In . SVG Version: 6.00 Build 0)  -->
<svg version="1.1" id="Capa_1" xmlns="http://www.w3.org/2000/svg" xmlns:xlink="http://www.w3.org/1999/xlink" x="0px" y="0px"
	 viewBox="0 0 612 86.3" style="enable-background:new 0 0 612 86.3;" xml:space="preserve">
<style type="text/css">
	.st0{clip-path:url(#SVGID_2_);fill:#64B448;}
	.st1{clip-path:url(#SVGID_2_);fill:#D09F29;}
	.st2{clip-path:url(#SVGID_2_);fill:#C32033;}
	.st3{clip-path:url(#SVGID_2_);fill:#2D9A47;}
	.st4{clip-path:url(#SVGID_2_);fill:#48773C;}
	.st5{clip-path:url(#SVGID_2_);fill:#FAB61B;}
	.st6{clip-path:url(#SVGID_2_);fill:#E8422E;}
	.st7{clip-path:url(#SVGID_2_);fill:#F59C28;}
	.st8{clip-path:url(#SVGID_2_);fill:#027DBC;}
	.st9{clip-path:url(#SVGID_2_);fill:#8F1839;}
	.st10{clip-path:url(#SVGID_2_);fill:#01ADD8;}
	.st11{clip-path:url(#SVGID_2_);fill:#ED6E28;}
	.st12{clip-path:url(#SVGID_2_);fill:#E52330;}
	.st13{clip-path:url(#SVGID_2_);fill:#E01C83;}
	.st14{clip-path:url(#SVGID_2_);fill:#1E3666;}
	.st15{clip-path:url(#SVGID_2_);fill:#CD8B2A;}
	.st16{clip-path:url(#SVGID_2_);fill:#00568B;}
	.st17{clip-path:url(#SVGID_2_);fill:#029CD9;}
</style>
<g>
	<defs>
		<rect id="SVGID_1_" x="1.12" y="1.52" width="609.88" height="79.99"/>
	</defs>
	<clipPath id="SVGID_2_">
		<use xlink:href="#SVGID_1_"  style="overflow:visible;"/>
	</clipPath>
	<path class="st0" d="M298.99,33.95c0.61-1.03,1.35-1.98,2.19-2.82l-7.19-7.89c-1.81,1.73-3.35,3.74-4.57,5.95L298.99,33.95z"/>
	<path class="st1" d="M316.62,28.38c1.09,0.5,2.1,1.14,3.02,1.89l7.21-7.88c-1.9-1.64-4.05-2.99-6.39-3.99L316.62,28.38z"/>
	<path class="st2" d="M333.14,30.75l-9.56,4.77c0.46,1.07,0.78,2.2,0.96,3.38l10.64-1C334.86,35.37,334.16,32.97,333.14,30.75"/>
	<path class="st3" d="M322.9,34.13l9.56-4.77c-1.18-2.2-2.69-4.2-4.47-5.93l-7.21,7.87C321.59,32.15,322.31,33.1,322.9,34.13"/>
	<path class="st4" d="M297.09,40.93c0-0.22,0.01-0.43,0.02-0.64l-10.64-0.95c-0.03,0.53-0.05,1.06-0.05,1.6
		c0,2.04,0.25,4.02,0.72,5.92l10.28-2.95C297.2,42.94,297.09,41.95,297.09,40.93"/>
	<path class="st5" d="M321.56,49.67c-0.76,0.92-1.63,1.74-2.6,2.44l5.62,9.09c2.08-1.41,3.94-3.14,5.5-5.11L321.56,49.67z"/>
	<path class="st6" d="M324.69,40.93c0,1.01-0.11,1.99-0.32,2.93l10.27,2.95c0.47-1.89,0.72-3.86,0.72-5.89c0-0.5-0.02-1-0.05-1.5
		l-10.64,1C324.68,40.6,324.69,40.76,324.69,40.93"/>
	<path class="st7" d="M300.39,49.87l-8.5,6.46c1.58,1.95,3.45,3.64,5.55,5.03l5.62-9.08C302.07,51.6,301.17,50.79,300.39,49.87"/>
	<path class="st8" d="M297.26,38.75c0.19-1.2,0.54-2.35,1.02-3.43l-9.56-4.76c-1.06,2.25-1.78,4.68-2.11,7.23L297.26,38.75z"/>
	<path class="st9" d="M323.27,62.03l-5.61-9.08c-1.02,0.57-2.12,1.03-3.27,1.33l1.98,10.51C318.83,64.22,321.15,63.28,323.27,62.03"
		/>
	<path class="st10" d="M323.96,45.35c-0.37,1.09-0.88,2.12-1.49,3.07l8.53,6.43c1.38-1.99,2.48-4.2,3.23-6.56L323.96,45.35z"/>
	<path class="st11" d="M312.88,54.58c-0.65,0.09-1.31,0.15-1.99,0.15c-0.54,0-1.08-0.03-1.6-0.09l-1.98,10.51
		c1.17,0.17,2.37,0.26,3.58,0.26c1.35,0,2.68-0.11,3.97-0.32L312.88,54.58z"/>
	<path class="st12" d="M311.77,27.15c1.19,0.08,2.33,0.3,3.42,0.66l3.84-9.97c-2.28-0.8-4.72-1.28-7.25-1.37V27.15z"/>
	<path class="st13" d="M307.76,54.37c-1.2-0.28-2.33-0.71-3.39-1.28l-5.62,9.09c2.16,1.24,4.53,2.15,7.03,2.69L307.76,54.37z"/>
	<path class="st14" d="M306.74,27.76c1.11-0.35,2.28-0.56,3.49-0.62V16.46c-2.57,0.07-5.04,0.54-7.35,1.34L306.74,27.76z"/>
	<path class="st15" d="M299.45,48.65c-0.68-1-1.23-2.1-1.63-3.26l-10.27,2.95c0.78,2.45,1.93,4.73,3.39,6.78L299.45,48.65z"/>
	<path class="st16" d="M302.34,30.1c0.9-0.71,1.89-1.32,2.96-1.79l-3.86-9.96c-2.3,0.97-4.42,2.27-6.3,3.86L302.34,30.1z"/>
	<path class="st17" d="M386.87,35.05V15.96h6.15c1.69,0,3.2,0.38,4.55,1.15c1.35,0.77,2.4,1.84,3.15,3.24
		c0.76,1.39,1.14,2.95,1.15,4.68v0.88c0,1.75-0.37,3.31-1.11,4.7c-0.74,1.38-1.78,2.47-3.12,3.25c-1.34,0.78-2.84,1.18-4.49,1.19
		H386.87z M391.47,19.52v11.99h1.6c1.32,0,2.33-0.47,3.04-1.41c0.71-0.94,1.06-2.33,1.06-4.19v-0.83c0-1.84-0.36-3.23-1.06-4.17
		c-0.71-0.94-1.74-1.4-3.1-1.4H391.47z"/>
	<polygon class="st17" points="416.19,26.95 408.96,26.95 408.96,31.51 417.5,31.51 417.5,35.05 404.35,35.05 404.35,15.97 
		417.53,15.97 417.53,19.52 408.96,19.52 408.96,23.54 416.19,23.54 	"/>
	<path class="st17" d="M426.33,35.05V15.96h6.15c1.69,0,3.2,0.38,4.55,1.15c1.35,0.77,2.4,1.84,3.15,3.24
		c0.76,1.39,1.14,2.95,1.15,4.68v0.88c0,1.75-0.37,3.31-1.11,4.7c-0.74,1.38-1.78,2.47-3.12,3.25c-1.34,0.78-2.84,1.18-4.49,1.19
		H426.33z M430.93,19.52v11.99h1.6c1.32,0,2.33-0.47,3.04-1.41c0.71-0.94,1.06-2.33,1.06-4.19v-0.83c0-1.84-0.36-3.23-1.06-4.17
		c-0.71-0.94-1.74-1.4-3.1-1.4H430.93z"/>
	<polygon class="st17" points="455.66,26.95 448.42,26.95 448.42,31.51 456.97,31.51 456.97,35.05 443.82,35.05 443.82,15.97 
		456.99,15.97 456.99,19.52 448.42,19.52 448.42,23.54 455.66,23.54 	"/>
	<path class="st17" d="M468.82,29.98c0-0.67-0.24-1.2-0.71-1.57c-0.48-0.37-1.31-0.77-2.51-1.17c-1.2-0.4-2.18-0.79-2.93-1.17
		c-2.47-1.21-3.71-2.88-3.71-5.01c0-1.06,0.31-1.99,0.92-2.8c0.62-0.81,1.49-1.44,2.61-1.89c1.13-0.45,2.39-0.67,3.8-0.67
		c1.37,0,2.6,0.24,3.69,0.73c1.09,0.49,1.93,1.18,2.54,2.09c0.6,0.91,0.9,1.94,0.9,3.1h-4.59c0-0.78-0.24-1.38-0.71-1.81
		c-0.48-0.43-1.12-0.64-1.93-0.64c-0.82,0-1.47,0.18-1.95,0.54c-0.48,0.36-0.71,0.82-0.71,1.38c0,0.49,0.26,0.93,0.79,1.33
		c0.52,0.4,1.45,0.81,2.76,1.23c1.32,0.42,2.4,0.88,3.25,1.37c2.06,1.19,3.09,2.83,3.09,4.92c0,1.67-0.63,2.98-1.89,3.93
		c-1.26,0.95-2.98,1.43-5.18,1.43c-1.55,0-2.95-0.28-4.2-0.83c-1.25-0.56-2.2-1.31-2.83-2.28c-0.63-0.97-0.95-2.08-0.95-3.34h4.61
		c0,1.02,0.26,1.78,0.79,2.26c0.53,0.48,1.39,0.73,2.58,0.73c0.76,0,1.36-0.16,1.8-0.49C468.6,31.03,468.82,30.57,468.82,29.98"/>
	<path class="st17" d="M486.75,31.48h-6.3l-1.1,3.56h-4.92l7-19.08h4.33l7.05,19.08h-4.94L486.75,31.48z M481.55,27.93h4.1
		l-2.06-6.62L481.55,27.93z"/>
	<path class="st17" d="M501.42,28.3h-2.49v6.75h-4.6V15.97h7.51c2.26,0,4.03,0.5,5.31,1.5c1.28,1,1.91,2.42,1.91,4.25
		c0,1.33-0.27,2.43-0.81,3.3c-0.54,0.87-1.38,1.58-2.52,2.12l3.98,7.71v0.2h-4.93L501.42,28.3z M498.93,24.76h2.91
		c0.87,0,1.53-0.23,1.97-0.69c0.44-0.46,0.66-1.1,0.66-1.92c0-0.82-0.22-1.47-0.67-1.94c-0.45-0.47-1.1-0.7-1.97-0.7h-2.91V24.76z"
		/>
	<path class="st17" d="M519.07,28.3h-2.49v6.75h-4.6V15.97h7.51c2.26,0,4.03,0.5,5.31,1.5c1.28,1,1.91,2.42,1.91,4.25
		c0,1.33-0.27,2.43-0.81,3.3c-0.54,0.87-1.38,1.58-2.52,2.12l3.98,7.71v0.2h-4.93L519.07,28.3z M516.58,24.76h2.91
		c0.87,0,1.53-0.23,1.97-0.69c0.44-0.46,0.66-1.1,0.66-1.92c0-0.82-0.22-1.47-0.67-1.94c-0.45-0.47-1.1-0.7-1.97-0.7h-2.91V24.76z"
		/>
	<path class="st17" d="M545.79,25.9c0,1.86-0.35,3.51-1.04,4.94c-0.69,1.43-1.67,2.53-2.94,3.31c-1.27,0.77-2.72,1.16-4.34,1.16
		c-1.63,0-3.07-0.37-4.33-1.12c-1.26-0.75-2.24-1.82-2.94-3.21c-0.7-1.39-1.07-2.98-1.11-4.78v-1.08c0-1.87,0.34-3.52,1.03-4.95
		c0.69-1.43,1.67-2.53,2.95-3.31c1.28-0.78,2.74-1.17,4.37-1.17c1.62,0,3.06,0.38,4.33,1.15c1.27,0.77,2.25,1.86,2.96,3.28
		c0.7,1.42,1.06,3.05,1.07,4.88V25.9z M541.11,25.1c0-1.9-0.32-3.34-0.95-4.32c-0.63-0.98-1.54-1.47-2.72-1.47
		c-2.31,0-3.53,1.73-3.66,5.19l-0.01,1.4c0,1.87,0.31,3.31,0.93,4.31c0.62,1,1.54,1.51,2.77,1.51c1.16,0,2.06-0.49,2.69-1.48
		c0.63-0.99,0.95-2.41,0.96-4.26V25.1z"/>
	<polygon class="st17" points="552.9,31.51 560.9,31.51 560.9,35.05 548.29,35.05 548.29,15.96 552.9,15.96 	"/>
	<polygon class="st17" points="567.58,31.51 575.59,31.51 575.59,35.05 562.98,35.05 562.98,15.96 567.58,15.96 	"/>
	<path class="st17" d="M592.98,25.9c0,1.86-0.34,3.51-1.03,4.94c-0.69,1.43-1.67,2.53-2.94,3.31c-1.27,0.77-2.72,1.16-4.34,1.16
		c-1.63,0-3.07-0.37-4.33-1.12c-1.26-0.75-2.24-1.82-2.94-3.21c-0.7-1.39-1.07-2.98-1.11-4.78v-1.08c0-1.87,0.34-3.52,1.03-4.95
		c0.69-1.43,1.67-2.53,2.95-3.31c1.28-0.78,2.74-1.17,4.37-1.17c1.62,0,3.06,0.38,4.33,1.15s2.25,1.86,2.96,3.28
		c0.7,1.42,1.06,3.05,1.07,4.88V25.9z M588.31,25.1c0-1.9-0.32-3.34-0.95-4.32c-0.63-0.98-1.54-1.47-2.72-1.47
		c-2.31,0-3.53,1.73-3.66,5.19l-0.01,1.4c0,1.87,0.31,3.31,0.93,4.31c0.62,1,1.54,1.51,2.77,1.51c1.16,0,2.06-0.49,2.69-1.48
		c0.63-0.99,0.95-2.41,0.96-4.26V25.1z"/>
	<path class="st17" d="M400.25,59c0-0.88-0.31-1.57-0.94-2.07c-0.63-0.49-1.72-1-3.3-1.53c-1.57-0.53-2.86-1.04-3.86-1.53
		c-3.25-1.59-4.87-3.79-4.87-6.58c0-1.39,0.4-2.61,1.21-3.67c0.81-1.06,1.95-1.89,3.43-2.48c1.48-0.59,3.14-0.89,4.99-0.89
		c1.8,0,3.42,0.32,4.85,0.97c1.43,0.64,2.54,1.56,3.33,2.75c0.79,1.19,1.19,2.54,1.19,4.07h-6.02c0-1.02-0.31-1.81-0.94-2.38
		c-0.63-0.56-1.47-0.84-2.54-0.84c-1.08,0-1.93,0.24-2.56,0.71c-0.63,0.48-0.94,1.08-0.94,1.82c0,0.64,0.34,1.22,1.03,1.75
		c0.69,0.52,1.9,1.06,3.63,1.62c1.73,0.56,3.16,1.16,4.27,1.8c2.71,1.56,4.06,3.71,4.06,6.46c0,2.19-0.83,3.91-2.48,5.16
		c-1.65,1.25-3.92,1.88-6.8,1.88c-2.03,0-3.87-0.36-5.52-1.09c-1.65-0.73-2.89-1.73-3.72-2.99c-0.83-1.27-1.25-2.73-1.25-4.38h6.06
		c0,1.34,0.35,2.33,1.04,2.97c0.69,0.64,1.82,0.96,3.38,0.96c1,0,1.79-0.22,2.37-0.65C399.96,60.38,400.25,59.78,400.25,59"/>
	<path class="st17" d="M430.62,53.64c0,2.44-0.45,4.61-1.36,6.49c-0.91,1.88-2.2,3.33-3.87,4.35c-1.67,1.01-3.57,1.52-5.71,1.52
		c-2.13,0-4.03-0.49-5.68-1.47c-1.65-0.98-2.94-2.38-3.86-4.21c-0.92-1.82-1.41-3.92-1.46-6.28v-1.41c0-2.45,0.45-4.62,1.35-6.5
		c0.9-1.88,2.19-3.33,3.87-4.35c1.68-1.02,3.6-1.53,5.74-1.53c2.12,0,4.02,0.5,5.68,1.51c1.67,1.01,2.96,2.45,3.88,4.31
		c0.92,1.86,1.39,4,1.4,6.41V53.64z M424.47,52.59c0-2.49-0.42-4.38-1.25-5.67c-0.83-1.29-2.02-1.94-3.57-1.94
		c-3.03,0-4.63,2.27-4.8,6.82l-0.02,1.84c0,2.46,0.41,4.35,1.22,5.67c0.81,1.32,2.02,1.98,3.63,1.98c1.53,0,2.7-0.65,3.53-1.95
		c0.83-1.3,1.25-3.16,1.26-5.59V52.59z"/>
	<path class="st17" d="M446.66,59c0-0.88-0.31-1.57-0.94-2.07c-0.63-0.49-1.72-1-3.3-1.53c-1.57-0.53-2.86-1.04-3.86-1.53
		c-3.25-1.59-4.87-3.79-4.87-6.58c0-1.39,0.4-2.61,1.21-3.67c0.81-1.06,1.95-1.89,3.43-2.48c1.48-0.59,3.14-0.89,4.99-0.89
		c1.8,0,3.42,0.32,4.85,0.97c1.43,0.64,2.54,1.56,3.33,2.75c0.79,1.19,1.19,2.54,1.19,4.07h-6.02c0-1.02-0.31-1.81-0.94-2.38
		c-0.63-0.56-1.47-0.84-2.54-0.84c-1.08,0-1.93,0.24-2.56,0.71c-0.63,0.48-0.94,1.08-0.94,1.82c0,0.64,0.34,1.22,1.03,1.75
		c0.69,0.52,1.9,1.06,3.63,1.62c1.73,0.56,3.16,1.16,4.27,1.8c2.71,1.56,4.06,3.71,4.06,6.46c0,2.19-0.83,3.91-2.48,5.16
		c-1.65,1.25-3.92,1.88-6.8,1.88c-2.03,0-3.87-0.36-5.52-1.09c-1.65-0.73-2.89-1.73-3.72-2.99c-0.83-1.27-1.25-2.73-1.25-4.38H439
		c0,1.34,0.35,2.33,1.04,2.97c0.69,0.64,1.82,0.96,3.38,0.96c1,0,1.79-0.22,2.37-0.65C446.37,60.38,446.66,59.78,446.66,59"/>
	<polygon class="st17" points="475.48,45.26 467.96,45.26 467.96,65.66 461.92,65.66 461.92,45.26 454.53,45.26 454.53,40.59 
		475.48,40.59 	"/>
	<polygon class="st17" points="493.57,55.02 484.07,55.02 484.07,61.01 495.3,61.01 495.3,65.66 478.03,65.66 478.03,40.59 
		495.33,40.59 495.33,45.26 484.07,45.26 484.07,50.54 493.57,50.54 	"/>
	<polygon class="st17" points="518.69,65.66 512.68,65.66 503.8,50.06 503.8,65.66 497.76,65.66 497.76,40.59 503.8,40.59 
		512.67,56.19 512.67,40.59 518.69,40.59 	"/>
	<rect x="522.93" y="40.59" class="st17" width="6.02" height="25.07"/>
	<path class="st17" d="M533.15,65.66V40.59h9c3.23,0,5.68,0.59,7.36,1.77c1.68,1.18,2.52,2.9,2.52,5.15c0,1.3-0.3,2.4-0.89,3.32
		c-0.6,0.92-1.48,1.59-2.63,2.03c1.31,0.34,2.31,0.99,3.01,1.93c0.7,0.94,1.05,2.09,1.05,3.44c0,2.46-0.78,4.3-2.33,5.53
		c-1.56,1.23-3.86,1.86-6.91,1.89H533.15z M539.2,51.04h3.15c1.32-0.01,2.26-0.25,2.82-0.72c0.56-0.47,0.84-1.17,0.84-2.09
		c0-1.06-0.3-1.82-0.91-2.29c-0.61-0.47-1.59-0.7-2.94-0.7h-2.96V51.04z M539.2,55v6.01h3.96c1.09,0,1.93-0.25,2.52-0.75
		c0.58-0.5,0.88-1.2,0.88-2.11c0-2.09-1.04-3.14-3.12-3.15H539.2z"/>
	<polygon class="st17" points="561.94,61.01 572.46,61.01 572.46,65.66 555.9,65.66 555.9,40.59 561.94,40.59 	"/>
	<polygon class="st17" points="590.55,55.02 581.05,55.02 581.05,61.01 592.27,61.01 592.27,65.66 575,65.66 575,40.59 
		592.31,40.59 592.31,45.26 581.05,45.26 581.05,50.54 590.55,50.54 	"/>
	<path class="st17" d="M61.21,43.66c0.03,4.84-0.79,9.09-2.48,12.75c-1.69,3.66-4.12,6.49-7.29,8.49c-3.17,2-6.82,3.02-10.94,3.05
		c-4.08,0.03-7.72-0.93-10.93-2.86c-3.21-1.94-5.71-4.72-7.49-8.34c-1.78-3.62-2.7-7.8-2.75-12.53l-0.02-2.43
		c-0.03-4.84,0.81-9.11,2.53-12.8c1.72-3.69,4.16-6.54,7.34-8.53c3.17-1.99,6.81-3,10.91-3.03c4.1-0.03,7.74,0.93,10.95,2.88
		c3.2,1.95,5.68,4.76,7.45,8.43c1.77,3.67,2.67,7.92,2.71,12.73L61.21,43.66z M50.93,41.5c-0.04-5.16-0.98-9.07-2.85-11.74
		c-1.87-2.67-4.51-3.99-7.93-3.96c-3.4,0.02-6.01,1.36-7.84,4.02c-1.83,2.66-2.73,6.54-2.72,11.65l0.02,2.4
		c0.04,5.02,0.98,8.91,2.85,11.67c1.86,2.76,4.53,4.13,8,4.1c3.4-0.02,6-1.37,7.81-4.05c1.81-2.68,2.7-6.58,2.69-11.69L50.93,41.5z"
		/>
	<path class="st17" d="M67.42,67.09l-0.34-49.18l17.22-0.12c5.97-0.04,10.5,1.07,13.6,3.34c3.1,2.26,4.66,5.6,4.69,10.02
		c0.02,2.41-0.59,4.54-1.81,6.38c-1.23,1.84-2.94,3.2-5.14,4.07c2.53,0.61,4.52,1.87,5.99,3.77c1.46,1.9,2.21,4.24,2.22,7.01
		c0.03,4.73-1.45,8.32-4.45,10.77c-3,2.45-7.29,3.72-12.88,3.8L67.42,67.09z M77.36,38.45l7.5-0.05c5.11-0.12,7.65-2.18,7.63-6.17
		c-0.02-2.23-0.67-3.83-1.98-4.8c-1.3-0.97-3.35-1.45-6.14-1.43l-7.09,0.05L77.36,38.45z M77.41,45.61l0.09,13.27l8.68-0.06
		c2.39-0.02,4.25-0.6,5.58-1.74c1.33-1.15,1.99-2.72,1.98-4.73c-0.03-4.5-2.38-6.77-7.04-6.81L77.41,45.61z"/>
	<path class="st17" d="M129.74,17.49l10.13-0.07l0.23,34.04c0.02,3.13-0.65,5.9-2.02,8.31c-1.37,2.41-3.31,4.27-5.82,5.59
		c-2.51,1.32-5.36,2-8.53,2.02c-5.2,0.04-9.26-1.26-12.19-3.88c-2.92-2.62-4.4-6.36-4.43-11.2l10.2-0.07
		c0.02,2.41,0.53,4.18,1.56,5.33c1.02,1.14,2.62,1.7,4.81,1.69c1.94-0.01,3.47-0.69,4.61-2.02c1.14-1.34,1.7-3.23,1.69-5.69
		L129.74,17.49z"/>
	<polygon class="st17" points="177.01,45.03 157.56,45.16 157.65,58.34 180.48,58.18 180.54,66.32 147.57,66.54 147.24,17.37 
		180.13,17.14 180.19,25.35 157.42,25.51 157.5,37.23 176.96,37.09 	"/>
	<polygon class="st17" points="222.58,25.06 207.51,25.17 207.79,66.13 197.66,66.2 197.38,25.24 182.52,25.34 182.47,17.13 
		222.52,16.86 	"/>
	
		<rect x="227.79" y="16.79" transform="matrix(1 -6.776881e-03 6.776881e-03 1 -0.275 1.579)" class="st17" width="10.13" height="49.18"/>
	<polygon class="st17" points="264.25,53.56 275.15,16.5 286.43,16.42 269.64,65.71 259.07,65.78 241.68,16.73 252.92,16.65 	"/>
	<path class="st17" d="M366.33,52.15c-0.01-1.91-0.7-3.38-2.06-4.39c-1.36-1.01-3.8-2.08-7.32-3.19c-3.52-1.11-6.31-2.21-8.36-3.3
		c-5.6-2.98-8.43-7.02-8.46-12.14c-0.02-2.66,0.71-5.03,2.2-7.12c1.48-2.09,3.62-3.74,6.42-4.92c2.8-1.19,5.94-1.8,9.43-1.82
		c3.51-0.02,6.65,0.59,9.4,1.84c2.75,1.25,4.9,3.03,6.44,5.34c1.54,2.31,2.31,4.94,2.33,7.89l-10.13,0.07
		c-0.02-2.25-0.74-4-2.16-5.24c-1.43-1.24-3.42-1.85-5.99-1.83c-2.48,0.02-4.4,0.55-5.77,1.61c-1.37,1.06-2.04,2.44-2.03,4.15
		c0.01,1.6,0.83,2.93,2.44,4c1.62,1.07,3.99,2.07,7.13,2.99c5.78,1.69,9.99,3.82,12.64,6.36c2.65,2.55,3.99,5.74,4.02,9.57
		c0.03,4.25-1.56,7.61-4.76,10.05c-3.2,2.44-7.53,3.68-12.98,3.72c-3.78,0.03-7.23-0.64-10.35-2.01c-3.12-1.36-5.5-3.24-7.15-5.64
		c-1.65-2.4-2.48-5.18-2.51-8.36l10.17-0.07c0.04,5.43,3.3,8.12,9.78,8.07c2.41-0.02,4.29-0.52,5.63-1.51
		C365.68,55.28,366.34,53.91,366.33,52.15"/>
</g>
</svg>
